sX, sY, dX, dY, B, R
0, 0, 0, 1, 1, 0.039735099337748346
0, 0, 0, 2, 1, 0.046357615894039736
0, 0, 0, 3, 1, 0.033112582781456956
0, 0, 1, 0, 1, 0.2251655629139073
0, 0, 1, 1, 1, 0.026490066225165563
0, 0, 1, 2, 1, 0.006622516556291391
0, 0, 2, 0, 1, 0.11258278145695365
0, 0, 2, 2, 1, 0.006622516556291391
0, 0, 2, 3, 1, 0.046357615894039736
0, 0, 3, 0, 1, 0.046357615894039736
0, 0, 3, 1, 1, 0.039735099337748346
0, 0, 3, 2, 1, 0.019867549668874173
0, 1, 0, 0, 1, 0.17880794701986755
0, 1, 0, 2, 1, 0.07947019867549669
0, 1, 0, 3, 1, 0.07947019867549669
0, 1, 1, 0, 1, 0.9933774834437086
0, 1, 1, 1, 1, 0.059602649006622516
0, 1, 1, 2, 1, 0.059602649006622516
0, 1, 1, 3, 1, 0.006622516556291391
0, 1, 2, 0, 1, 0.11920529801324503
0, 1, 2, 2, 1, 0.06622516556291391
0, 1, 3, 0, 1, 0.09271523178807947
0, 1, 3, 1, 1, 0.08609271523178808
0, 1, 3, 2, 1, 0.06622516556291391
0, 1, 3, 3, 1, 0.013245033112582781
0, 2, 0, 0, 1, 0.09271523178807947
0, 2, 0, 1, 1, 0.046357615894039736
0, 2, 0, 3, 1, 0.026490066225165563
0, 2, 1, 0, 1, 0.11920529801324503
0, 2, 1, 1, 1, 0.046357615894039736
0, 2, 1, 3, 1, 0.006622516556291391
0, 2, 2, 0, 1, 0.9933774834437086
0, 2, 2, 1, 1, 0.006622516556291391
0, 2, 2, 2, 1, 0.006622516556291391
0, 2, 2, 3, 1, 0.019867549668874173
0, 2, 3, 0, 1, 0.2980132450331126
0, 2, 3, 1, 1, 0.033112582781456956
0, 2, 3, 2, 1, 0.006622516556291391
0, 2, 3, 3, 1, 0.006622516556291391
0, 3, 0, 0, 1, 0.06622516556291391
0, 3, 0, 1, 1, 0.0728476821192053
0, 3, 0, 2, 1, 0.052980132450331126
0, 3, 1, 0, 1, 0.059602649006622516
0, 3, 1, 1, 1, 0.16556291390728478
0, 3, 1, 2, 1, 0.013245033112582781
0, 3, 1, 3, 1, 0.013245033112582781
0, 3, 2, 0, 1, 0.16556291390728478
0, 3, 2, 1, 1, 0.013245033112582781
0, 3, 2, 2, 1, 0.026490066225165563
0, 3, 2, 3, 1, 0.026490066225165563
0, 3, 3, 0, 1, 0.9933774834437086
0, 3, 3, 1, 1, 0.0728476821192053
0, 3, 3, 2, 1, 0.026490066225165563
0, 3, 3, 3, 1, 0.013245033112582781
1, 0, 0, 0, 1, 0.013245033112582781
1, 0, 0, 1, 1, 1.0
1, 0, 0, 2, 1, 0.013245033112582781
1, 0, 0, 3, 1, 0.013245033112582781
1, 0, 1, 1, 1, 0.2913907284768212
1, 0, 1, 3, 1, 0.013245033112582781
1, 0, 2, 0, 1, 0.052980132450331126
1, 0, 2, 1, 1, 0.052980132450331126
1, 0, 2, 2, 1, 0.013245033112582781
1, 0, 2, 3, 1, 0.006622516556291391
1, 0, 3, 0, 1, 0.08609271523178808
1, 0, 3, 1, 1, 0.0728476821192053
1, 0, 3, 2, 1, 0.013245033112582781
1, 0, 3, 3, 1, 0.013245033112582781
1, 1, 0, 0, 1, 0.052980132450331126
1, 1, 0, 1, 1, 0.17218543046357615
1, 1, 0, 2, 1, 0.039735099337748346
1, 1, 0, 3, 1, 0.039735099337748346
1, 1, 1, 0, 1, 0.052980132450331126
1, 1, 1, 3, 1, 0.039735099337748346
1, 1, 2, 0, 1, 0.09933774834437085
1, 1, 2, 1, 1, 0.11920529801324503
1, 1, 2, 2, 1, 0.039735099337748346
1, 1, 2, 3, 1, 0.019867549668874173
1, 1, 3, 0, 1, 0.11920529801324503
1, 1, 3, 1, 1, 0.16556291390728478
1, 1, 3, 2, 1, 0.026490066225165563
1, 1, 3, 3, 1, 0.039735099337748346
1, 2, 0, 1, 1, 0.019867549668874173
1, 2, 1, 1, 1, 0.33774834437086093
1, 2, 2, 0, 1, 0.006622516556291391
1, 2, 2, 1, 1, 1.0
1, 2, 3, 0, 1, 0.006622516556291391
1, 2, 3, 1, 1, 0.039735099337748346
1, 2, 3, 2, 1, 0.013245033112582781
1, 3, 0, 0, 1, 0.019867549668874173
1, 3, 0, 1, 1, 0.152317880794702
1, 3, 0, 2, 1, 0.006622516556291391
1, 3, 0, 3, 1, 0.013245033112582781
1, 3, 1, 0, 1, 0.006622516556291391
1, 3, 1, 1, 1, 0.304635761589404
1, 3, 2, 0, 1, 0.039735099337748346
1, 3, 2, 1, 1, 0.09271523178807947
1, 3, 2, 2, 1, 0.006622516556291391
1, 3, 3, 0, 1, 0.059602649006622516
1, 3, 3, 1, 1, 0.9933774834437086
1, 3, 3, 3, 1, 0.006622516556291391
2, 0, 0, 0, 1, 0.033112582781456956
2, 0, 0, 1, 1, 0.006622516556291391
2, 0, 0, 2, 1, 0.9801324503311258
2, 0, 0, 3, 1, 0.09271523178807947
2, 0, 1, 0, 1, 0.10596026490066225
2, 0, 1, 1, 1, 0.006622516556291391
2, 0, 1, 2, 1, 0.052980132450331126
2, 0, 1, 3, 1, 0.006622516556291391
2, 0, 2, 2, 1, 0.10596026490066225
2, 0, 2, 3, 1, 0.006622516556291391
2, 0, 3, 0, 1, 0.11258278145695365
2, 0, 3, 1, 1, 0.006622516556291391
2, 0, 3, 2, 1, 0.026490066225165563
2, 0, 3, 3, 1, 0.006622516556291391
2, 1, 0, 0, 1, 0.019867549668874173
2, 1, 0, 2, 1, 0.09933774834437085
2, 1, 0, 3, 1, 0.17218543046357615
2, 1, 1, 0, 1, 0.23841059602649006
2, 1, 1, 2, 1, 0.9801324503311258
2, 1, 2, 2, 1, 0.033112582781456956
2, 1, 3, 0, 1, 0.11258278145695365
2, 1, 3, 2, 1, 0.013245033112582781
2, 2, 0, 0, 1, 0.006622516556291391
2, 2, 0, 1, 1, 0.006622516556291391
2, 2, 0, 2, 1, 0.08609271523178808
2, 2, 0, 3, 1, 0.11258278145695365
2, 2, 1, 0, 1, 0.059602649006622516
2, 2, 1, 1, 1, 0.006622516556291391
2, 2, 1, 2, 1, 0.006622516556291391
2, 2, 1, 3, 1, 0.006622516556291391
2, 2, 2, 0, 1, 0.006622516556291391
2, 2, 3, 0, 1, 0.006622516556291391
2, 2, 3, 1, 1, 0.006622516556291391
2, 2, 3, 2, 1, 0.026490066225165563
2, 2, 3, 3, 1, 0.006622516556291391
2, 3, 0, 0, 1, 0.06622516556291391
2, 3, 0, 1, 1, 0.013245033112582781
2, 3, 0, 2, 1, 0.013245033112582781
2, 3, 0, 3, 1, 0.06622516556291391
2, 3, 1, 0, 1, 0.1390728476821192
2, 3, 1, 1, 1, 0.026490066225165563
2, 3, 1, 2, 1, 0.013245033112582781
2, 3, 2, 0, 1, 0.006622516556291391
2, 3, 2, 1, 1, 0.013245033112582781
2, 3, 2, 2, 1, 0.019867549668874173
2, 3, 3, 0, 1, 0.059602649006622516
2, 3, 3, 2, 1, 0.9867549668874173
3, 0, 0, 0, 1, 0.039735099337748346
3, 0, 0, 1, 1, 0.11920529801324503
3, 0, 0, 2, 1, 0.11258278145695365
3, 0, 0, 3, 1, 0.9933774834437086
3, 0, 1, 0, 1, 0.11920529801324503
3, 0, 1, 1, 1, 0.152317880794702
3, 0, 1, 2, 1, 0.0728476821192053
3, 0, 1, 3, 1, 0.2185430463576159
3, 0, 2, 0, 1, 0.12582781456953643
3, 0, 2, 2, 1, 0.11920529801324503
3, 0, 2, 3, 1, 0.09271523178807947
3, 0, 3, 1, 1, 0.10596026490066225
3, 0, 3, 2, 1, 0.026490066225165563
3, 0, 3, 3, 1, 0.15894039735099338
3, 1, 0, 1, 1, 0.013245033112582781
3, 1, 0, 2, 1, 0.006622516556291391
3, 1, 0, 3, 1, 0.41721854304635764
3, 1, 1, 0, 1, 0.006622516556291391
3, 1, 1, 1, 1, 0.046357615894039736
3, 1, 1, 3, 1, 0.9933774834437086
3, 1, 2, 0, 1, 0.006622516556291391
3, 1, 2, 2, 1, 0.006622516556291391
3, 1, 2, 3, 1, 0.026490066225165563
3, 1, 3, 0, 1, 0.033112582781456956
3, 1, 3, 3, 1, 0.026490066225165563
3, 2, 0, 0, 1, 0.013245033112582781
3, 2, 0, 1, 1, 0.026490066225165563
3, 2, 0, 2, 1, 0.013245033112582781
3, 2, 0, 3, 1, 0.2847682119205298
3, 2, 1, 1, 1, 0.06622516556291391
3, 2, 1, 3, 1, 0.039735099337748346
3, 2, 2, 0, 1, 0.046357615894039736
3, 2, 2, 3, 1, 0.9867549668874173
3, 2, 3, 0, 1, 0.1390728476821192
3, 2, 3, 3, 1, 0.026490066225165563
3, 3, 0, 1, 1, 0.006622516556291391
3, 3, 0, 2, 1, 0.039735099337748346
3, 3, 0, 3, 1, 0.3509933774834437
3, 3, 1, 0, 1, 0.039735099337748346
3, 3, 1, 1, 1, 0.1390728476821192
3, 3, 1, 3, 1, 0.019867549668874173
3, 3, 2, 0, 1, 0.026490066225165563
3, 3, 2, 2, 1, 0.026490066225165563
3, 3, 2, 3, 1, 0.039735099337748346
3, 3, 3, 0, 1, 0.006622516556291391
3, 3, 3, 1, 1, 0.006622516556291391
