sX, sY, dX, dY, B, R
0, 0, 1, 0, 1, 0.116000
1, 0, 2, 3, 1, 0.089000
2, 0, 2, 3, 1, 0.121000
3, 0, 2, 2, 1, 0.107000
0, 1, 0, 3, 1, 0.072000
1, 1, 1, 3, 1, 0.094000
2, 1, 2, 3, 1, 0.120000
3, 1, 1, 3, 1, 0.125000
0, 2, 1, 3, 1, 0.112000
1, 2, 2, 0, 1, 0.103000
2, 2, 0, 2, 1, 0.086000
3, 2, 0, 3, 1, 0.095000
0, 3, 1, 0, 1, 0.078000
1, 3, 1, 1, 1, 0.108000
2, 3, 0, 1, 1, 0.080000
3, 3, 0, 1, 1, 0.081000
