sX, sY, dX, dY, B, R
0, 0, 1, 0, 1, 0.625000
0, 0, 1, 1, 1, 0.980000
0, 0, 1, 1, 1, 0.221000
0, 0, 1, 0, 1, 0.599000
0, 0, 1, 1, 1, 0.179000
0, 0, 0, 1, 1, 0.703000
0, 0, 1, 1, 1, 0.626000
0, 0, 0, 1, 1, 0.416000
0, 0, 0, 1, 1, 0.137000
0, 0, 0, 1, 1, 0.660000
1, 0, 1, 1, 1, 0.147000
1, 0, 1, 1, 1, 0.735000
1, 0, 1, 1, 1, 0.755000
1, 0, 0, 0, 1, 0.146000
1, 0, 1, 1, 1, 0.466000
1, 0, 0, 0, 1, 0.466000
1, 0, 1, 1, 1, 0.383000
1, 0, 0, 0, 1, 0.129000
1, 0, 0, 0, 1, 0.261000
1, 0, 0, 0, 1, 0.602000
0, 1, 0, 0, 1, 0.764000
0, 1, 0, 0, 1, 0.311000
0, 1, 1, 0, 1, 0.203000
0, 1, 1, 0, 1, 0.434000
0, 1, 1, 1, 1, 0.822000
0, 1, 0, 0, 1, 0.031000
0, 1, 1, 1, 1, 0.233000
0, 1, 0, 0, 1, 0.245000
0, 1, 0, 0, 1, 0.328000
0, 1, 1, 1, 1, 0.827000
1, 1, 0, 0, 1, 0.969000
1, 1, 1, 0, 1, 0.969000
1, 1, 0, 0, 1, 0.916000
1, 1, 0, 1, 1, 0.939000
1, 1, 0, 1, 1, 0.810000
1, 1, 1, 0, 1, 0.454000
1, 1, 0, 1, 1, 0.457000
1, 1, 1, 0, 1, 0.132000
1, 1, 1, 0, 1, 0.255000
1, 1, 1, 0, 1, 0.802000
