sX, sY, dX, dY, B, R
0, 0, 1, 0, 1, 0.536000
0, 0, 0, 1, 1, 0.930000
0, 0, 0, 1, 1, 0.304000
0, 0, 1, 0, 1, 0.103000
0, 0, 1, 0, 1, 0.584000
0, 0, 1, 1, 1, 0.900000
0, 0, 1, 0, 1, 0.105000
0, 0, 1, 1, 1, 0.654000
0, 0, 1, 1, 1, 0.239000
0, 0, 1, 0, 1, 0.543000
1, 0, 1, 1, 1, 0.098000
1, 0, 0, 1, 1, 0.356000
1, 0, 1, 1, 1, 0.467000
1, 0, 1, 1, 1, 0.808000
1, 0, 0, 0, 1, 0.426000
1, 0, 0, 0, 1, 0.275000
1, 0, 1, 1, 1, 0.732000
1, 0, 0, 0, 1, 0.131000
1, 0, 1, 1, 1, 0.045000
1, 0, 0, 0, 1, 0.560000
0, 1, 0, 0, 1, 0.316000
0, 1, 0, 0, 1, 0.060000
0, 1, 0, 0, 1, 0.665000
0, 1, 1, 1, 1, 0.592000
0, 1, 0, 0, 1, 0.579000
0, 1, 0, 0, 1, 0.576000
0, 1, 0, 0, 1, 0.810000
0, 1, 1, 1, 1, 0.877000
0, 1, 1, 1, 1, 0.524000
0, 1, 1, 0, 1, 0.123000
1, 1, 1, 0, 1, 0.708000
1, 1, 0, 1, 1, 0.934000
1, 1, 0, 1, 1, 0.926000
1, 1, 0, 0, 1, 0.989000
1, 1, 1, 0, 1, 0.796000
1, 1, 0, 1, 1, 0.278000
1, 1, 1, 0, 1, 0.440000
1, 1, 1, 0, 1, 0.657000
1, 1, 1, 0, 1, 0.935000
1, 1, 1, 0, 1, 0.498000
