sX, sY, dX, dY, B, R
0, 0, 4, 3, 1, 0.732000
0, 0, 1, 4, 1, 0.773000
0, 0, 3, 2, 1, 0.537000
0, 0, 3, 1, 1, 0.005000
0, 0, 0, 4, 1, 0.889000
0, 0, 3, 4, 1, 0.700000
0, 0, 2, 2, 1, 0.396000
1, 0, 4, 1, 1, 0.886000
1, 0, 0, 2, 1, 0.422000
2, 0, 1, 3, 1, 0.695000
2, 0, 0, 2, 1, 0.138000
2, 0, 1, 3, 1, 0.626000
2, 0, 4, 3, 1, 0.056000
2, 0, 3, 4, 1, 0.965000
2, 0, 4, 0, 1, 0.879000
2, 0, 4, 3, 1, 0.876000
2, 0, 1, 4, 1, 0.875000
2, 0, 4, 0, 1, 0.884000
3, 0, 2, 1, 1, 0.158000
3, 0, 2, 1, 1, 0.223000
3, 0, 0, 4, 1, 0.080000
3, 0, 4, 1, 1, 0.434000
4, 0, 2, 2, 1, 0.177000
4, 0, 3, 0, 1, 0.023000
4, 0, 4, 4, 1, 0.676000
4, 0, 2, 0, 1, 0.097000
4, 0, 3, 2, 1, 0.245000
4, 0, 0, 1, 1, 0.917000
4, 0, 1, 0, 1, 0.060000
4, 0, 1, 0, 1, 0.455000
4, 0, 0, 1, 1, 0.159000
4, 0, 0, 1, 1, 0.977000
0, 1, 1, 1, 1, 0.643000
1, 1, 4, 3, 1, 0.608000
1, 1, 1, 2, 1, 0.686000
1, 1, 1, 0, 1, 0.821000
1, 1, 1, 4, 1, 0.986000
1, 1, 3, 3, 1, 0.510000
2, 1, 4, 0, 1, 0.843000
2, 1, 1, 3, 1, 0.333000
2, 1, 2, 0, 1, 0.686000
2, 1, 1, 3, 1, 0.965000
3, 1, 3, 4, 1, 0.682000
3, 1, 0, 4, 1, 0.170000
3, 1, 4, 0, 1, 0.279000
3, 1, 2, 4, 1, 0.117000
3, 1, 1, 3, 1, 0.168000
3, 1, 2, 0, 1, 0.899000
4, 1, 4, 0, 1, 0.881000
4, 1, 4, 2, 1, 0.271000
4, 1, 4, 4, 1, 0.516000
4, 1, 2, 4, 1, 0.999000
4, 1, 1, 2, 1, 0.199000
0, 2, 3, 0, 1, 0.677000
0, 2, 1, 0, 1, 0.700000
0, 2, 4, 1, 1, 0.134000
0, 2, 1, 1, 1, 0.353000
0, 2, 0, 3, 1, 0.317000
0, 2, 1, 4, 1, 0.136000
0, 2, 3, 4, 1, 0.494000
0, 2, 2, 2, 1, 0.244000
0, 2, 2, 3, 1, 0.445000
0, 2, 1, 1, 1, 0.671000
1, 2, 1, 1, 1, 0.962000
2, 2, 1, 0, 1, 0.453000
3, 2, 1, 4, 1, 0.295000
3, 2, 2, 3, 1, 0.543000
3, 2, 3, 0, 1, 0.951000
3, 2, 0, 1, 1, 0.923000
3, 2, 4, 0, 1, 0.862000
4, 2, 4, 0, 1, 0.317000
4, 2, 3, 3, 1, 0.431000
4, 2, 1, 3, 1, 0.767000
4, 2, 3, 2, 1, 0.227000
0, 3, 3, 1, 1, 0.055000
0, 3, 4, 1, 1, 0.140000
0, 3, 3, 3, 1, 0.115000
0, 3, 3, 3, 1, 0.144000
1, 3, 2, 2, 1, 0.058000
1, 3, 3, 2, 1, 0.976000
1, 3, 3, 2, 1, 0.376000
1, 3, 3, 0, 1, 0.056000
1, 3, 0, 4, 1, 0.018000
2, 3, 3, 1, 1, 0.134000
2, 3, 0, 0, 1, 0.713000
2, 3, 0, 3, 1, 0.018000
2, 3, 0, 3, 1, 0.454000
2, 3, 4, 3, 1, 0.783000
2, 3, 4, 0, 1, 0.118000
3, 3, 0, 1, 1, 0.355000
3, 3, 1, 1, 1, 0.214000
3, 3, 0, 0, 1, 0.662000
3, 3, 2, 3, 1, 0.151000
3, 3, 0, 1, 1, 0.544000
3, 3, 2, 2, 1, 0.249000
3, 3, 4, 2, 1, 0.447000
3, 3, 4, 4, 1, 0.063000
4, 3, 3, 4, 1, 0.705000
4, 3, 1, 2, 1, 0.549000
4, 3, 4, 2, 1, 0.065000
4, 3, 1, 1, 1, 0.766000
4, 3, 4, 4, 1, 0.286000
4, 3, 0, 1, 1, 0.871000
0, 4, 3, 3, 1, 0.230000
0, 4, 4, 4, 1, 0.684000
0, 4, 4, 1, 1, 0.856000
0, 4, 4, 2, 1, 0.765000
0, 4, 1, 0, 1, 0.679000
0, 4, 3, 3, 1, 0.314000
1, 4, 1, 0, 1, 0.663000
1, 4, 0, 4, 1, 0.958000
1, 4, 0, 4, 1, 0.243000
1, 4, 0, 0, 1, 0.723000
1, 4, 0, 3, 1, 0.453000
1, 4, 2, 0, 1, 0.985000
1, 4, 3, 2, 1, 0.675000
1, 4, 1, 3, 1, 0.824000
1, 4, 3, 1, 1, 0.485000
2, 4, 0, 1, 1, 0.781000
2, 4, 3, 0, 1, 0.288000
2, 4, 3, 0, 1, 0.519000
2, 4, 4, 1, 1, 0.140000
2, 4, 4, 1, 1, 0.575000
2, 4, 1, 1, 1, 0.915000
2, 4, 4, 0, 1, 0.886000
2, 4, 2, 3, 1, 0.894000
2, 4, 3, 3, 1, 0.711000
2, 4, 3, 2, 1, 0.894000
3, 4, 3, 2, 1, 0.396000
3, 4, 0, 3, 1, 0.121000
3, 4, 0, 2, 1, 0.863000
3, 4, 4, 1, 1, 0.604000
3, 4, 1, 3, 1, 0.652000
3, 4, 0, 3, 1, 0.112000
3, 4, 0, 0, 1, 0.872000
4, 4, 2, 2, 1, 0.704000
4, 4, 1, 3, 1, 0.940000
4, 4, 3, 3, 1, 0.708000
4, 4, 1, 4, 1, 0.676000
4, 4, 2, 2, 1, 0.523000
4, 4, 2, 1, 1, 0.905000
4, 4, 0, 1, 1, 0.548000
