sX, sY, dX, dY, B, R
0, 0, 2, 1, 1, 0.842000
0, 0, 3, 2, 1, 0.912000
0, 0, 0, 3, 1, 0.709000
0, 0, 2, 4, 1, 0.710000
0, 0, 2, 3, 1, 0.391000
0, 0, 1, 2, 1, 0.548000
0, 0, 1, 4, 1, 0.784000
1, 0, 2, 1, 1, 0.266000
1, 0, 2, 2, 1, 0.962000
1, 0, 4, 4, 1, 0.905000
1, 0, 0, 2, 1, 0.813000
1, 0, 4, 0, 1, 0.004000
1, 0, 1, 3, 1, 0.158000
1, 0, 3, 1, 1, 0.108000
1, 0, 3, 1, 1, 0.446000
1, 0, 0, 2, 1, 0.991000
1, 0, 2, 2, 1, 0.585000
2, 0, 4, 3, 1, 0.479000
2, 0, 2, 4, 1, 0.802000
2, 0, 4, 3, 1, 0.525000
3, 0, 2, 1, 1, 0.034000
3, 0, 2, 0, 1, 0.044000
3, 0, 2, 1, 1, 0.603000
4, 0, 1, 3, 1, 0.940000
4, 0, 3, 3, 1, 0.637000
4, 0, 3, 2, 1, 0.053000
0, 1, 0, 3, 1, 0.148000
0, 1, 2, 0, 1, 0.149000
0, 1, 2, 1, 1, 0.821000
0, 1, 3, 3, 1, 0.184000
0, 1, 4, 3, 1, 0.796000
0, 1, 1, 0, 1, 0.198000
1, 1, 0, 1, 1, 0.452000
1, 1, 3, 4, 1, 0.213000
1, 1, 0, 0, 1, 0.510000
1, 1, 0, 0, 1, 0.969000
1, 1, 3, 4, 1, 0.740000
1, 1, 3, 3, 1, 0.461000
1, 1, 3, 4, 1, 0.120000
2, 1, 1, 3, 1, 0.696000
2, 1, 2, 4, 1, 0.727000
2, 1, 0, 2, 1, 0.826000
3, 1, 3, 0, 1, 0.943000
3, 1, 0, 0, 1, 0.661000
4, 1, 4, 0, 1, 0.819000
4, 1, 1, 1, 1, 0.849000
4, 1, 0, 1, 1, 0.849000
4, 1, 3, 4, 1, 0.513000
0, 2, 1, 3, 1, 0.769000
0, 2, 0, 0, 1, 0.846000
0, 2, 1, 0, 1, 0.038000
0, 2, 3, 1, 1, 0.234000
0, 2, 2, 2, 1, 0.028000
1, 2, 0, 2, 1, 0.338000
1, 2, 1, 1, 1, 0.196000
1, 2, 4, 3, 1, 0.444000
1, 2, 1, 0, 1, 0.032000
1, 2, 2, 1, 1, 0.655000
1, 2, 0, 1, 1, 0.468000
1, 2, 1, 3, 1, 0.488000
1, 2, 0, 0, 1, 0.669000
2, 2, 0, 0, 1, 0.977000
3, 2, 1, 3, 1, 0.485000
3, 2, 2, 3, 1, 0.907000
3, 2, 1, 1, 1, 0.413000
3, 2, 1, 4, 1, 0.753000
3, 2, 1, 4, 1, 0.083000
3, 2, 0, 0, 1, 0.349000
3, 2, 0, 3, 1, 0.167000
4, 2, 1, 0, 1, 0.987000
4, 2, 3, 0, 1, 0.957000
4, 2, 4, 3, 1, 0.146000
4, 2, 1, 3, 1, 0.615000
4, 2, 2, 4, 1, 0.792000
4, 2, 1, 3, 1, 0.214000
4, 2, 4, 4, 1, 0.970000
4, 2, 0, 0, 1, 0.526000
0, 3, 3, 3, 1, 0.838000
0, 3, 0, 2, 1, 0.732000
0, 3, 1, 4, 1, 0.442000
0, 3, 3, 3, 1, 0.547000
0, 3, 0, 0, 1, 0.890000
0, 3, 2, 2, 1, 0.384000
0, 3, 0, 0, 1, 0.960000
0, 3, 4, 0, 1, 0.196000
0, 3, 4, 1, 1, 0.388000
0, 3, 4, 1, 1, 0.788000
1, 3, 2, 2, 1, 0.804000
1, 3, 2, 2, 1, 0.153000
1, 3, 4, 2, 1, 0.433000
1, 3, 3, 4, 1, 0.880000
1, 3, 4, 2, 1, 0.676000
1, 3, 1, 0, 1, 0.578000
1, 3, 1, 0, 1, 0.224000
1, 3, 0, 3, 1, 0.020000
1, 3, 3, 0, 1, 0.012000
1, 3, 2, 2, 1, 0.161000
2, 3, 0, 1, 1, 0.009000
2, 3, 1, 2, 1, 0.601000
2, 3, 3, 3, 1, 0.883000
2, 3, 2, 1, 1, 0.409000
3, 3, 3, 2, 1, 0.747000
3, 3, 0, 0, 1, 0.721000
3, 3, 0, 3, 1, 0.541000
3, 3, 2, 3, 1, 0.256000
3, 3, 1, 2, 1, 0.148000
3, 3, 4, 2, 1, 0.443000
3, 3, 1, 3, 1, 0.871000
3, 3, 4, 4, 1, 0.956000
3, 3, 1, 0, 1, 0.856000
4, 3, 1, 3, 1, 0.796000
4, 3, 1, 1, 1, 0.411000
4, 3, 4, 4, 1, 0.357000
0, 4, 1, 4, 1, 0.588000
0, 4, 1, 3, 1, 0.802000
0, 4, 3, 2, 1, 0.378000
0, 4, 3, 2, 1, 0.136000
0, 4, 4, 3, 1, 0.444000
0, 4, 4, 1, 1, 0.542000
1, 4, 1, 2, 1, 0.707000
1, 4, 0, 0, 1, 0.860000
1, 4, 3, 0, 1, 0.655000
1, 4, 2, 1, 1, 0.793000
1, 4, 3, 0, 1, 0.028000
1, 4, 4, 2, 1, 0.813000
1, 4, 2, 3, 1, 0.513000
2, 4, 1, 2, 1, 0.400000
2, 4, 0, 4, 1, 0.416000
2, 4, 1, 1, 1, 0.695000
3, 4, 2, 4, 1, 0.168000
3, 4, 1, 1, 1, 0.914000
3, 4, 3, 3, 1, 0.669000
3, 4, 4, 3, 1, 0.073000
3, 4, 0, 1, 1, 0.958000
3, 4, 0, 0, 1, 0.876000
3, 4, 0, 0, 1, 0.337000
3, 4, 2, 3, 1, 0.568000
4, 4, 3, 0, 1, 0.611000
4, 4, 4, 0, 1, 0.779000
4, 4, 0, 1, 1, 0.327000
4, 4, 4, 2, 1, 0.750000
