sX, sY, dX, dY, B, R
0, 0, 2, 2, 1, 0.043000
0, 0, 2, 2, 1, 0.052000
0, 0, 2, 4, 1, 0.079000
0, 0, 0, 3, 1, 0.064000
0, 0, 1, 4, 1, 0.080000
0, 0, 2, 3, 1, 0.079000
0, 0, 3, 1, 1, 0.072000
0, 0, 1, 2, 1, 0.051000
0, 0, 4, 0, 1, 0.074000
0, 0, 3, 2, 1, 0.041000
0, 0, 1, 1, 1, 0.075000
0, 0, 0, 3, 1, 0.054000
0, 0, 2, 1, 1, 0.063000
0, 0, 4, 0, 1, 0.065000
0, 0, 1, 3, 1, 0.048000
0, 0, 2, 2, 1, 0.078000
0, 0, 4, 3, 1, 0.045000
0, 0, 2, 3, 1, 0.054000
0, 0, 0, 3, 1, 0.047000
0, 0, 2, 4, 1, 0.067000
0, 0, 0, 3, 1, 0.048000
0, 0, 4, 1, 1, 0.080000
0, 0, 4, 0, 1, 0.051000
0, 0, 2, 4, 1, 0.079000
0, 0, 2, 0, 1, 0.057000
0, 0, 3, 0, 1, 0.064000
0, 0, 2, 4, 1, 0.050000
0, 0, 2, 3, 1, 0.051000
1, 0, 4, 1, 1, 0.067000
1, 0, 3, 4, 1, 0.076000
1, 0, 2, 3, 1, 0.078000
1, 0, 1, 1, 1, 0.055000
1, 0, 1, 3, 1, 0.045000
1, 0, 2, 4, 1, 0.059000
1, 0, 4, 1, 1, 0.050000
1, 0, 0, 0, 1, 0.041000
1, 0, 1, 1, 1, 0.063000
1, 0, 0, 4, 1, 0.044000
1, 0, 0, 2, 1, 0.056000
1, 0, 3, 4, 1, 0.075000
1, 0, 2, 2, 1, 0.068000
1, 0, 1, 4, 1, 0.056000
1, 0, 1, 2, 1, 0.071000
1, 0, 3, 2, 1, 0.048000
1, 0, 3, 3, 1, 0.079000
1, 0, 0, 4, 1, 0.073000
1, 0, 2, 0, 1, 0.044000
1, 0, 4, 3, 1, 0.070000
1, 0, 3, 3, 1, 0.074000
1, 0, 3, 3, 1, 0.068000
1, 0, 0, 0, 1, 0.077000
1, 0, 4, 0, 1, 0.046000
1, 0, 1, 1, 1, 0.048000
2, 0, 4, 3, 1, 0.075000
2, 0, 3, 3, 1, 0.063000
2, 0, 0, 3, 1, 0.048000
2, 0, 2, 2, 1, 0.049000
2, 0, 2, 1, 1, 0.049000
2, 0, 3, 1, 1, 0.061000
2, 0, 2, 2, 1, 0.064000
2, 0, 2, 1, 1, 0.053000
2, 0, 1, 3, 1, 0.073000
2, 0, 1, 0, 1, 0.043000
2, 0, 4, 3, 1, 0.059000
2, 0, 3, 3, 1, 0.054000
3, 0, 3, 2, 1, 0.065000
3, 0, 2, 1, 1, 0.080000
3, 0, 0, 1, 1, 0.059000
3, 0, 0, 2, 1, 0.050000
3, 0, 3, 4, 1, 0.068000
3, 0, 2, 3, 1, 0.067000
3, 0, 3, 1, 1, 0.071000
3, 0, 1, 0, 1, 0.051000
3, 0, 0, 2, 1, 0.060000
3, 0, 2, 3, 1, 0.060000
3, 0, 3, 4, 1, 0.041000
3, 0, 4, 1, 1, 0.068000
3, 0, 3, 1, 1, 0.055000
3, 0, 4, 1, 1, 0.056000
3, 0, 1, 4, 1, 0.059000
3, 0, 0, 0, 1, 0.049000
3, 0, 2, 2, 1, 0.075000
3, 0, 1, 1, 1, 0.045000
3, 0, 3, 3, 1, 0.070000
3, 0, 1, 4, 1, 0.046000
3, 0, 4, 3, 1, 0.066000
3, 0, 4, 0, 1, 0.067000
3, 0, 2, 0, 1, 0.059000
3, 0, 4, 3, 1, 0.042000
3, 0, 4, 2, 1, 0.061000
3, 0, 0, 1, 1, 0.046000
3, 0, 3, 1, 1, 0.052000
3, 0, 1, 3, 1, 0.075000
3, 0, 1, 4, 1, 0.042000
3, 0, 2, 3, 1, 0.069000
3, 0, 0, 0, 1, 0.077000
3, 0, 0, 1, 1, 0.049000
3, 0, 3, 1, 1, 0.052000
3, 0, 2, 3, 1, 0.053000
3, 0, 0, 4, 1, 0.043000
3, 0, 4, 4, 1, 0.074000
3, 0, 1, 1, 1, 0.049000
3, 0, 0, 1, 1, 0.061000
3, 0, 2, 2, 1, 0.047000
3, 0, 0, 2, 1, 0.047000
3, 0, 2, 0, 1, 0.042000
3, 0, 1, 1, 1, 0.045000
3, 0, 3, 3, 1, 0.074000
3, 0, 0, 3, 1, 0.046000
3, 0, 0, 0, 1, 0.078000
3, 0, 3, 2, 1, 0.056000
3, 0, 4, 3, 1, 0.053000
3, 0, 3, 2, 1, 0.066000
3, 0, 0, 4, 1, 0.072000
3, 0, 0, 2, 1, 0.049000
3, 0, 3, 4, 1, 0.077000
3, 0, 4, 3, 1, 0.050000
3, 0, 0, 2, 1, 0.079000
3, 0, 1, 1, 1, 0.075000
3, 0, 2, 0, 1, 0.058000
3, 0, 2, 3, 1, 0.049000
3, 0, 4, 4, 1, 0.074000
3, 0, 2, 3, 1, 0.053000
3, 0, 3, 4, 1, 0.075000
3, 0, 2, 3, 1, 0.059000
3, 0, 0, 2, 1, 0.071000
3, 0, 3, 2, 1, 0.068000
3, 0, 2, 2, 1, 0.062000
3, 0, 3, 2, 1, 0.061000
3, 0, 3, 2, 1, 0.040000
3, 0, 0, 0, 1, 0.052000
3, 0, 0, 2, 1, 0.050000
3, 0, 0, 3, 1, 0.066000
3, 0, 4, 4, 1, 0.051000
3, 0, 4, 0, 1, 0.065000
4, 0, 1, 3, 1, 0.069000
4, 0, 2, 0, 1, 0.063000
4, 0, 3, 0, 1, 0.043000
4, 0, 3, 2, 1, 0.053000
4, 0, 1, 0, 1, 0.079000
4, 0, 4, 4, 1, 0.077000
4, 0, 0, 1, 1, 0.041000
4, 0, 2, 2, 1, 0.073000
4, 0, 2, 2, 1, 0.061000
4, 0, 2, 3, 1, 0.047000
4, 0, 3, 2, 1, 0.058000
4, 0, 4, 4, 1, 0.042000
4, 0, 0, 2, 1, 0.070000
4, 0, 4, 2, 1, 0.069000
4, 0, 0, 0, 1, 0.068000
4, 0, 0, 1, 1, 0.053000
4, 0, 1, 0, 1, 0.047000
4, 0, 4, 4, 1, 0.041000
4, 0, 0, 2, 1, 0.078000
4, 0, 4, 1, 1, 0.041000
4, 0, 0, 3, 1, 0.075000
4, 0, 3, 2, 1, 0.077000
4, 0, 1, 0, 1, 0.076000
4, 0, 4, 2, 1, 0.052000
4, 0, 4, 3, 1, 0.077000
4, 0, 2, 1, 1, 0.059000
4, 0, 3, 1, 1, 0.067000
4, 0, 1, 4, 1, 0.066000
4, 0, 4, 3, 1, 0.072000
4, 0, 2, 3, 1, 0.062000
4, 0, 2, 1, 1, 0.056000
4, 0, 3, 3, 1, 0.052000
4, 0, 2, 0, 1, 0.057000
4, 0, 0, 2, 1, 0.046000
4, 0, 4, 4, 1, 0.057000
4, 0, 1, 0, 1, 0.044000
4, 0, 1, 4, 1, 0.055000
4, 0, 4, 2, 1, 0.077000
4, 0, 0, 0, 1, 0.069000
4, 0, 0, 2, 1, 0.072000
4, 0, 1, 2, 1, 0.057000
4, 0, 3, 4, 1, 0.076000
4, 0, 2, 0, 1, 0.077000
4, 0, 1, 2, 1, 0.066000
4, 0, 3, 0, 1, 0.070000
4, 0, 4, 4, 1, 0.069000
4, 0, 3, 2, 1, 0.042000
4, 0, 4, 2, 1, 0.047000
4, 0, 3, 4, 1, 0.060000
4, 0, 2, 0, 1, 0.043000
4, 0, 3, 0, 1, 0.061000
4, 0, 2, 4, 1, 0.042000
4, 0, 2, 1, 1, 0.079000
4, 0, 1, 4, 1, 0.078000
4, 0, 2, 0, 1, 0.060000
4, 0, 4, 3, 1, 0.042000
4, 0, 3, 1, 1, 0.075000
4, 0, 4, 1, 1, 0.055000
4, 0, 0, 4, 1, 0.077000
4, 0, 4, 3, 1, 0.056000
4, 0, 3, 1, 1, 0.079000
4, 0, 0, 2, 1, 0.050000
4, 0, 1, 0, 1, 0.058000
4, 0, 1, 4, 1, 0.040000
4, 0, 2, 1, 1, 0.049000
4, 0, 0, 1, 1, 0.055000
4, 0, 0, 3, 1, 0.069000
4, 0, 0, 0, 1, 0.042000
4, 0, 0, 0, 1, 0.044000
4, 0, 0, 4, 1, 0.078000
4, 0, 0, 2, 1, 0.044000
4, 0, 0, 0, 1, 0.063000
4, 0, 4, 3, 1, 0.077000
4, 0, 3, 0, 1, 0.058000
4, 0, 2, 1, 1, 0.065000
4, 0, 2, 0, 1, 0.071000
4, 0, 0, 3, 1, 0.071000
4, 0, 0, 3, 1, 0.049000
4, 0, 2, 4, 1, 0.054000
0, 1, 2, 0, 1, 0.079000
0, 1, 4, 3, 1, 0.041000
0, 1, 3, 0, 1, 0.080000
0, 1, 4, 3, 1, 0.050000
0, 1, 1, 2, 1, 0.062000
0, 1, 0, 3, 1, 0.078000
0, 1, 3, 1, 1, 0.068000
0, 1, 3, 4, 1, 0.051000
0, 1, 4, 0, 1, 0.066000
0, 1, 0, 3, 1, 0.042000
0, 1, 3, 0, 1, 0.079000
0, 1, 0, 4, 1, 0.052000
0, 1, 3, 3, 1, 0.070000
0, 1, 1, 3, 1, 0.057000
0, 1, 2, 4, 1, 0.056000
0, 1, 3, 0, 1, 0.062000
0, 1, 2, 2, 1, 0.052000
0, 1, 3, 1, 1, 0.051000
0, 1, 4, 4, 1, 0.042000
0, 1, 1, 4, 1, 0.050000
0, 1, 2, 3, 1, 0.059000
0, 1, 1, 2, 1, 0.062000
0, 1, 2, 4, 1, 0.058000
0, 1, 4, 4, 1, 0.072000
0, 1, 0, 3, 1, 0.065000
0, 1, 1, 3, 1, 0.078000
0, 1, 2, 1, 1, 0.058000
0, 1, 0, 3, 1, 0.044000
0, 1, 2, 4, 1, 0.061000
0, 1, 2, 3, 1, 0.060000
0, 1, 2, 0, 1, 0.058000
0, 1, 2, 0, 1, 0.078000
0, 1, 0, 2, 1, 0.051000
0, 1, 1, 1, 1, 0.043000
1, 1, 2, 4, 1, 0.067000
1, 1, 2, 4, 1, 0.058000
1, 1, 0, 3, 1, 0.047000
1, 1, 0, 2, 1, 0.069000
1, 1, 4, 3, 1, 0.041000
1, 1, 2, 3, 1, 0.060000
1, 1, 0, 0, 1, 0.071000
1, 1, 3, 2, 1, 0.059000
1, 1, 4, 3, 1, 0.053000
1, 1, 4, 4, 1, 0.078000
1, 1, 2, 0, 1, 0.074000
1, 1, 1, 2, 1, 0.073000
1, 1, 4, 1, 1, 0.069000
1, 1, 1, 3, 1, 0.050000
1, 1, 1, 2, 1, 0.059000
1, 1, 3, 2, 1, 0.059000
1, 1, 4, 4, 1, 0.050000
1, 1, 2, 4, 1, 0.071000
1, 1, 3, 2, 1, 0.080000
1, 1, 2, 4, 1, 0.053000
1, 1, 3, 2, 1, 0.064000
1, 1, 1, 2, 1, 0.052000
1, 1, 2, 0, 1, 0.048000
1, 1, 4, 4, 1, 0.047000
1, 1, 4, 4, 1, 0.048000
1, 1, 3, 2, 1, 0.051000
1, 1, 0, 2, 1, 0.065000
1, 1, 0, 0, 1, 0.067000
1, 1, 2, 0, 1, 0.050000
1, 1, 1, 3, 1, 0.047000
1, 1, 0, 1, 1, 0.041000
1, 1, 1, 4, 1, 0.049000
1, 1, 3, 2, 1, 0.069000
1, 1, 4, 3, 1, 0.049000
1, 1, 4, 1, 1, 0.065000
1, 1, 4, 4, 1, 0.070000
1, 1, 3, 0, 1, 0.044000
1, 1, 1, 2, 1, 0.047000
1, 1, 2, 3, 1, 0.058000
1, 1, 4, 3, 1, 0.045000
1, 1, 4, 0, 1, 0.065000
1, 1, 0, 0, 1, 0.069000
1, 1, 1, 3, 1, 0.077000
1, 1, 4, 0, 1, 0.054000
1, 1, 0, 1, 1, 0.063000
1, 1, 1, 3, 1, 0.066000
1, 1, 0, 0, 1, 0.047000
1, 1, 1, 2, 1, 0.066000
1, 1, 0, 2, 1, 0.042000
1, 1, 4, 0, 1, 0.048000
1, 1, 4, 1, 1, 0.054000
1, 1, 1, 4, 1, 0.051000
1, 1, 0, 3, 1, 0.055000
1, 1, 2, 4, 1, 0.068000
1, 1, 3, 0, 1, 0.064000
1, 1, 1, 3, 1, 0.055000
1, 1, 1, 2, 1, 0.043000
1, 1, 0, 4, 1, 0.058000
1, 1, 4, 4, 1, 0.045000
1, 1, 3, 0, 1, 0.072000
1, 1, 3, 0, 1, 0.042000
1, 1, 4, 4, 1, 0.079000
1, 1, 3, 1, 1, 0.075000
1, 1, 0, 4, 1, 0.060000
1, 1, 4, 2, 1, 0.060000
1, 1, 4, 3, 1, 0.059000
1, 1, 3, 4, 1, 0.077000
1, 1, 2, 2, 1, 0.060000
1, 1, 3, 1, 1, 0.064000
1, 1, 0, 1, 1, 0.067000
1, 1, 0, 4, 1, 0.042000
1, 1, 4, 0, 1, 0.042000
1, 1, 0, 4, 1, 0.067000
1, 1, 2, 3, 1, 0.058000
1, 1, 1, 2, 1, 0.079000
1, 1, 3, 3, 1, 0.052000
2, 1, 1, 2, 1, 0.042000
2, 1, 0, 3, 1, 0.059000
2, 1, 0, 0, 1, 0.056000
2, 1, 2, 4, 1, 0.054000
2, 1, 1, 3, 1, 0.059000
2, 1, 3, 3, 1, 0.073000
2, 1, 3, 1, 1, 0.077000
2, 1, 0, 3, 1, 0.063000
2, 1, 4, 3, 1, 0.067000
2, 1, 1, 2, 1, 0.069000
2, 1, 1, 1, 1, 0.057000
2, 1, 0, 3, 1, 0.051000
2, 1, 1, 2, 1, 0.047000
2, 1, 1, 1, 1, 0.043000
2, 1, 3, 4, 1, 0.053000
2, 1, 1, 4, 1, 0.054000
2, 1, 3, 1, 1, 0.041000
2, 1, 2, 0, 1, 0.055000
2, 1, 4, 4, 1, 0.061000
2, 1, 0, 2, 1, 0.060000
2, 1, 3, 3, 1, 0.068000
2, 1, 3, 1, 1, 0.060000
2, 1, 4, 3, 1, 0.066000
2, 1, 0, 0, 1, 0.043000
2, 1, 3, 3, 1, 0.046000
2, 1, 2, 2, 1, 0.079000
2, 1, 4, 2, 1, 0.049000
2, 1, 4, 0, 1, 0.059000
2, 1, 3, 0, 1, 0.059000
2, 1, 4, 3, 1, 0.070000
2, 1, 2, 3, 1, 0.040000
2, 1, 2, 3, 1, 0.043000
2, 1, 2, 4, 1, 0.070000
2, 1, 4, 0, 1, 0.053000
2, 1, 0, 2, 1, 0.047000
2, 1, 4, 4, 1, 0.074000
2, 1, 1, 3, 1, 0.046000
2, 1, 0, 2, 1, 0.064000
2, 1, 3, 4, 1, 0.045000
2, 1, 0, 0, 1, 0.075000
2, 1, 0, 2, 1, 0.043000
2, 1, 0, 2, 1, 0.047000
2, 1, 2, 3, 1, 0.058000
2, 1, 1, 2, 1, 0.058000
2, 1, 1, 1, 1, 0.043000
2, 1, 0, 1, 1, 0.058000
2, 1, 0, 0, 1, 0.060000
2, 1, 0, 1, 1, 0.064000
2, 1, 2, 4, 1, 0.078000
2, 1, 2, 0, 1, 0.043000
2, 1, 1, 0, 1, 0.078000
2, 1, 0, 0, 1, 0.078000
2, 1, 1, 0, 1, 0.053000
2, 1, 0, 4, 1, 0.075000
2, 1, 3, 4, 1, 0.074000
2, 1, 0, 3, 1, 0.068000
2, 1, 4, 1, 1, 0.048000
2, 1, 0, 1, 1, 0.060000
2, 1, 0, 1, 1, 0.067000
2, 1, 1, 0, 1, 0.074000
2, 1, 4, 4, 1, 0.063000
2, 1, 4, 2, 1, 0.052000
2, 1, 2, 2, 1, 0.071000
2, 1, 3, 4, 1, 0.075000
2, 1, 2, 4, 1, 0.079000
2, 1, 0, 0, 1, 0.047000
2, 1, 1, 1, 1, 0.055000
2, 1, 1, 3, 1, 0.067000
2, 1, 3, 3, 1, 0.077000
3, 1, 4, 1, 1, 0.048000
3, 1, 0, 3, 1, 0.041000
3, 1, 4, 4, 1, 0.051000
3, 1, 0, 4, 1, 0.061000
3, 1, 1, 2, 1, 0.068000
3, 1, 4, 0, 1, 0.067000
3, 1, 4, 3, 1, 0.043000
3, 1, 2, 1, 1, 0.050000
3, 1, 4, 3, 1, 0.064000
3, 1, 1, 0, 1, 0.074000
3, 1, 0, 0, 1, 0.076000
3, 1, 2, 3, 1, 0.049000
3, 1, 2, 1, 1, 0.058000
3, 1, 1, 2, 1, 0.047000
3, 1, 0, 2, 1, 0.076000
3, 1, 2, 4, 1, 0.062000
3, 1, 2, 3, 1, 0.051000
3, 1, 0, 1, 1, 0.065000
3, 1, 2, 3, 1, 0.041000
3, 1, 4, 4, 1, 0.079000
3, 1, 0, 3, 1, 0.058000
4, 1, 1, 4, 1, 0.055000
4, 1, 2, 0, 1, 0.068000
4, 1, 1, 0, 1, 0.075000
4, 1, 4, 0, 1, 0.043000
4, 1, 3, 1, 1, 0.074000
4, 1, 3, 3, 1, 0.077000
4, 1, 2, 1, 1, 0.053000
4, 1, 2, 3, 1, 0.052000
4, 1, 2, 0, 1, 0.044000
4, 1, 1, 1, 1, 0.049000
4, 1, 1, 2, 1, 0.041000
4, 1, 0, 3, 1, 0.057000
4, 1, 0, 0, 1, 0.056000
4, 1, 0, 0, 1, 0.080000
4, 1, 1, 2, 1, 0.059000
4, 1, 2, 4, 1, 0.070000
4, 1, 0, 3, 1, 0.049000
4, 1, 2, 3, 1, 0.057000
4, 1, 3, 4, 1, 0.076000
4, 1, 2, 3, 1, 0.071000
4, 1, 4, 4, 1, 0.043000
4, 1, 0, 0, 1, 0.066000
4, 1, 1, 3, 1, 0.047000
4, 1, 1, 4, 1, 0.059000
4, 1, 4, 0, 1, 0.062000
4, 1, 1, 4, 1, 0.076000
4, 1, 0, 1, 1, 0.077000
4, 1, 1, 2, 1, 0.057000
4, 1, 3, 0, 1, 0.065000
4, 1, 1, 4, 1, 0.057000
4, 1, 3, 4, 1, 0.060000
4, 1, 3, 1, 1, 0.064000
4, 1, 1, 4, 1, 0.064000
4, 1, 1, 4, 1, 0.068000
4, 1, 4, 4, 1, 0.070000
4, 1, 0, 0, 1, 0.045000
4, 1, 3, 3, 1, 0.079000
4, 1, 3, 1, 1, 0.050000
4, 1, 2, 3, 1, 0.053000
4, 1, 4, 2, 1, 0.071000
4, 1, 4, 0, 1, 0.076000
4, 1, 3, 3, 1, 0.071000
4, 1, 4, 2, 1, 0.046000
4, 1, 3, 3, 1, 0.046000
4, 1, 0, 1, 1, 0.080000
4, 1, 3, 1, 1, 0.057000
4, 1, 2, 2, 1, 0.079000
0, 2, 1, 3, 1, 0.071000
0, 2, 1, 3, 1, 0.062000
0, 2, 0, 0, 1, 0.066000
0, 2, 1, 4, 1, 0.049000
0, 2, 4, 2, 1, 0.065000
0, 2, 0, 1, 1, 0.055000
0, 2, 2, 0, 1, 0.041000
0, 2, 0, 4, 1, 0.080000
0, 2, 3, 3, 1, 0.044000
0, 2, 4, 3, 1, 0.056000
0, 2, 1, 3, 1, 0.072000
0, 2, 3, 0, 1, 0.080000
0, 2, 2, 0, 1, 0.061000
0, 2, 1, 0, 1, 0.054000
0, 2, 1, 3, 1, 0.077000
0, 2, 3, 1, 1, 0.065000
0, 2, 2, 0, 1, 0.075000
0, 2, 0, 4, 1, 0.059000
0, 2, 0, 0, 1, 0.050000
0, 2, 4, 1, 1, 0.057000
0, 2, 2, 3, 1, 0.069000
0, 2, 2, 2, 1, 0.071000
0, 2, 1, 0, 1, 0.051000
0, 2, 0, 0, 1, 0.075000
0, 2, 2, 3, 1, 0.046000
0, 2, 4, 0, 1, 0.073000
0, 2, 2, 0, 1, 0.064000
0, 2, 0, 0, 1, 0.047000
0, 2, 4, 2, 1, 0.041000
0, 2, 0, 4, 1, 0.053000
0, 2, 0, 0, 1, 0.078000
0, 2, 3, 1, 1, 0.051000
0, 2, 4, 2, 1, 0.072000
0, 2, 1, 0, 1, 0.059000
0, 2, 0, 4, 1, 0.040000
0, 2, 2, 2, 1, 0.065000
0, 2, 2, 1, 1, 0.042000
0, 2, 3, 0, 1, 0.076000
0, 2, 1, 3, 1, 0.063000
0, 2, 4, 1, 1, 0.062000
0, 2, 1, 3, 1, 0.047000
0, 2, 1, 2, 1, 0.080000
0, 2, 4, 3, 1, 0.059000
0, 2, 1, 3, 1, 0.077000
0, 2, 1, 0, 1, 0.076000
0, 2, 2, 1, 1, 0.076000
0, 2, 4, 4, 1, 0.059000
0, 2, 2, 4, 1, 0.050000
0, 2, 3, 1, 1, 0.042000
0, 2, 2, 4, 1, 0.078000
0, 2, 3, 4, 1, 0.066000
0, 2, 2, 3, 1, 0.052000
0, 2, 1, 0, 1, 0.079000
0, 2, 2, 1, 1, 0.055000
0, 2, 1, 1, 1, 0.048000
0, 2, 4, 1, 1, 0.075000
0, 2, 0, 1, 1, 0.065000
0, 2, 1, 0, 1, 0.072000
0, 2, 1, 0, 1, 0.048000
0, 2, 1, 4, 1, 0.054000
0, 2, 1, 4, 1, 0.062000
0, 2, 1, 1, 1, 0.055000
0, 2, 1, 0, 1, 0.053000
0, 2, 1, 4, 1, 0.049000
0, 2, 3, 4, 1, 0.070000
0, 2, 4, 1, 1, 0.060000
0, 2, 3, 0, 1, 0.065000
0, 2, 4, 0, 1, 0.075000
0, 2, 1, 0, 1, 0.057000
0, 2, 0, 0, 1, 0.053000
0, 2, 2, 0, 1, 0.053000
0, 2, 3, 3, 1, 0.043000
0, 2, 1, 2, 1, 0.076000
0, 2, 2, 0, 1, 0.045000
0, 2, 1, 0, 1, 0.067000
0, 2, 3, 1, 1, 0.060000
0, 2, 4, 1, 1, 0.041000
0, 2, 1, 4, 1, 0.080000
0, 2, 0, 4, 1, 0.067000
0, 2, 3, 1, 1, 0.066000
0, 2, 3, 2, 1, 0.079000
0, 2, 4, 0, 1, 0.059000
0, 2, 2, 3, 1, 0.071000
0, 2, 2, 0, 1, 0.057000
0, 2, 0, 0, 1, 0.055000
0, 2, 0, 1, 1, 0.062000
0, 2, 1, 0, 1, 0.049000
0, 2, 0, 1, 1, 0.075000
0, 2, 2, 4, 1, 0.040000
0, 2, 0, 1, 1, 0.064000
0, 2, 0, 3, 1, 0.045000
0, 2, 1, 1, 1, 0.072000
0, 2, 2, 4, 1, 0.077000
0, 2, 2, 2, 1, 0.044000
0, 2, 3, 3, 1, 0.046000
0, 2, 2, 2, 1, 0.060000
0, 2, 0, 0, 1, 0.072000
1, 2, 1, 4, 1, 0.072000
1, 2, 1, 0, 1, 0.078000
1, 2, 0, 0, 1, 0.080000
1, 2, 1, 4, 1, 0.061000
1, 2, 4, 4, 1, 0.055000
1, 2, 2, 3, 1, 0.051000
1, 2, 3, 1, 1, 0.053000
1, 2, 2, 0, 1, 0.066000
2, 2, 1, 2, 1, 0.078000
2, 2, 0, 3, 1, 0.043000
2, 2, 4, 1, 1, 0.059000
2, 2, 4, 4, 1, 0.056000
2, 2, 1, 1, 1, 0.053000
2, 2, 3, 4, 1, 0.050000
2, 2, 1, 2, 1, 0.075000
2, 2, 4, 0, 1, 0.073000
2, 2, 4, 4, 1, 0.043000
2, 2, 4, 0, 1, 0.041000
2, 2, 1, 0, 1, 0.044000
2, 2, 3, 3, 1, 0.049000
2, 2, 2, 1, 1, 0.064000
2, 2, 0, 2, 1, 0.067000
2, 2, 0, 4, 1, 0.062000
2, 2, 2, 4, 1, 0.054000
2, 2, 1, 4, 1, 0.072000
2, 2, 0, 3, 1, 0.069000
2, 2, 0, 1, 1, 0.045000
2, 2, 2, 4, 1, 0.075000
2, 2, 1, 0, 1, 0.045000
2, 2, 2, 0, 1, 0.077000
2, 2, 4, 4, 1, 0.067000
2, 2, 0, 3, 1, 0.076000
2, 2, 3, 4, 1, 0.074000
2, 2, 2, 4, 1, 0.066000
2, 2, 4, 3, 1, 0.056000
2, 2, 3, 3, 1, 0.072000
2, 2, 3, 4, 1, 0.058000
2, 2, 1, 4, 1, 0.048000
2, 2, 2, 3, 1, 0.051000
2, 2, 4, 4, 1, 0.078000
2, 2, 0, 2, 1, 0.048000
2, 2, 3, 3, 1, 0.061000
2, 2, 1, 2, 1, 0.066000
2, 2, 2, 4, 1, 0.073000
2, 2, 4, 3, 1, 0.047000
2, 2, 0, 1, 1, 0.051000
2, 2, 3, 1, 1, 0.053000
2, 2, 2, 3, 1, 0.062000
2, 2, 1, 3, 1, 0.045000
2, 2, 3, 3, 1, 0.052000
2, 2, 4, 2, 1, 0.073000
2, 2, 0, 3, 1, 0.048000
2, 2, 3, 3, 1, 0.063000
2, 2, 0, 0, 1, 0.078000
2, 2, 0, 0, 1, 0.052000
2, 2, 2, 1, 1, 0.071000
2, 2, 3, 4, 1, 0.047000
2, 2, 4, 3, 1, 0.058000
2, 2, 2, 4, 1, 0.064000
2, 2, 2, 4, 1, 0.072000
2, 2, 2, 3, 1, 0.071000
2, 2, 0, 1, 1, 0.040000
2, 2, 1, 4, 1, 0.070000
2, 2, 3, 3, 1, 0.049000
2, 2, 2, 0, 1, 0.064000
2, 2, 4, 0, 1, 0.079000
2, 2, 0, 4, 1, 0.072000
2, 2, 4, 3, 1, 0.043000
2, 2, 4, 2, 1, 0.080000
2, 2, 0, 1, 1, 0.079000
2, 2, 3, 3, 1, 0.065000
2, 2, 3, 1, 1, 0.058000
3, 2, 4, 0, 1, 0.067000
3, 2, 2, 2, 1, 0.057000
3, 2, 2, 2, 1, 0.072000
3, 2, 2, 4, 1, 0.078000
3, 2, 2, 1, 1, 0.075000
3, 2, 0, 0, 1, 0.041000
3, 2, 0, 1, 1, 0.052000
3, 2, 2, 0, 1, 0.053000
3, 2, 4, 4, 1, 0.078000
3, 2, 4, 2, 1, 0.054000
3, 2, 1, 1, 1, 0.042000
3, 2, 3, 0, 1, 0.041000
3, 2, 0, 1, 1, 0.057000
3, 2, 0, 1, 1, 0.070000
3, 2, 0, 3, 1, 0.052000
4, 2, 1, 4, 1, 0.071000
4, 2, 1, 4, 1, 0.075000
4, 2, 1, 3, 1, 0.062000
4, 2, 0, 2, 1, 0.048000
4, 2, 4, 3, 1, 0.058000
4, 2, 3, 3, 1, 0.064000
4, 2, 2, 3, 1, 0.059000
4, 2, 3, 0, 1, 0.062000
4, 2, 1, 3, 1, 0.059000
4, 2, 4, 1, 1, 0.073000
4, 2, 0, 3, 1, 0.068000
4, 2, 4, 0, 1, 0.049000
4, 2, 3, 4, 1, 0.058000
4, 2, 1, 1, 1, 0.062000
4, 2, 3, 1, 1, 0.057000
4, 2, 1, 0, 1, 0.061000
4, 2, 0, 3, 1, 0.065000
4, 2, 1, 3, 1, 0.062000
4, 2, 0, 0, 1, 0.048000
4, 2, 2, 2, 1, 0.064000
4, 2, 1, 1, 1, 0.065000
4, 2, 3, 3, 1, 0.060000
4, 2, 1, 4, 1, 0.057000
4, 2, 0, 1, 1, 0.046000
4, 2, 0, 2, 1, 0.076000
4, 2, 1, 4, 1, 0.056000
4, 2, 1, 2, 1, 0.070000
4, 2, 3, 3, 1, 0.053000
4, 2, 1, 0, 1, 0.062000
4, 2, 0, 2, 1, 0.075000
4, 2, 4, 1, 1, 0.046000
4, 2, 4, 3, 1, 0.056000
4, 2, 1, 3, 1, 0.053000
4, 2, 4, 1, 1, 0.076000
4, 2, 2, 3, 1, 0.059000
4, 2, 1, 2, 1, 0.057000
4, 2, 1, 1, 1, 0.073000
4, 2, 1, 2, 1, 0.062000
4, 2, 3, 3, 1, 0.051000
4, 2, 3, 2, 1, 0.060000
4, 2, 1, 4, 1, 0.074000
4, 2, 4, 0, 1, 0.047000
4, 2, 3, 4, 1, 0.047000
4, 2, 2, 0, 1, 0.073000
4, 2, 0, 3, 1, 0.041000
4, 2, 1, 4, 1, 0.052000
4, 2, 4, 3, 1, 0.062000
4, 2, 3, 2, 1, 0.052000
4, 2, 0, 1, 1, 0.045000
4, 2, 3, 2, 1, 0.073000
4, 2, 1, 2, 1, 0.043000
4, 2, 2, 2, 1, 0.045000
4, 2, 0, 2, 1, 0.080000
4, 2, 1, 3, 1, 0.071000
4, 2, 1, 1, 1, 0.050000
4, 2, 2, 1, 1, 0.070000
4, 2, 3, 0, 1, 0.076000
4, 2, 3, 4, 1, 0.065000
4, 2, 0, 2, 1, 0.076000
4, 2, 4, 1, 1, 0.067000
4, 2, 0, 0, 1, 0.050000
4, 2, 3, 4, 1, 0.053000
4, 2, 3, 4, 1, 0.054000
4, 2, 3, 1, 1, 0.077000
4, 2, 0, 2, 1, 0.061000
4, 2, 1, 3, 1, 0.076000
4, 2, 1, 2, 1, 0.052000
4, 2, 0, 2, 1, 0.069000
4, 2, 0, 4, 1, 0.078000
4, 2, 0, 0, 1, 0.080000
4, 2, 3, 3, 1, 0.043000
4, 2, 2, 1, 1, 0.042000
4, 2, 1, 4, 1, 0.067000
4, 2, 3, 0, 1, 0.066000
4, 2, 0, 4, 1, 0.041000
4, 2, 1, 3, 1, 0.048000
4, 2, 4, 3, 1, 0.065000
0, 3, 0, 1, 1, 0.075000
0, 3, 2, 2, 1, 0.043000
0, 3, 1, 0, 1, 0.058000
0, 3, 1, 2, 1, 0.072000
0, 3, 0, 1, 1, 0.057000
0, 3, 2, 4, 1, 0.070000
0, 3, 2, 4, 1, 0.069000
0, 3, 0, 4, 1, 0.059000
0, 3, 2, 2, 1, 0.051000
0, 3, 1, 2, 1, 0.070000
0, 3, 3, 0, 1, 0.050000
0, 3, 4, 0, 1, 0.049000
0, 3, 1, 1, 1, 0.074000
0, 3, 2, 3, 1, 0.053000
0, 3, 4, 4, 1, 0.075000
0, 3, 2, 1, 1, 0.054000
0, 3, 0, 0, 1, 0.059000
0, 3, 3, 2, 1, 0.055000
0, 3, 1, 1, 1, 0.077000
0, 3, 1, 4, 1, 0.052000
0, 3, 3, 2, 1, 0.040000
0, 3, 2, 4, 1, 0.071000
0, 3, 4, 1, 1, 0.041000
0, 3, 1, 2, 1, 0.044000
0, 3, 4, 1, 1, 0.051000
0, 3, 0, 1, 1, 0.069000
0, 3, 2, 3, 1, 0.067000
0, 3, 0, 0, 1, 0.056000
0, 3, 0, 2, 1, 0.065000
0, 3, 3, 4, 1, 0.058000
0, 3, 1, 1, 1, 0.045000
0, 3, 1, 3, 1, 0.047000
0, 3, 3, 4, 1, 0.049000
0, 3, 4, 2, 1, 0.070000
0, 3, 3, 1, 1, 0.056000
0, 3, 3, 2, 1, 0.062000
0, 3, 3, 2, 1, 0.069000
0, 3, 1, 4, 1, 0.041000
0, 3, 2, 4, 1, 0.058000
0, 3, 2, 2, 1, 0.080000
0, 3, 4, 0, 1, 0.066000
0, 3, 4, 0, 1, 0.068000
0, 3, 3, 3, 1, 0.069000
0, 3, 4, 3, 1, 0.053000
0, 3, 0, 2, 1, 0.056000
0, 3, 4, 1, 1, 0.074000
0, 3, 2, 2, 1, 0.075000
1, 3, 2, 1, 1, 0.074000
1, 3, 4, 2, 1, 0.064000
1, 3, 0, 0, 1, 0.060000
1, 3, 4, 4, 1, 0.052000
1, 3, 1, 4, 1, 0.071000
1, 3, 0, 0, 1, 0.059000
1, 3, 3, 1, 1, 0.046000
1, 3, 3, 4, 1, 0.052000
1, 3, 0, 0, 1, 0.067000
1, 3, 2, 2, 1, 0.044000
1, 3, 3, 4, 1, 0.079000
1, 3, 1, 1, 1, 0.041000
1, 3, 0, 4, 1, 0.072000
1, 3, 4, 1, 1, 0.067000
1, 3, 1, 2, 1, 0.053000
1, 3, 0, 2, 1, 0.074000
1, 3, 0, 1, 1, 0.040000
1, 3, 4, 1, 1, 0.056000
1, 3, 4, 4, 1, 0.057000
1, 3, 1, 2, 1, 0.071000
1, 3, 4, 4, 1, 0.059000
1, 3, 1, 4, 1, 0.044000
1, 3, 2, 1, 1, 0.077000
1, 3, 3, 3, 1, 0.062000
1, 3, 1, 2, 1, 0.045000
1, 3, 0, 1, 1, 0.052000
1, 3, 4, 2, 1, 0.080000
1, 3, 3, 4, 1, 0.043000
1, 3, 4, 4, 1, 0.075000
1, 3, 3, 3, 1, 0.056000
1, 3, 1, 4, 1, 0.071000
1, 3, 2, 2, 1, 0.058000
1, 3, 3, 2, 1, 0.070000
1, 3, 2, 3, 1, 0.041000
1, 3, 3, 0, 1, 0.042000
1, 3, 4, 0, 1, 0.057000
1, 3, 4, 2, 1, 0.047000
1, 3, 2, 0, 1, 0.067000
1, 3, 4, 3, 1, 0.070000
1, 3, 2, 0, 1, 0.066000
1, 3, 0, 4, 1, 0.048000
1, 3, 1, 2, 1, 0.065000
1, 3, 4, 2, 1, 0.079000
1, 3, 4, 2, 1, 0.073000
1, 3, 3, 3, 1, 0.047000
1, 3, 0, 3, 1, 0.079000
1, 3, 3, 0, 1, 0.052000
1, 3, 1, 0, 1, 0.071000
1, 3, 0, 1, 1, 0.078000
1, 3, 3, 3, 1, 0.060000
1, 3, 4, 1, 1, 0.047000
1, 3, 4, 1, 1, 0.070000
1, 3, 1, 4, 1, 0.053000
1, 3, 1, 1, 1, 0.065000
1, 3, 0, 2, 1, 0.062000
1, 3, 1, 2, 1, 0.071000
1, 3, 4, 2, 1, 0.069000
1, 3, 2, 1, 1, 0.058000
1, 3, 4, 1, 1, 0.043000
1, 3, 0, 3, 1, 0.050000
1, 3, 3, 4, 1, 0.057000
1, 3, 1, 4, 1, 0.078000
1, 3, 1, 4, 1, 0.042000
1, 3, 1, 1, 1, 0.065000
1, 3, 4, 4, 1, 0.079000
1, 3, 1, 2, 1, 0.073000
1, 3, 1, 0, 1, 0.069000
1, 3, 2, 4, 1, 0.043000
1, 3, 3, 1, 1, 0.055000
1, 3, 3, 1, 1, 0.076000
1, 3, 3, 2, 1, 0.066000
1, 3, 4, 3, 1, 0.073000
1, 3, 3, 0, 1, 0.047000
1, 3, 1, 0, 1, 0.045000
1, 3, 1, 0, 1, 0.073000
1, 3, 2, 1, 1, 0.059000
1, 3, 0, 1, 1, 0.044000
1, 3, 1, 2, 1, 0.053000
1, 3, 3, 3, 1, 0.078000
1, 3, 1, 2, 1, 0.042000
1, 3, 0, 2, 1, 0.046000
1, 3, 0, 4, 1, 0.063000
1, 3, 0, 1, 1, 0.045000
1, 3, 3, 1, 1, 0.051000
1, 3, 0, 4, 1, 0.054000
1, 3, 1, 2, 1, 0.044000
1, 3, 2, 1, 1, 0.077000
1, 3, 4, 3, 1, 0.057000
1, 3, 2, 1, 1, 0.079000
1, 3, 1, 0, 1, 0.064000
2, 3, 4, 0, 1, 0.046000
2, 3, 3, 4, 1, 0.079000
2, 3, 4, 3, 1, 0.068000
2, 3, 2, 4, 1, 0.065000
2, 3, 0, 2, 1, 0.054000
2, 3, 4, 1, 1, 0.046000
2, 3, 0, 4, 1, 0.052000
2, 3, 4, 4, 1, 0.052000
2, 3, 4, 1, 1, 0.073000
2, 3, 1, 2, 1, 0.045000
2, 3, 4, 4, 1, 0.057000
2, 3, 0, 4, 1, 0.072000
2, 3, 4, 2, 1, 0.045000
2, 3, 1, 1, 1, 0.044000
2, 3, 0, 2, 1, 0.055000
2, 3, 2, 4, 1, 0.080000
2, 3, 3, 2, 1, 0.062000
2, 3, 3, 0, 1, 0.063000
2, 3, 0, 1, 1, 0.050000
2, 3, 2, 2, 1, 0.065000
2, 3, 4, 0, 1, 0.077000
2, 3, 0, 1, 1, 0.057000
2, 3, 0, 2, 1, 0.066000
2, 3, 4, 3, 1, 0.066000
3, 3, 1, 0, 1, 0.055000
3, 3, 1, 1, 1, 0.060000
3, 3, 2, 4, 1, 0.077000
3, 3, 0, 0, 1, 0.050000
3, 3, 1, 4, 1, 0.074000
3, 3, 3, 2, 1, 0.048000
3, 3, 2, 2, 1, 0.079000
3, 3, 3, 2, 1, 0.042000
3, 3, 2, 3, 1, 0.055000
3, 3, 0, 3, 1, 0.049000
3, 3, 1, 3, 1, 0.049000
3, 3, 0, 1, 1, 0.045000
3, 3, 2, 1, 1, 0.078000
3, 3, 0, 4, 1, 0.078000
3, 3, 0, 4, 1, 0.055000
3, 3, 3, 0, 1, 0.065000
3, 3, 4, 1, 1, 0.040000
3, 3, 3, 4, 1, 0.057000
3, 3, 3, 2, 1, 0.072000
3, 3, 1, 2, 1, 0.062000
3, 3, 4, 0, 1, 0.058000
3, 3, 0, 4, 1, 0.069000
3, 3, 2, 1, 1, 0.073000
3, 3, 1, 3, 1, 0.064000
3, 3, 2, 3, 1, 0.040000
3, 3, 1, 4, 1, 0.049000
3, 3, 4, 4, 1, 0.055000
3, 3, 1, 3, 1, 0.076000
3, 3, 1, 3, 1, 0.072000
3, 3, 4, 2, 1, 0.076000
4, 3, 2, 4, 1, 0.051000
4, 3, 1, 2, 1, 0.069000
4, 3, 0, 4, 1, 0.070000
4, 3, 0, 2, 1, 0.053000
4, 3, 1, 4, 1, 0.056000
4, 3, 1, 0, 1, 0.058000
4, 3, 0, 0, 1, 0.080000
4, 3, 4, 2, 1, 0.058000
4, 3, 2, 3, 1, 0.047000
4, 3, 0, 1, 1, 0.070000
4, 3, 2, 2, 1, 0.057000
4, 3, 1, 3, 1, 0.079000
4, 3, 2, 0, 1, 0.077000
4, 3, 1, 1, 1, 0.045000
4, 3, 4, 4, 1, 0.068000
4, 3, 4, 0, 1, 0.043000
4, 3, 3, 0, 1, 0.043000
4, 3, 2, 1, 1, 0.057000
4, 3, 0, 4, 1, 0.041000
4, 3, 2, 0, 1, 0.080000
4, 3, 0, 0, 1, 0.041000
4, 3, 1, 0, 1, 0.058000
4, 3, 4, 2, 1, 0.057000
4, 3, 0, 0, 1, 0.069000
4, 3, 4, 1, 1, 0.055000
4, 3, 3, 2, 1, 0.056000
4, 3, 3, 2, 1, 0.061000
4, 3, 3, 3, 1, 0.057000
4, 3, 3, 2, 1, 0.072000
4, 3, 4, 2, 1, 0.064000
4, 3, 2, 4, 1, 0.073000
4, 3, 1, 4, 1, 0.058000
4, 3, 3, 1, 1, 0.055000
4, 3, 3, 1, 1, 0.047000
4, 3, 1, 0, 1, 0.080000
4, 3, 1, 0, 1, 0.057000
4, 3, 2, 1, 1, 0.071000
4, 3, 2, 4, 1, 0.057000
4, 3, 4, 4, 1, 0.062000
4, 3, 0, 2, 1, 0.061000
4, 3, 3, 0, 1, 0.049000
4, 3, 3, 3, 1, 0.053000
4, 3, 3, 0, 1, 0.042000
4, 3, 1, 2, 1, 0.056000
0, 4, 4, 2, 1, 0.074000
0, 4, 3, 4, 1, 0.079000
0, 4, 3, 2, 1, 0.044000
0, 4, 2, 1, 1, 0.052000
0, 4, 3, 1, 1, 0.046000
0, 4, 3, 2, 1, 0.067000
0, 4, 0, 2, 1, 0.043000
0, 4, 2, 1, 1, 0.047000
0, 4, 2, 0, 1, 0.078000
0, 4, 0, 1, 1, 0.053000
0, 4, 3, 0, 1, 0.054000
0, 4, 0, 2, 1, 0.062000
0, 4, 0, 0, 1, 0.050000
0, 4, 1, 0, 1, 0.064000
0, 4, 2, 2, 1, 0.064000
0, 4, 0, 3, 1, 0.044000
0, 4, 2, 4, 1, 0.062000
0, 4, 4, 4, 1, 0.075000
0, 4, 4, 2, 1, 0.044000
0, 4, 4, 0, 1, 0.070000
0, 4, 3, 4, 1, 0.049000
0, 4, 0, 0, 1, 0.074000
0, 4, 4, 4, 1, 0.042000
0, 4, 2, 2, 1, 0.042000
0, 4, 4, 3, 1, 0.048000
0, 4, 4, 0, 1, 0.046000
0, 4, 1, 2, 1, 0.079000
0, 4, 2, 0, 1, 0.072000
0, 4, 0, 1, 1, 0.048000
0, 4, 1, 4, 1, 0.051000
0, 4, 1, 3, 1, 0.060000
0, 4, 4, 4, 1, 0.050000
0, 4, 1, 4, 1, 0.042000
0, 4, 0, 0, 1, 0.076000
0, 4, 4, 3, 1, 0.051000
0, 4, 1, 1, 1, 0.047000
0, 4, 4, 0, 1, 0.053000
0, 4, 4, 3, 1, 0.073000
0, 4, 3, 3, 1, 0.043000
0, 4, 2, 2, 1, 0.062000
0, 4, 3, 4, 1, 0.061000
0, 4, 2, 2, 1, 0.051000
0, 4, 3, 2, 1, 0.068000
0, 4, 4, 0, 1, 0.058000
0, 4, 3, 2, 1, 0.041000
0, 4, 4, 2, 1, 0.050000
0, 4, 4, 3, 1, 0.058000
0, 4, 4, 1, 1, 0.049000
0, 4, 0, 0, 1, 0.078000
0, 4, 0, 3, 1, 0.072000
0, 4, 3, 4, 1, 0.057000
0, 4, 4, 0, 1, 0.056000
0, 4, 2, 1, 1, 0.053000
0, 4, 2, 1, 1, 0.041000
0, 4, 4, 3, 1, 0.044000
0, 4, 1, 2, 1, 0.076000
0, 4, 1, 1, 1, 0.066000
0, 4, 4, 1, 1, 0.073000
0, 4, 4, 4, 1, 0.078000
0, 4, 4, 1, 1, 0.066000
0, 4, 4, 0, 1, 0.064000
0, 4, 4, 3, 1, 0.071000
0, 4, 4, 1, 1, 0.064000
1, 4, 2, 0, 1, 0.073000
1, 4, 4, 0, 1, 0.056000
1, 4, 4, 4, 1, 0.052000
1, 4, 4, 2, 1, 0.073000
1, 4, 2, 2, 1, 0.076000
1, 4, 2, 0, 1, 0.054000
1, 4, 4, 2, 1, 0.054000
1, 4, 1, 0, 1, 0.056000
1, 4, 4, 2, 1, 0.074000
1, 4, 3, 4, 1, 0.064000
1, 4, 3, 0, 1, 0.043000
1, 4, 2, 4, 1, 0.069000
1, 4, 4, 4, 1, 0.079000
1, 4, 1, 2, 1, 0.065000
1, 4, 1, 0, 1, 0.070000
1, 4, 3, 2, 1, 0.048000
1, 4, 1, 3, 1, 0.069000
1, 4, 1, 0, 1, 0.057000
1, 4, 2, 4, 1, 0.049000
1, 4, 3, 1, 1, 0.075000
1, 4, 0, 0, 1, 0.077000
1, 4, 2, 3, 1, 0.053000
1, 4, 2, 0, 1, 0.078000
1, 4, 4, 4, 1, 0.044000
1, 4, 0, 3, 1, 0.065000
1, 4, 0, 3, 1, 0.060000
1, 4, 3, 1, 1, 0.068000
1, 4, 4, 0, 1, 0.056000
1, 4, 3, 2, 1, 0.073000
1, 4, 2, 4, 1, 0.075000
1, 4, 4, 2, 1, 0.070000
1, 4, 1, 2, 1, 0.043000
1, 4, 2, 1, 1, 0.049000
1, 4, 1, 3, 1, 0.054000
1, 4, 1, 1, 1, 0.073000
1, 4, 0, 1, 1, 0.062000
1, 4, 4, 3, 1, 0.058000
1, 4, 2, 1, 1, 0.047000
1, 4, 2, 2, 1, 0.079000
1, 4, 1, 1, 1, 0.059000
1, 4, 1, 0, 1, 0.052000
1, 4, 3, 0, 1, 0.054000
1, 4, 4, 2, 1, 0.046000
2, 4, 4, 4, 1, 0.054000
2, 4, 1, 1, 1, 0.076000
2, 4, 0, 2, 1, 0.046000
2, 4, 1, 2, 1, 0.046000
2, 4, 4, 2, 1, 0.059000
2, 4, 4, 2, 1, 0.045000
2, 4, 3, 4, 1, 0.043000
2, 4, 0, 0, 1, 0.071000
2, 4, 4, 1, 1, 0.073000
2, 4, 1, 2, 1, 0.051000
2, 4, 2, 0, 1, 0.048000
2, 4, 3, 3, 1, 0.061000
2, 4, 1, 1, 1, 0.065000
2, 4, 1, 1, 1, 0.046000
2, 4, 0, 2, 1, 0.066000
2, 4, 0, 0, 1, 0.051000
2, 4, 2, 2, 1, 0.050000
2, 4, 0, 4, 1, 0.047000
2, 4, 0, 3, 1, 0.041000
2, 4, 4, 2, 1, 0.075000
2, 4, 2, 0, 1, 0.041000
2, 4, 0, 0, 1, 0.059000
2, 4, 2, 2, 1, 0.069000
2, 4, 1, 4, 1, 0.041000
2, 4, 4, 0, 1, 0.040000
2, 4, 1, 2, 1, 0.047000
2, 4, 1, 1, 1, 0.056000
2, 4, 2, 2, 1, 0.053000
2, 4, 3, 3, 1, 0.048000
2, 4, 4, 2, 1, 0.056000
2, 4, 3, 1, 1, 0.042000
2, 4, 2, 1, 1, 0.054000
2, 4, 3, 0, 1, 0.065000
2, 4, 1, 2, 1, 0.055000
2, 4, 4, 3, 1, 0.056000
2, 4, 2, 0, 1, 0.067000
2, 4, 3, 1, 1, 0.056000
2, 4, 0, 1, 1, 0.067000
2, 4, 4, 1, 1, 0.049000
2, 4, 4, 2, 1, 0.042000
2, 4, 4, 0, 1, 0.055000
2, 4, 0, 3, 1, 0.043000
2, 4, 3, 0, 1, 0.045000
2, 4, 3, 2, 1, 0.048000
2, 4, 4, 1, 1, 0.048000
2, 4, 1, 4, 1, 0.041000
2, 4, 0, 4, 1, 0.072000
2, 4, 4, 3, 1, 0.069000
2, 4, 4, 1, 1, 0.052000
2, 4, 2, 0, 1, 0.048000
2, 4, 0, 2, 1, 0.041000
2, 4, 1, 0, 1, 0.069000
2, 4, 2, 0, 1, 0.061000
2, 4, 1, 0, 1, 0.046000
2, 4, 4, 0, 1, 0.062000
2, 4, 0, 1, 1, 0.046000
2, 4, 0, 0, 1, 0.041000
2, 4, 0, 1, 1, 0.044000
2, 4, 1, 0, 1, 0.044000
2, 4, 2, 2, 1, 0.055000
2, 4, 0, 4, 1, 0.057000
2, 4, 4, 0, 1, 0.079000
2, 4, 2, 1, 1, 0.071000
2, 4, 2, 2, 1, 0.041000
2, 4, 3, 3, 1, 0.054000
2, 4, 1, 4, 1, 0.075000
2, 4, 1, 4, 1, 0.080000
2, 4, 3, 4, 1, 0.077000
2, 4, 2, 3, 1, 0.071000
2, 4, 0, 4, 1, 0.053000
2, 4, 0, 2, 1, 0.067000
2, 4, 3, 4, 1, 0.048000
2, 4, 2, 3, 1, 0.050000
2, 4, 3, 2, 1, 0.072000
2, 4, 3, 3, 1, 0.048000
3, 4, 4, 4, 1, 0.071000
3, 4, 2, 2, 1, 0.070000
3, 4, 2, 0, 1, 0.060000
3, 4, 2, 2, 1, 0.048000
3, 4, 1, 3, 1, 0.077000
3, 4, 1, 0, 1, 0.044000
3, 4, 3, 0, 1, 0.054000
3, 4, 1, 1, 1, 0.052000
3, 4, 1, 2, 1, 0.054000
3, 4, 0, 1, 1, 0.065000
3, 4, 1, 1, 1, 0.041000
3, 4, 3, 2, 1, 0.063000
3, 4, 4, 0, 1, 0.060000
3, 4, 4, 1, 1, 0.060000
3, 4, 4, 4, 1, 0.054000
3, 4, 2, 2, 1, 0.042000
3, 4, 4, 4, 1, 0.063000
3, 4, 3, 1, 1, 0.072000
3, 4, 4, 1, 1, 0.041000
3, 4, 4, 3, 1, 0.066000
3, 4, 4, 4, 1, 0.049000
3, 4, 4, 4, 1, 0.042000
3, 4, 0, 4, 1, 0.045000
3, 4, 1, 1, 1, 0.077000
3, 4, 1, 0, 1, 0.075000
3, 4, 3, 1, 1, 0.070000
3, 4, 0, 3, 1, 0.077000
3, 4, 2, 1, 1, 0.049000
3, 4, 4, 3, 1, 0.043000
3, 4, 1, 2, 1, 0.077000
3, 4, 2, 3, 1, 0.071000
3, 4, 2, 1, 1, 0.078000
3, 4, 2, 0, 1, 0.045000
3, 4, 2, 1, 1, 0.045000
4, 4, 4, 1, 1, 0.068000
4, 4, 3, 2, 1, 0.069000
4, 4, 0, 4, 1, 0.047000
4, 4, 1, 0, 1, 0.070000
4, 4, 1, 1, 1, 0.044000
4, 4, 1, 1, 1, 0.073000
4, 4, 0, 1, 1, 0.073000
4, 4, 0, 0, 1, 0.045000
4, 4, 0, 1, 1, 0.046000
4, 4, 1, 4, 1, 0.059000
4, 4, 1, 0, 1, 0.053000
4, 4, 3, 3, 1, 0.047000
4, 4, 0, 0, 1, 0.071000
4, 4, 4, 1, 1, 0.044000
4, 4, 0, 4, 1, 0.077000
4, 4, 2, 2, 1, 0.065000
4, 4, 1, 0, 1, 0.064000
4, 4, 2, 2, 1, 0.073000
4, 4, 3, 4, 1, 0.076000
4, 4, 2, 3, 1, 0.078000
4, 4, 1, 4, 1, 0.047000
4, 4, 1, 4, 1, 0.056000
4, 4, 1, 3, 1, 0.054000
4, 4, 0, 4, 1, 0.051000
4, 4, 4, 2, 1, 0.067000
4, 4, 0, 1, 1, 0.060000
4, 4, 4, 0, 1, 0.060000
4, 4, 0, 0, 1, 0.069000
4, 4, 3, 1, 1, 0.059000
4, 4, 4, 2, 1, 0.072000
4, 4, 0, 2, 1, 0.072000
4, 4, 0, 2, 1, 0.070000
4, 4, 0, 4, 1, 0.051000
4, 4, 0, 0, 1, 0.076000
4, 4, 2, 3, 1, 0.063000
4, 4, 2, 0, 1, 0.046000
4, 4, 2, 3, 1, 0.065000
4, 4, 3, 4, 1, 0.075000
4, 4, 0, 1, 1, 0.067000
4, 4, 3, 2, 1, 0.064000
4, 4, 0, 0, 1, 0.058000
4, 4, 0, 0, 1, 0.067000
4, 4, 3, 3, 1, 0.073000
4, 4, 4, 0, 1, 0.075000
4, 4, 1, 1, 1, 0.044000
4, 4, 0, 4, 1, 0.049000
4, 4, 4, 1, 1, 0.072000
4, 4, 1, 1, 1, 0.049000
4, 4, 0, 0, 1, 0.078000
4, 4, 3, 2, 1, 0.065000
4, 4, 3, 4, 1, 0.049000
4, 4, 3, 3, 1, 0.051000
4, 4, 3, 3, 1, 0.059000
4, 4, 3, 2, 1, 0.042000
4, 4, 4, 0, 1, 0.066000
4, 4, 3, 1, 1, 0.054000
4, 4, 3, 3, 1, 0.042000
4, 4, 4, 2, 1, 0.054000
4, 4, 2, 0, 1, 0.062000
4, 4, 2, 4, 1, 0.043000
4, 4, 0, 4, 1, 0.049000
4, 4, 1, 4, 1, 0.053000
4, 4, 1, 3, 1, 0.079000
4, 4, 4, 1, 1, 0.045000
4, 4, 3, 3, 1, 0.052000
4, 4, 4, 3, 1, 0.066000
4, 4, 3, 0, 1, 0.054000
4, 4, 1, 2, 1, 0.051000
4, 4, 2, 1, 1, 0.074000
4, 4, 3, 1, 1, 0.057000
4, 4, 0, 4, 1, 0.070000
4, 4, 3, 4, 1, 0.062000
4, 4, 1, 0, 1, 0.058000
4, 4, 3, 2, 1, 0.064000
4, 4, 1, 4, 1, 0.061000
4, 4, 4, 3, 1, 0.065000
4, 4, 4, 0, 1, 0.078000
4, 4, 2, 2, 1, 0.059000
4, 4, 2, 0, 1, 0.068000
4, 4, 2, 1, 1, 0.055000
4, 4, 3, 1, 1, 0.051000
