sX, sY, dX, dY, B, R
0, 0, 1, 0, 1, 0.448000
0, 0, 1, 1, 1, 0.265000
0, 0, 0, 1, 1, 0.172000
0, 0, 0, 1, 1, 0.315000
0, 0, 0, 1, 1, 0.049000
0, 0, 1, 0, 1, 0.946000
0, 0, 0, 1, 1, 0.181000
0, 0, 1, 0, 1, 0.736000
0, 0, 1, 0, 1, 0.463000
0, 0, 0, 1, 1, 0.450000
0, 0, 1, 0, 1, 0.111000
0, 0, 1, 1, 1, 0.840000
0, 0, 1, 0, 1, 0.170000
0, 0, 0, 1, 1, 0.382000
0, 0, 0, 1, 1, 0.108000
0, 0, 1, 0, 1, 0.325000
0, 0, 1, 0, 1, 0.154000
0, 0, 1, 1, 1, 0.500000
0, 0, 1, 0, 1, 0.667000
0, 0, 1, 0, 1, 0.806000
0, 0, 1, 0, 1, 0.541000
0, 0, 0, 1, 1, 0.302000
0, 0, 0, 1, 1, 0.768000
0, 0, 1, 0, 1, 0.121000
0, 0, 1, 0, 1, 0.560000
0, 0, 1, 0, 1, 0.734000
0, 0, 0, 1, 1, 0.454000
0, 0, 0, 1, 1, 0.930000
0, 0, 1, 0, 1, 0.681000
0, 0, 1, 0, 1, 0.196000
0, 0, 0, 1, 1, 0.187000
0, 0, 1, 1, 1, 0.278000
0, 0, 1, 0, 1, 0.364000
0, 0, 0, 1, 1, 0.820000
0, 0, 1, 0, 1, 0.525000
0, 0, 0, 1, 1, 0.711000
0, 0, 1, 0, 1, 0.496000
0, 0, 1, 1, 1, 0.306000
0, 0, 1, 0, 1, 0.452000
0, 0, 1, 1, 1, 0.269000
0, 0, 1, 1, 1, 0.188000
0, 0, 1, 1, 1, 0.550000
0, 0, 0, 1, 1, 0.133000
0, 0, 0, 1, 1, 0.020000
0, 0, 1, 1, 1, 0.737000
0, 0, 1, 0, 1, 0.957000
0, 0, 0, 1, 1, 0.353000
0, 0, 0, 1, 1, 0.932000
0, 0, 0, 1, 1, 0.261000
0, 0, 1, 0, 1, 0.013000
0, 0, 0, 1, 1, 0.004000
0, 0, 1, 0, 1, 0.088000
0, 0, 1, 0, 1, 0.250000
0, 0, 1, 1, 1, 0.666000
0, 0, 0, 1, 1, 0.167000
0, 0, 1, 1, 1, 0.902000
0, 0, 1, 1, 1, 0.668000
0, 0, 0, 1, 1, 0.415000
0, 0, 1, 0, 1, 0.186000
0, 0, 1, 1, 1, 0.643000
0, 0, 1, 0, 1, 0.811000
0, 0, 0, 1, 1, 0.074000
0, 0, 1, 0, 1, 0.830000
0, 0, 1, 0, 1, 0.172000
0, 0, 1, 1, 1, 0.067000
0, 0, 1, 1, 1, 0.648000
0, 0, 1, 1, 1, 0.846000
0, 0, 0, 1, 1, 0.867000
0, 0, 0, 1, 1, 0.288000
0, 0, 1, 1, 1, 0.939000
0, 0, 0, 1, 1, 0.988000
0, 0, 1, 0, 1, 0.176000
0, 0, 1, 0, 1, 0.977000
0, 0, 0, 1, 1, 0.422000
0, 0, 1, 1, 1, 0.563000
0, 0, 1, 1, 1, 0.590000
0, 0, 1, 0, 1, 0.611000
0, 0, 1, 1, 1, 0.366000
0, 0, 1, 0, 1, 0.149000
0, 0, 1, 0, 1, 0.022000
0, 0, 0, 1, 1, 0.284000
0, 0, 1, 0, 1, 0.609000
0, 0, 1, 0, 1, 0.322000
0, 0, 1, 0, 1, 0.988000
0, 0, 0, 1, 1, 0.728000
0, 0, 1, 0, 1, 0.469000
0, 0, 1, 0, 1, 0.804000
0, 0, 0, 1, 1, 0.222000
0, 0, 1, 0, 1, 0.844000
0, 0, 1, 0, 1, 0.634000
0, 0, 1, 0, 1, 0.741000
0, 0, 1, 1, 1, 0.786000
0, 0, 1, 1, 1, 0.862000
0, 0, 1, 1, 1, 0.827000
0, 0, 1, 0, 1, 0.370000
0, 0, 0, 1, 1, 0.793000
0, 0, 0, 1, 1, 0.811000
0, 0, 1, 1, 1, 0.796000
0, 0, 1, 0, 1, 0.849000
0, 0, 0, 1, 1, 0.267000
1, 0, 0, 0, 1, 0.075000
1, 0, 1, 1, 1, 0.503000
1, 0, 0, 0, 1, 0.941000
1, 0, 1, 1, 1, 0.346000
1, 0, 0, 0, 1, 0.591000
1, 0, 0, 0, 1, 0.303000
1, 0, 0, 0, 1, 0.519000
1, 0, 0, 1, 1, 0.715000
1, 0, 1, 1, 1, 0.613000
1, 0, 1, 1, 1, 0.717000
1, 0, 1, 1, 1, 0.907000
1, 0, 1, 1, 1, 0.641000
1, 0, 0, 0, 1, 0.965000
1, 0, 1, 1, 1, 0.086000
1, 0, 0, 0, 1, 0.089000
1, 0, 0, 1, 1, 0.181000
1, 0, 0, 0, 1, 0.071000
1, 0, 0, 1, 1, 0.715000
1, 0, 0, 0, 1, 0.173000
1, 0, 1, 1, 1, 0.165000
1, 0, 1, 1, 1, 0.998000
1, 0, 0, 0, 1, 0.548000
1, 0, 0, 1, 1, 0.747000
1, 0, 0, 1, 1, 0.618000
1, 0, 0, 0, 1, 0.141000
1, 0, 1, 1, 1, 0.820000
1, 0, 0, 0, 1, 0.265000
1, 0, 1, 1, 1, 0.985000
1, 0, 1, 1, 1, 0.793000
1, 0, 0, 0, 1, 0.228000
1, 0, 1, 1, 1, 0.993000
1, 0, 1, 1, 1, 0.316000
1, 0, 0, 0, 1, 0.676000
1, 0, 0, 0, 1, 0.515000
1, 0, 0, 0, 1, 0.928000
1, 0, 1, 1, 1, 0.039000
1, 0, 1, 1, 1, 0.108000
1, 0, 1, 1, 1, 0.206000
1, 0, 1, 1, 1, 0.604000
1, 0, 0, 1, 1, 0.863000
1, 0, 0, 0, 1, 0.691000
1, 0, 0, 0, 1, 0.537000
1, 0, 1, 1, 1, 0.230000
1, 0, 0, 0, 1, 0.562000
1, 0, 1, 1, 1, 0.263000
1, 0, 0, 1, 1, 0.186000
1, 0, 0, 0, 1, 0.030000
1, 0, 0, 0, 1, 0.738000
1, 0, 0, 0, 1, 0.297000
1, 0, 0, 0, 1, 0.314000
1, 0, 0, 0, 1, 0.557000
1, 0, 1, 1, 1, 0.735000
1, 0, 0, 0, 1, 0.796000
1, 0, 1, 1, 1, 0.002000
1, 0, 0, 0, 1, 0.788000
1, 0, 0, 0, 1, 0.430000
1, 0, 0, 1, 1, 0.260000
1, 0, 1, 1, 1, 0.863000
1, 0, 1, 1, 1, 0.394000
1, 0, 1, 1, 1, 0.727000
1, 0, 0, 0, 1, 0.789000
1, 0, 0, 1, 1, 0.547000
1, 0, 0, 0, 1, 0.711000
1, 0, 0, 1, 1, 0.767000
1, 0, 0, 1, 1, 0.683000
1, 0, 0, 0, 1, 0.592000
1, 0, 0, 1, 1, 0.221000
1, 0, 1, 1, 1, 0.316000
1, 0, 1, 1, 1, 0.741000
1, 0, 0, 0, 1, 0.461000
1, 0, 0, 0, 1, 0.274000
1, 0, 0, 1, 1, 0.370000
1, 0, 0, 0, 1, 0.905000
1, 0, 0, 0, 1, 0.827000
1, 0, 1, 1, 1, 0.303000
1, 0, 0, 0, 1, 0.769000
1, 0, 1, 1, 1, 0.647000
1, 0, 0, 0, 1, 0.494000
1, 0, 0, 0, 1, 0.925000
1, 0, 0, 0, 1, 0.109000
1, 0, 1, 1, 1, 0.051000
1, 0, 0, 1, 1, 0.156000
1, 0, 1, 1, 1, 0.409000
1, 0, 0, 0, 1, 0.377000
1, 0, 1, 1, 1, 0.023000
1, 0, 1, 1, 1, 0.556000
1, 0, 0, 1, 1, 0.227000
1, 0, 1, 1, 1, 0.939000
1, 0, 0, 1, 1, 0.328000
1, 0, 0, 0, 1, 0.651000
1, 0, 1, 1, 1, 0.359000
1, 0, 0, 0, 1, 0.814000
1, 0, 0, 0, 1, 0.400000
1, 0, 1, 1, 1, 0.931000
1, 0, 0, 0, 1, 0.182000
1, 0, 0, 0, 1, 0.405000
1, 0, 1, 1, 1, 0.854000
1, 0, 1, 1, 1, 0.341000
1, 0, 1, 1, 1, 0.857000
1, 0, 0, 0, 1, 0.340000
0, 1, 1, 0, 1, 0.864000
0, 1, 1, 0, 1, 0.511000
0, 1, 1, 1, 1, 0.639000
0, 1, 0, 0, 1, 0.751000
0, 1, 0, 0, 1, 0.872000
0, 1, 1, 1, 1, 0.658000
0, 1, 1, 1, 1, 0.286000
0, 1, 1, 1, 1, 0.702000
0, 1, 1, 1, 1, 0.990000
0, 1, 0, 0, 1, 0.720000
0, 1, 0, 0, 1, 0.664000
0, 1, 1, 1, 1, 0.619000
0, 1, 1, 1, 1, 0.622000
0, 1, 0, 0, 1, 0.518000
0, 1, 0, 0, 1, 0.808000
0, 1, 1, 0, 1, 0.021000
0, 1, 0, 0, 1, 0.129000
0, 1, 1, 1, 1, 0.230000
0, 1, 0, 0, 1, 0.462000
0, 1, 1, 1, 1, 0.863000
0, 1, 0, 0, 1, 0.847000
0, 1, 1, 1, 1, 0.435000
0, 1, 0, 0, 1, 0.088000
0, 1, 0, 0, 1, 0.676000
0, 1, 0, 0, 1, 0.940000
0, 1, 0, 0, 1, 0.859000
0, 1, 0, 0, 1, 0.876000
0, 1, 1, 1, 1, 0.942000
0, 1, 1, 1, 1, 0.275000
0, 1, 0, 0, 1, 0.507000
0, 1, 0, 0, 1, 0.596000
0, 1, 1, 0, 1, 0.938000
0, 1, 1, 1, 1, 0.580000
0, 1, 0, 0, 1, 0.751000
0, 1, 1, 1, 1, 0.244000
0, 1, 0, 0, 1, 0.933000
0, 1, 0, 0, 1, 0.772000
0, 1, 1, 1, 1, 0.010000
0, 1, 1, 1, 1, 0.005000
0, 1, 1, 1, 1, 0.712000
0, 1, 1, 1, 1, 0.900000
0, 1, 1, 0, 1, 0.789000
0, 1, 1, 1, 1, 0.605000
0, 1, 0, 0, 1, 0.248000
0, 1, 1, 0, 1, 0.222000
0, 1, 1, 1, 1, 0.960000
0, 1, 0, 0, 1, 0.239000
0, 1, 1, 1, 1, 0.048000
0, 1, 1, 1, 1, 0.512000
0, 1, 0, 0, 1, 0.666000
0, 1, 1, 1, 1, 0.942000
0, 1, 1, 1, 1, 0.156000
0, 1, 1, 1, 1, 0.918000
0, 1, 1, 0, 1, 0.105000
0, 1, 1, 1, 1, 0.133000
0, 1, 0, 0, 1, 0.259000
0, 1, 0, 0, 1, 0.551000
0, 1, 0, 0, 1, 0.954000
0, 1, 1, 0, 1, 0.825000
0, 1, 1, 1, 1, 0.762000
0, 1, 1, 0, 1, 0.971000
0, 1, 1, 1, 1, 0.958000
0, 1, 1, 1, 1, 0.744000
0, 1, 1, 0, 1, 0.344000
0, 1, 0, 0, 1, 0.507000
0, 1, 0, 0, 1, 0.129000
0, 1, 1, 0, 1, 0.578000
0, 1, 1, 1, 1, 0.291000
0, 1, 0, 0, 1, 0.267000
0, 1, 1, 1, 1, 0.974000
0, 1, 1, 1, 1, 0.074000
0, 1, 1, 1, 1, 0.789000
0, 1, 1, 0, 1, 0.745000
0, 1, 0, 0, 1, 0.311000
0, 1, 0, 0, 1, 0.707000
0, 1, 1, 0, 1, 0.492000
0, 1, 0, 0, 1, 0.483000
0, 1, 1, 1, 1, 0.266000
0, 1, 1, 0, 1, 0.756000
0, 1, 1, 1, 1, 0.451000
0, 1, 1, 1, 1, 0.401000
0, 1, 1, 1, 1, 0.826000
0, 1, 0, 0, 1, 0.393000
0, 1, 1, 0, 1, 0.097000
0, 1, 1, 0, 1, 0.147000
0, 1, 0, 0, 1, 0.268000
0, 1, 1, 1, 1, 0.591000
0, 1, 1, 1, 1, 0.096000
0, 1, 1, 0, 1, 0.863000
0, 1, 0, 0, 1, 0.189000
0, 1, 0, 0, 1, 0.629000
0, 1, 0, 0, 1, 0.248000
0, 1, 1, 0, 1, 0.718000
0, 1, 1, 1, 1, 0.502000
0, 1, 0, 0, 1, 0.280000
0, 1, 0, 0, 1, 0.565000
0, 1, 1, 0, 1, 0.406000
0, 1, 1, 1, 1, 0.619000
0, 1, 1, 0, 1, 0.461000
0, 1, 0, 0, 1, 0.582000
1, 1, 0, 1, 1, 0.203000
1, 1, 0, 0, 1, 0.947000
1, 1, 1, 0, 1, 0.574000
1, 1, 1, 0, 1, 0.382000
1, 1, 0, 1, 1, 0.527000
1, 1, 0, 1, 1, 0.616000
1, 1, 0, 1, 1, 0.222000
1, 1, 0, 1, 1, 0.661000
1, 1, 1, 0, 1, 0.538000
1, 1, 0, 1, 1, 0.743000
1, 1, 0, 0, 1, 0.796000
1, 1, 0, 1, 1, 0.813000
1, 1, 0, 0, 1, 0.564000
1, 1, 1, 0, 1, 0.178000
1, 1, 0, 1, 1, 0.528000
1, 1, 0, 1, 1, 0.812000
1, 1, 0, 1, 1, 0.616000
1, 1, 1, 0, 1, 0.502000
1, 1, 1, 0, 1, 0.777000
1, 1, 0, 1, 1, 0.892000
1, 1, 0, 1, 1, 0.618000
1, 1, 1, 0, 1, 0.654000
1, 1, 0, 1, 1, 0.022000
1, 1, 0, 1, 1, 0.661000
1, 1, 1, 0, 1, 0.432000
1, 1, 0, 1, 1, 0.769000
1, 1, 1, 0, 1, 0.395000
1, 1, 1, 0, 1, 0.901000
1, 1, 1, 0, 1, 0.374000
1, 1, 0, 1, 1, 0.745000
1, 1, 1, 0, 1, 0.555000
1, 1, 0, 0, 1, 0.958000
1, 1, 0, 1, 1, 0.872000
1, 1, 0, 0, 1, 0.450000
1, 1, 1, 0, 1, 0.173000
1, 1, 0, 1, 1, 0.669000
1, 1, 1, 0, 1, 0.191000
1, 1, 0, 0, 1, 0.744000
1, 1, 1, 0, 1, 0.645000
1, 1, 1, 0, 1, 0.908000
1, 1, 0, 1, 1, 0.266000
1, 1, 1, 0, 1, 0.448000
1, 1, 0, 0, 1, 0.045000
1, 1, 0, 1, 1, 0.852000
1, 1, 1, 0, 1, 0.238000
1, 1, 0, 1, 1, 0.552000
1, 1, 0, 1, 1, 0.093000
1, 1, 0, 0, 1, 0.216000
1, 1, 0, 1, 1, 0.891000
1, 1, 0, 0, 1, 0.242000
1, 1, 0, 1, 1, 0.567000
1, 1, 1, 0, 1, 0.327000
1, 1, 0, 1, 1, 0.706000
1, 1, 0, 1, 1, 0.814000
1, 1, 0, 1, 1, 0.265000
1, 1, 0, 1, 1, 0.578000
1, 1, 1, 0, 1, 0.953000
1, 1, 1, 0, 1, 0.729000
1, 1, 1, 0, 1, 0.542000
1, 1, 0, 1, 1, 0.753000
1, 1, 0, 1, 1, 0.105000
1, 1, 0, 1, 1, 0.566000
1, 1, 1, 0, 1, 0.453000
1, 1, 1, 0, 1, 0.971000
1, 1, 0, 1, 1, 0.576000
1, 1, 0, 1, 1, 0.898000
1, 1, 1, 0, 1, 0.661000
1, 1, 0, 1, 1, 0.282000
1, 1, 0, 1, 1, 0.480000
1, 1, 0, 0, 1, 0.936000
1, 1, 1, 0, 1, 0.316000
1, 1, 0, 1, 1, 0.834000
1, 1, 0, 1, 1, 0.805000
1, 1, 0, 1, 1, 0.036000
1, 1, 1, 0, 1, 0.354000
1, 1, 0, 1, 1, 0.733000
1, 1, 1, 0, 1, 0.205000
1, 1, 0, 1, 1, 0.689000
1, 1, 0, 0, 1, 0.698000
1, 1, 0, 0, 1, 0.058000
1, 1, 0, 0, 1, 0.056000
1, 1, 0, 1, 1, 0.967000
1, 1, 1, 0, 1, 0.999000
1, 1, 1, 0, 1, 0.732000
1, 1, 0, 0, 1, 0.965000
1, 1, 1, 0, 1, 0.111000
1, 1, 0, 0, 1, 0.476000
1, 1, 0, 0, 1, 0.269000
1, 1, 0, 1, 1, 0.011000
1, 1, 0, 1, 1, 0.938000
1, 1, 1, 0, 1, 0.741000
1, 1, 0, 1, 1, 0.603000
1, 1, 0, 0, 1, 0.873000
1, 1, 0, 1, 1, 0.566000
1, 1, 1, 0, 1, 0.609000
1, 1, 0, 0, 1, 0.699000
1, 1, 0, 1, 1, 0.670000
1, 1, 0, 0, 1, 0.025000
1, 1, 0, 1, 1, 0.774000
1, 1, 1, 0, 1, 0.796000
