sX, sY, dX, dY, B, R
0, 0, 1, 0, 1, 0.173000
0, 0, 0, 2, 1, 0.215000
0, 0, 1, 3, 1, 0.655000
0, 0, 0, 1, 1, 0.033000
0, 0, 1, 0, 1, 0.414000
0, 0, 0, 2, 1, 0.988000
0, 0, 2, 4, 1, 0.998000
0, 0, 0, 3, 1, 0.730000
0, 0, 0, 3, 1, 0.602000
0, 0, 2, 3, 1, 0.346000
1, 0, 3, 3, 1, 0.941000
1, 0, 1, 1, 1, 0.541000
1, 0, 3, 4, 1, 0.776000
1, 0, 0, 0, 1, 0.208000
1, 0, 3, 3, 1, 0.414000
1, 0, 4, 2, 1, 0.413000
1, 0, 0, 0, 1, 0.862000
1, 0, 0, 4, 1, 0.524000
1, 0, 4, 0, 1, 0.177000
1, 0, 2, 4, 1, 0.299000
2, 0, 0, 4, 1, 0.071000
2, 0, 1, 3, 1, 0.381000
2, 0, 2, 3, 1, 0.758000
2, 0, 3, 4, 1, 0.430000
2, 0, 4, 3, 1, 0.527000
2, 0, 0, 3, 1, 0.368000
2, 0, 0, 1, 1, 0.047000
2, 0, 4, 4, 1, 0.668000
2, 0, 3, 2, 1, 0.832000
2, 0, 0, 2, 1, 0.867000
3, 0, 2, 0, 1, 0.243000
3, 0, 2, 4, 1, 0.683000
3, 0, 4, 4, 1, 0.314000
3, 0, 1, 1, 1, 0.356000
3, 0, 2, 2, 1, 0.760000
3, 0, 4, 1, 1, 0.097000
3, 0, 1, 0, 1, 0.253000
3, 0, 2, 0, 1, 0.851000
3, 0, 4, 2, 1, 0.584000
3, 0, 2, 4, 1, 0.313000
4, 0, 2, 1, 1, 0.811000
4, 0, 3, 3, 1, 0.981000
4, 0, 1, 0, 1, 0.885000
4, 0, 4, 3, 1, 0.309000
4, 0, 1, 1, 1, 0.993000
4, 0, 4, 4, 1, 0.497000
4, 0, 1, 4, 1, 0.253000
4, 0, 0, 4, 1, 0.777000
4, 0, 0, 1, 1, 0.599000
4, 0, 1, 4, 1, 0.974000
0, 1, 4, 0, 1, 0.953000
0, 1, 2, 4, 1, 0.639000
0, 1, 3, 1, 1, 0.443000
0, 1, 1, 0, 1, 0.507000
0, 1, 1, 2, 1, 0.610000
0, 1, 3, 3, 1, 0.725000
0, 1, 4, 3, 1, 0.055000
0, 1, 1, 1, 1, 0.394000
0, 1, 3, 1, 1, 0.470000
0, 1, 2, 2, 1, 0.186000
1, 1, 1, 4, 1, 0.368000
1, 1, 2, 1, 1, 0.525000
1, 1, 1, 4, 1, 0.647000
1, 1, 0, 3, 1, 0.187000
1, 1, 2, 1, 1, 0.230000
1, 1, 1, 0, 1, 0.083000
1, 1, 0, 4, 1, 0.925000
1, 1, 3, 1, 1, 0.910000
1, 1, 1, 3, 1, 0.997000
1, 1, 0, 4, 1, 0.549000
2, 1, 1, 2, 1, 0.260000
2, 1, 0, 1, 1, 0.765000
2, 1, 1, 1, 1, 0.117000
2, 1, 2, 0, 1, 0.883000
2, 1, 3, 1, 1, 0.336000
2, 1, 0, 0, 1, 0.436000
2, 1, 1, 2, 1, 0.256000
2, 1, 1, 2, 1, 0.065000
2, 1, 2, 0, 1, 0.560000
2, 1, 1, 1, 1, 0.424000
3, 1, 1, 0, 1, 0.088000
3, 1, 1, 3, 1, 0.169000
3, 1, 0, 3, 1, 0.918000
3, 1, 4, 3, 1, 0.050000
3, 1, 1, 0, 1, 0.746000
3, 1, 1, 3, 1, 0.977000
3, 1, 0, 4, 1, 0.495000
3, 1, 1, 1, 1, 0.892000
3, 1, 3, 4, 1, 0.068000
3, 1, 4, 1, 1, 0.902000
4, 1, 3, 1, 1, 0.908000
4, 1, 4, 2, 1, 0.855000
4, 1, 1, 1, 1, 0.373000
4, 1, 1, 2, 1, 0.361000
4, 1, 4, 2, 1, 0.389000
4, 1, 2, 0, 1, 0.144000
4, 1, 4, 3, 1, 0.640000
4, 1, 2, 2, 1, 0.693000
4, 1, 2, 2, 1, 0.573000
4, 1, 0, 1, 1, 0.565000
0, 2, 0, 1, 1, 0.536000
0, 2, 3, 3, 1, 0.969000
0, 2, 0, 3, 1, 0.936000
0, 2, 2, 2, 1, 0.820000
0, 2, 0, 0, 1, 0.933000
0, 2, 0, 1, 1, 0.085000
0, 2, 1, 2, 1, 0.109000
0, 2, 3, 4, 1, 0.441000
0, 2, 0, 0, 1, 0.622000
0, 2, 2, 2, 1, 0.672000
1, 2, 1, 3, 1, 0.220000
1, 2, 1, 4, 1, 0.431000
1, 2, 3, 2, 1, 0.316000
1, 2, 2, 4, 1, 0.726000
1, 2, 1, 3, 1, 0.259000
1, 2, 1, 4, 1, 0.833000
1, 2, 2, 1, 1, 0.973000
1, 2, 1, 4, 1, 0.958000
1, 2, 2, 1, 1, 0.890000
1, 2, 0, 4, 1, 0.868000
2, 2, 2, 4, 1, 0.396000
2, 2, 1, 1, 1, 0.256000
2, 2, 1, 0, 1, 0.789000
2, 2, 0, 2, 1, 0.793000
2, 2, 2, 0, 1, 0.597000
2, 2, 2, 4, 1, 0.982000
2, 2, 0, 1, 1, 0.818000
2, 2, 4, 3, 1, 0.041000
2, 2, 2, 1, 1, 0.945000
2, 2, 1, 4, 1, 0.860000
3, 2, 3, 4, 1, 0.789000
3, 2, 3, 4, 1, 0.321000
3, 2, 1, 1, 1, 0.901000
3, 2, 1, 3, 1, 0.039000
3, 2, 1, 2, 1, 0.348000
3, 2, 1, 4, 1, 0.418000
3, 2, 2, 3, 1, 0.997000
3, 2, 2, 2, 1, 0.558000
3, 2, 2, 3, 1, 0.081000
3, 2, 3, 4, 1, 0.296000
4, 2, 4, 1, 1, 0.825000
4, 2, 2, 3, 1, 0.133000
4, 2, 4, 4, 1, 0.541000
4, 2, 4, 0, 1, 0.607000
4, 2, 4, 4, 1, 0.552000
4, 2, 2, 1, 1, 0.069000
4, 2, 2, 2, 1, 0.053000
4, 2, 4, 1, 1, 0.512000
4, 2, 0, 4, 1, 0.103000
4, 2, 4, 1, 1, 0.092000
0, 3, 1, 2, 1, 0.336000
0, 3, 3, 0, 1, 0.868000
0, 3, 4, 3, 1, 0.753000
0, 3, 0, 1, 1, 0.048000
0, 3, 1, 4, 1, 0.879000
0, 3, 2, 4, 1, 0.736000
0, 3, 1, 1, 1, 0.551000
0, 3, 1, 0, 1, 0.799000
0, 3, 1, 1, 1, 0.080000
0, 3, 3, 3, 1, 0.685000
1, 3, 1, 2, 1, 0.654000
1, 3, 0, 2, 1, 0.405000
1, 3, 1, 1, 1, 0.717000
1, 3, 0, 3, 1, 0.154000
1, 3, 2, 2, 1, 0.810000
1, 3, 3, 4, 1, 0.946000
1, 3, 1, 2, 1, 0.433000
1, 3, 1, 0, 1, 0.283000
1, 3, 1, 1, 1, 0.262000
1, 3, 3, 4, 1, 0.597000
2, 3, 0, 3, 1, 0.456000
2, 3, 4, 0, 1, 0.309000
2, 3, 2, 0, 1, 0.294000
2, 3, 2, 0, 1, 0.903000
2, 3, 3, 1, 1, 0.249000
2, 3, 4, 2, 1, 0.296000
2, 3, 4, 3, 1, 0.258000
2, 3, 4, 1, 1, 0.586000
2, 3, 2, 2, 1, 0.032000
2, 3, 3, 3, 1, 0.744000
3, 3, 3, 2, 1, 0.822000
3, 3, 2, 2, 1, 0.295000
3, 3, 3, 4, 1, 0.349000
3, 3, 0, 0, 1, 0.850000
3, 3, 3, 2, 1, 0.418000
3, 3, 4, 1, 1, 0.273000
3, 3, 3, 4, 1, 0.390000
3, 3, 3, 1, 1, 0.264000
3, 3, 3, 4, 1, 0.645000
3, 3, 3, 2, 1, 0.547000
4, 3, 3, 3, 1, 0.528000
4, 3, 4, 4, 1, 0.312000
4, 3, 0, 1, 1, 0.210000
4, 3, 4, 4, 1, 0.139000
4, 3, 1, 1, 1, 0.499000
4, 3, 0, 1, 1, 0.282000
4, 3, 1, 3, 1, 0.353000
4, 3, 1, 1, 1, 0.289000
4, 3, 3, 3, 1, 0.720000
4, 3, 2, 3, 1, 0.564000
0, 4, 1, 1, 1, 0.554000
0, 4, 1, 4, 1, 0.310000
0, 4, 4, 4, 1, 0.992000
0, 4, 2, 1, 1, 0.309000
0, 4, 0, 0, 1, 0.240000
0, 4, 4, 3, 1, 0.582000
0, 4, 0, 1, 1, 0.646000
0, 4, 1, 4, 1, 0.278000
0, 4, 3, 0, 1, 0.542000
0, 4, 4, 4, 1, 0.657000
1, 4, 4, 4, 1, 0.072000
1, 4, 1, 0, 1, 0.340000
1, 4, 2, 0, 1, 0.204000
1, 4, 2, 3, 1, 0.988000
1, 4, 3, 2, 1, 0.118000
1, 4, 1, 3, 1, 0.572000
1, 4, 1, 2, 1, 0.209000
1, 4, 0, 3, 1, 0.657000
1, 4, 0, 1, 1, 0.732000
1, 4, 1, 1, 1, 0.054000
2, 4, 2, 3, 1, 0.224000
2, 4, 2, 3, 1, 0.221000
2, 4, 1, 3, 1, 0.253000
2, 4, 2, 2, 1, 0.193000
2, 4, 4, 3, 1, 0.800000
2, 4, 1, 1, 1, 0.654000
2, 4, 4, 4, 1, 0.367000
2, 4, 2, 0, 1, 0.057000
2, 4, 1, 2, 1, 0.774000
2, 4, 2, 0, 1, 0.918000
3, 4, 2, 2, 1, 0.789000
3, 4, 3, 0, 1, 0.551000
3, 4, 1, 3, 1, 0.777000
3, 4, 4, 4, 1, 0.638000
3, 4, 0, 1, 1, 0.488000
3, 4, 2, 2, 1, 0.806000
3, 4, 4, 4, 1, 0.485000
3, 4, 2, 1, 1, 0.643000
3, 4, 2, 3, 1, 0.200000
3, 4, 0, 4, 1, 0.192000
4, 4, 3, 1, 1, 0.149000
4, 4, 2, 4, 1, 0.588000
4, 4, 3, 0, 1, 0.204000
4, 4, 4, 2, 1, 0.535000
4, 4, 4, 1, 1, 0.032000
4, 4, 2, 3, 1, 0.144000
4, 4, 0, 4, 1, 0.469000
4, 4, 2, 1, 1, 0.073000
4, 4, 0, 4, 1, 0.057000
4, 4, 4, 3, 1, 0.111000
