sX, sY, dX, dY, B, R
0, 0, 4, 1, 1, 0.041000
0, 0, 1, 2, 1, 0.052000
0, 0, 2, 2, 1, 0.041000
0, 0, 1, 3, 1, 0.047000
0, 0, 4, 0, 1, 0.035000
0, 0, 2, 0, 1, 0.054000
0, 0, 2, 3, 1, 0.038000
0, 0, 0, 5, 1, 0.040000
1, 0, 1, 1, 1, 0.038000
1, 0, 1, 4, 1, 0.030000
1, 0, 3, 5, 1, 0.055000
1, 0, 3, 0, 1, 0.048000
1, 0, 5, 0, 1, 0.035000
1, 0, 0, 0, 1, 0.049000
1, 0, 4, 2, 1, 0.047000
1, 0, 1, 2, 1, 0.032000
1, 0, 0, 4, 1, 0.043000
1, 0, 2, 0, 1, 0.054000
1, 0, 3, 0, 1, 0.045000
2, 0, 0, 4, 1, 0.036000
2, 0, 1, 5, 1, 0.052000
2, 0, 2, 2, 1, 0.051000
2, 0, 0, 4, 1, 0.047000
2, 0, 1, 4, 1, 0.055000
2, 0, 1, 0, 1, 0.032000
2, 0, 1, 0, 1, 0.034000
2, 0, 4, 5, 1, 0.031000
2, 0, 0, 0, 1, 0.030000
2, 0, 3, 5, 1, 0.041000
2, 0, 0, 3, 1, 0.050000
2, 0, 4, 1, 1, 0.049000
2, 0, 0, 5, 1, 0.042000
2, 0, 1, 3, 1, 0.037000
2, 0, 0, 1, 1, 0.028000
2, 0, 5, 2, 1, 0.030000
2, 0, 5, 2, 1, 0.036000
2, 0, 3, 0, 1, 0.032000
2, 0, 5, 3, 1, 0.050000
2, 0, 2, 4, 1, 0.050000
2, 0, 2, 4, 1, 0.035000
2, 0, 1, 0, 1, 0.042000
2, 0, 4, 3, 1, 0.030000
2, 0, 3, 1, 1, 0.034000
2, 0, 4, 0, 1, 0.042000
2, 0, 0, 0, 1, 0.041000
2, 0, 4, 0, 1, 0.031000
2, 0, 4, 5, 1, 0.054000
2, 0, 4, 4, 1, 0.049000
2, 0, 0, 0, 1, 0.032000
2, 0, 3, 0, 1, 0.035000
2, 0, 5, 2, 1, 0.052000
2, 0, 4, 1, 1, 0.041000
2, 0, 4, 2, 1, 0.049000
2, 0, 0, 1, 1, 0.044000
2, 0, 4, 3, 1, 0.032000
2, 0, 5, 1, 1, 0.034000
2, 0, 3, 4, 1, 0.030000
2, 0, 0, 4, 1, 0.041000
2, 0, 3, 3, 1, 0.052000
2, 0, 5, 0, 1, 0.044000
2, 0, 5, 2, 1, 0.044000
2, 0, 3, 4, 1, 0.055000
2, 0, 3, 0, 1, 0.048000
2, 0, 3, 0, 1, 0.041000
2, 0, 4, 1, 1, 0.028000
2, 0, 1, 1, 1, 0.054000
2, 0, 1, 0, 1, 0.030000
3, 0, 4, 0, 1, 0.044000
3, 0, 3, 4, 1, 0.033000
3, 0, 0, 2, 1, 0.054000
3, 0, 2, 1, 1, 0.041000
3, 0, 3, 2, 1, 0.031000
3, 0, 0, 2, 1, 0.031000
3, 0, 3, 1, 1, 0.036000
3, 0, 1, 4, 1, 0.045000
3, 0, 2, 0, 1, 0.035000
3, 0, 2, 1, 1, 0.046000
3, 0, 3, 2, 1, 0.030000
3, 0, 3, 5, 1, 0.037000
3, 0, 1, 1, 1, 0.054000
3, 0, 0, 2, 1, 0.051000
3, 0, 3, 5, 1, 0.030000
3, 0, 5, 3, 1, 0.032000
3, 0, 1, 3, 1, 0.047000
3, 0, 3, 3, 1, 0.054000
3, 0, 2, 5, 1, 0.055000
3, 0, 2, 0, 1, 0.054000
3, 0, 2, 3, 1, 0.029000
3, 0, 2, 0, 1, 0.047000
3, 0, 3, 4, 1, 0.031000
3, 0, 4, 4, 1, 0.044000
3, 0, 2, 2, 1, 0.050000
3, 0, 0, 1, 1, 0.054000
3, 0, 0, 0, 1, 0.045000
3, 0, 2, 4, 1, 0.035000
3, 0, 1, 4, 1, 0.049000
4, 0, 5, 2, 1, 0.052000
4, 0, 4, 4, 1, 0.042000
4, 0, 4, 4, 1, 0.034000
4, 0, 1, 5, 1, 0.048000
4, 0, 5, 1, 1, 0.030000
4, 0, 0, 0, 1, 0.043000
4, 0, 5, 1, 1, 0.047000
4, 0, 3, 4, 1, 0.051000
4, 0, 3, 1, 1, 0.031000
4, 0, 2, 2, 1, 0.037000
4, 0, 5, 0, 1, 0.038000
4, 0, 0, 0, 1, 0.036000
4, 0, 1, 0, 1, 0.038000
4, 0, 1, 3, 1, 0.040000
4, 0, 3, 1, 1, 0.040000
4, 0, 1, 0, 1, 0.049000
4, 0, 5, 0, 1, 0.039000
4, 0, 4, 3, 1, 0.055000
4, 0, 4, 1, 1, 0.053000
5, 0, 4, 5, 1, 0.045000
5, 0, 0, 3, 1, 0.053000
5, 0, 2, 1, 1, 0.050000
5, 0, 3, 0, 1, 0.031000
5, 0, 3, 0, 1, 0.040000
5, 0, 3, 2, 1, 0.041000
5, 0, 2, 0, 1, 0.053000
5, 0, 3, 0, 1, 0.047000
5, 0, 3, 2, 1, 0.034000
5, 0, 4, 0, 1, 0.034000
5, 0, 4, 1, 1, 0.035000
5, 0, 5, 4, 1, 0.032000
5, 0, 1, 4, 1, 0.049000
5, 0, 4, 5, 1, 0.047000
5, 0, 0, 3, 1, 0.054000
5, 0, 3, 2, 1, 0.045000
5, 0, 2, 4, 1, 0.047000
5, 0, 2, 0, 1, 0.037000
5, 0, 2, 0, 1, 0.042000
5, 0, 4, 1, 1, 0.039000
5, 0, 3, 0, 1, 0.046000
5, 0, 5, 3, 1, 0.055000
5, 0, 0, 0, 1, 0.050000
5, 0, 5, 5, 1, 0.045000
5, 0, 3, 1, 1, 0.043000
5, 0, 2, 0, 1, 0.033000
5, 0, 2, 0, 1, 0.035000
5, 0, 1, 3, 1, 0.041000
5, 0, 3, 3, 1, 0.050000
5, 0, 0, 5, 1, 0.032000
5, 0, 3, 5, 1, 0.035000
5, 0, 4, 1, 1, 0.048000
5, 0, 0, 1, 1, 0.029000
5, 0, 1, 0, 1, 0.028000
5, 0, 2, 1, 1, 0.052000
5, 0, 3, 4, 1, 0.033000
5, 0, 5, 4, 1, 0.040000
5, 0, 2, 2, 1, 0.043000
5, 0, 5, 3, 1, 0.033000
5, 0, 5, 5, 1, 0.034000
5, 0, 1, 1, 1, 0.044000
5, 0, 5, 1, 1, 0.028000
5, 0, 5, 5, 1, 0.030000
5, 0, 5, 2, 1, 0.045000
5, 0, 1, 4, 1, 0.049000
5, 0, 4, 3, 1, 0.041000
5, 0, 1, 0, 1, 0.050000
5, 0, 5, 2, 1, 0.039000
5, 0, 4, 0, 1, 0.047000
5, 0, 4, 4, 1, 0.030000
5, 0, 1, 3, 1, 0.042000
5, 0, 5, 4, 1, 0.051000
5, 0, 3, 1, 1, 0.029000
5, 0, 5, 4, 1, 0.052000
5, 0, 0, 3, 1, 0.042000
5, 0, 4, 0, 1, 0.045000
5, 0, 2, 4, 1, 0.054000
5, 0, 4, 1, 1, 0.055000
5, 0, 2, 3, 1, 0.039000
5, 0, 4, 2, 1, 0.044000
5, 0, 4, 3, 1, 0.052000
5, 0, 2, 0, 1, 0.040000
0, 1, 4, 1, 1, 0.033000
0, 1, 4, 3, 1, 0.041000
0, 1, 2, 1, 1, 0.048000
0, 1, 0, 3, 1, 0.053000
0, 1, 0, 3, 1, 0.038000
0, 1, 3, 1, 1, 0.044000
0, 1, 1, 4, 1, 0.033000
0, 1, 1, 2, 1, 0.038000
0, 1, 5, 5, 1, 0.029000
0, 1, 0, 2, 1, 0.048000
0, 1, 5, 5, 1, 0.036000
0, 1, 5, 3, 1, 0.051000
0, 1, 3, 1, 1, 0.028000
0, 1, 4, 0, 1, 0.046000
0, 1, 4, 5, 1, 0.041000
0, 1, 4, 4, 1, 0.033000
0, 1, 4, 4, 1, 0.040000
0, 1, 3, 5, 1, 0.039000
0, 1, 0, 5, 1, 0.055000
0, 1, 4, 1, 1, 0.047000
0, 1, 4, 1, 1, 0.034000
0, 1, 0, 5, 1, 0.047000
0, 1, 0, 3, 1, 0.038000
0, 1, 3, 0, 1, 0.050000
0, 1, 0, 4, 1, 0.049000
0, 1, 3, 3, 1, 0.045000
0, 1, 4, 5, 1, 0.032000
0, 1, 3, 3, 1, 0.038000
0, 1, 0, 4, 1, 0.032000
0, 1, 5, 1, 1, 0.032000
0, 1, 3, 5, 1, 0.051000
0, 1, 5, 2, 1, 0.029000
0, 1, 0, 2, 1, 0.031000
0, 1, 2, 2, 1, 0.033000
0, 1, 3, 2, 1, 0.046000
0, 1, 1, 3, 1, 0.054000
0, 1, 4, 4, 1, 0.051000
0, 1, 2, 4, 1, 0.039000
0, 1, 4, 3, 1, 0.056000
0, 1, 5, 4, 1, 0.047000
0, 1, 5, 2, 1, 0.037000
0, 1, 5, 5, 1, 0.042000
0, 1, 5, 1, 1, 0.029000
0, 1, 5, 5, 1, 0.032000
0, 1, 2, 3, 1, 0.038000
0, 1, 0, 5, 1, 0.034000
0, 1, 0, 2, 1, 0.032000
0, 1, 2, 2, 1, 0.033000
0, 1, 4, 5, 1, 0.037000
0, 1, 0, 4, 1, 0.041000
0, 1, 4, 2, 1, 0.041000
0, 1, 0, 5, 1, 0.051000
0, 1, 4, 1, 1, 0.054000
0, 1, 3, 4, 1, 0.033000
0, 1, 5, 0, 1, 0.031000
0, 1, 0, 4, 1, 0.052000
0, 1, 1, 2, 1, 0.031000
0, 1, 0, 5, 1, 0.043000
0, 1, 1, 0, 1, 0.043000
1, 1, 5, 3, 1, 0.039000
1, 1, 4, 0, 1, 0.052000
1, 1, 1, 4, 1, 0.047000
1, 1, 2, 4, 1, 0.030000
1, 1, 5, 0, 1, 0.055000
1, 1, 5, 0, 1, 0.050000
1, 1, 2, 0, 1, 0.033000
1, 1, 0, 3, 1, 0.052000
1, 1, 1, 2, 1, 0.040000
1, 1, 1, 2, 1, 0.055000
1, 1, 5, 1, 1, 0.030000
1, 1, 1, 2, 1, 0.028000
1, 1, 3, 0, 1, 0.036000
1, 1, 5, 4, 1, 0.055000
1, 1, 3, 1, 1, 0.052000
1, 1, 5, 1, 1, 0.029000
1, 1, 3, 2, 1, 0.046000
1, 1, 1, 5, 1, 0.045000
1, 1, 2, 1, 1, 0.043000
1, 1, 5, 5, 1, 0.030000
1, 1, 5, 2, 1, 0.038000
1, 1, 1, 4, 1, 0.029000
1, 1, 3, 2, 1, 0.034000
1, 1, 2, 4, 1, 0.030000
1, 1, 4, 2, 1, 0.030000
1, 1, 5, 4, 1, 0.034000
1, 1, 3, 0, 1, 0.051000
1, 1, 5, 1, 1, 0.048000
1, 1, 3, 1, 1, 0.047000
1, 1, 1, 4, 1, 0.053000
1, 1, 3, 3, 1, 0.047000
1, 1, 3, 4, 1, 0.050000
1, 1, 4, 2, 1, 0.049000
1, 1, 0, 2, 1, 0.053000
1, 1, 2, 1, 1, 0.049000
1, 1, 2, 5, 1, 0.043000
1, 1, 4, 5, 1, 0.033000
1, 1, 2, 0, 1, 0.042000
1, 1, 2, 5, 1, 0.044000
1, 1, 4, 0, 1, 0.054000
1, 1, 4, 5, 1, 0.054000
1, 1, 4, 3, 1, 0.044000
1, 1, 5, 3, 1, 0.046000
2, 1, 3, 5, 1, 0.039000
2, 1, 3, 3, 1, 0.048000
2, 1, 5, 0, 1, 0.041000
2, 1, 2, 3, 1, 0.053000
2, 1, 3, 0, 1, 0.041000
2, 1, 0, 0, 1, 0.045000
2, 1, 1, 3, 1, 0.041000
2, 1, 4, 2, 1, 0.032000
2, 1, 0, 4, 1, 0.051000
2, 1, 1, 2, 1, 0.031000
2, 1, 0, 1, 1, 0.051000
2, 1, 3, 1, 1, 0.050000
2, 1, 0, 5, 1, 0.029000
2, 1, 1, 5, 1, 0.038000
2, 1, 4, 4, 1, 0.048000
2, 1, 4, 3, 1, 0.039000
2, 1, 0, 4, 1, 0.044000
2, 1, 1, 1, 1, 0.054000
2, 1, 3, 3, 1, 0.035000
2, 1, 2, 2, 1, 0.041000
2, 1, 1, 1, 1, 0.037000
2, 1, 4, 1, 1, 0.029000
2, 1, 3, 1, 1, 0.042000
2, 1, 5, 5, 1, 0.045000
3, 1, 4, 0, 1, 0.033000
3, 1, 4, 5, 1, 0.035000
3, 1, 5, 4, 1, 0.045000
3, 1, 0, 1, 1, 0.038000
3, 1, 2, 2, 1, 0.029000
3, 1, 4, 1, 1, 0.039000
3, 1, 0, 1, 1, 0.030000
3, 1, 4, 0, 1, 0.037000
3, 1, 1, 5, 1, 0.029000
3, 1, 4, 4, 1, 0.048000
3, 1, 0, 1, 1, 0.038000
3, 1, 5, 3, 1, 0.029000
3, 1, 0, 0, 1, 0.047000
3, 1, 3, 4, 1, 0.035000
3, 1, 0, 1, 1, 0.048000
3, 1, 2, 5, 1, 0.046000
3, 1, 5, 1, 1, 0.051000
3, 1, 0, 0, 1, 0.035000
3, 1, 5, 5, 1, 0.055000
3, 1, 3, 4, 1, 0.030000
3, 1, 3, 2, 1, 0.043000
3, 1, 4, 5, 1, 0.040000
3, 1, 1, 5, 1, 0.049000
3, 1, 3, 2, 1, 0.036000
3, 1, 0, 1, 1, 0.055000
3, 1, 2, 1, 1, 0.043000
3, 1, 3, 5, 1, 0.052000
3, 1, 1, 4, 1, 0.033000
3, 1, 0, 2, 1, 0.041000
3, 1, 3, 0, 1, 0.037000
3, 1, 1, 3, 1, 0.028000
3, 1, 4, 3, 1, 0.050000
3, 1, 3, 3, 1, 0.055000
3, 1, 4, 2, 1, 0.028000
3, 1, 0, 3, 1, 0.037000
3, 1, 3, 4, 1, 0.040000
3, 1, 4, 4, 1, 0.037000
3, 1, 5, 3, 1, 0.041000
3, 1, 3, 5, 1, 0.037000
3, 1, 5, 2, 1, 0.048000
3, 1, 2, 1, 1, 0.046000
3, 1, 5, 1, 1, 0.034000
3, 1, 1, 3, 1, 0.050000
3, 1, 3, 3, 1, 0.044000
3, 1, 0, 0, 1, 0.035000
3, 1, 1, 1, 1, 0.034000
3, 1, 1, 4, 1, 0.049000
3, 1, 3, 5, 1, 0.030000
3, 1, 4, 4, 1, 0.054000
3, 1, 1, 3, 1, 0.051000
3, 1, 2, 3, 1, 0.047000
3, 1, 5, 2, 1, 0.028000
3, 1, 4, 1, 1, 0.043000
3, 1, 4, 3, 1, 0.042000
3, 1, 1, 3, 1, 0.054000
3, 1, 4, 0, 1, 0.049000
3, 1, 4, 2, 1, 0.033000
3, 1, 0, 0, 1, 0.045000
3, 1, 3, 5, 1, 0.029000
4, 1, 0, 4, 1, 0.054000
4, 1, 0, 4, 1, 0.030000
4, 1, 3, 2, 1, 0.034000
4, 1, 3, 1, 1, 0.031000
4, 1, 2, 1, 1, 0.043000
4, 1, 0, 1, 1, 0.048000
4, 1, 4, 4, 1, 0.035000
4, 1, 1, 5, 1, 0.049000
4, 1, 5, 5, 1, 0.038000
5, 1, 1, 3, 1, 0.035000
5, 1, 2, 1, 1, 0.047000
5, 1, 1, 3, 1, 0.032000
5, 1, 3, 3, 1, 0.031000
5, 1, 5, 4, 1, 0.029000
5, 1, 5, 3, 1, 0.035000
5, 1, 0, 1, 1, 0.054000
5, 1, 1, 4, 1, 0.032000
5, 1, 5, 0, 1, 0.028000
5, 1, 0, 1, 1, 0.055000
5, 1, 5, 2, 1, 0.029000
5, 1, 5, 3, 1, 0.045000
5, 1, 4, 3, 1, 0.045000
5, 1, 2, 1, 1, 0.050000
5, 1, 4, 4, 1, 0.028000
5, 1, 3, 2, 1, 0.046000
5, 1, 2, 3, 1, 0.040000
5, 1, 4, 0, 1, 0.044000
5, 1, 4, 1, 1, 0.050000
5, 1, 3, 4, 1, 0.035000
5, 1, 0, 1, 1, 0.055000
5, 1, 5, 0, 1, 0.040000
5, 1, 2, 2, 1, 0.052000
5, 1, 0, 2, 1, 0.050000
5, 1, 1, 2, 1, 0.030000
5, 1, 2, 3, 1, 0.041000
5, 1, 3, 2, 1, 0.049000
5, 1, 3, 1, 1, 0.039000
5, 1, 4, 3, 1, 0.052000
5, 1, 1, 0, 1, 0.033000
5, 1, 3, 5, 1, 0.042000
5, 1, 3, 1, 1, 0.042000
5, 1, 3, 5, 1, 0.042000
5, 1, 5, 2, 1, 0.049000
5, 1, 0, 1, 1, 0.029000
5, 1, 1, 1, 1, 0.047000
5, 1, 4, 1, 1, 0.050000
5, 1, 2, 2, 1, 0.037000
5, 1, 3, 3, 1, 0.038000
5, 1, 3, 0, 1, 0.040000
5, 1, 4, 1, 1, 0.053000
5, 1, 0, 2, 1, 0.030000
5, 1, 1, 1, 1, 0.046000
5, 1, 2, 1, 1, 0.039000
5, 1, 0, 1, 1, 0.049000
5, 1, 1, 3, 1, 0.032000
5, 1, 5, 0, 1, 0.031000
5, 1, 4, 1, 1, 0.043000
5, 1, 3, 3, 1, 0.048000
5, 1, 1, 1, 1, 0.048000
5, 1, 3, 1, 1, 0.040000
0, 2, 1, 5, 1, 0.032000
0, 2, 0, 1, 1, 0.028000
0, 2, 3, 5, 1, 0.032000
0, 2, 0, 3, 1, 0.041000
0, 2, 5, 5, 1, 0.031000
0, 2, 5, 0, 1, 0.047000
0, 2, 1, 5, 1, 0.047000
0, 2, 4, 0, 1, 0.047000
0, 2, 3, 3, 1, 0.044000
0, 2, 0, 3, 1, 0.046000
0, 2, 0, 4, 1, 0.029000
0, 2, 1, 5, 1, 0.055000
0, 2, 3, 2, 1, 0.051000
0, 2, 3, 3, 1, 0.047000
0, 2, 5, 0, 1, 0.042000
0, 2, 0, 1, 1, 0.029000
0, 2, 2, 2, 1, 0.029000
0, 2, 5, 3, 1, 0.053000
0, 2, 0, 3, 1, 0.041000
0, 2, 3, 2, 1, 0.039000
0, 2, 2, 5, 1, 0.050000
0, 2, 5, 3, 1, 0.042000
0, 2, 0, 4, 1, 0.034000
0, 2, 0, 0, 1, 0.052000
0, 2, 0, 0, 1, 0.044000
0, 2, 3, 2, 1, 0.043000
0, 2, 5, 0, 1, 0.042000
0, 2, 4, 4, 1, 0.048000
0, 2, 2, 5, 1, 0.031000
0, 2, 3, 3, 1, 0.044000
0, 2, 1, 5, 1, 0.034000
0, 2, 0, 3, 1, 0.028000
0, 2, 0, 4, 1, 0.051000
0, 2, 2, 0, 1, 0.046000
0, 2, 4, 2, 1, 0.031000
0, 2, 4, 4, 1, 0.055000
0, 2, 4, 2, 1, 0.029000
0, 2, 1, 5, 1, 0.038000
0, 2, 2, 2, 1, 0.029000
0, 2, 2, 2, 1, 0.054000
0, 2, 3, 2, 1, 0.047000
0, 2, 5, 0, 1, 0.051000
0, 2, 2, 1, 1, 0.054000
0, 2, 0, 3, 1, 0.033000
0, 2, 3, 2, 1, 0.050000
0, 2, 0, 0, 1, 0.028000
0, 2, 2, 2, 1, 0.044000
0, 2, 4, 3, 1, 0.051000
0, 2, 4, 2, 1, 0.030000
0, 2, 5, 2, 1, 0.036000
0, 2, 0, 5, 1, 0.034000
0, 2, 1, 1, 1, 0.037000
0, 2, 0, 5, 1, 0.036000
0, 2, 5, 3, 1, 0.044000
0, 2, 1, 1, 1, 0.031000
0, 2, 0, 0, 1, 0.032000
0, 2, 0, 3, 1, 0.045000
0, 2, 3, 2, 1, 0.028000
0, 2, 1, 1, 1, 0.051000
0, 2, 4, 3, 1, 0.034000
0, 2, 3, 5, 1, 0.035000
0, 2, 1, 0, 1, 0.052000
0, 2, 1, 4, 1, 0.043000
0, 2, 2, 1, 1, 0.038000
0, 2, 3, 2, 1, 0.051000
0, 2, 5, 4, 1, 0.043000
0, 2, 0, 3, 1, 0.036000
0, 2, 0, 5, 1, 0.030000
0, 2, 2, 3, 1, 0.051000
0, 2, 5, 5, 1, 0.038000
1, 2, 5, 1, 1, 0.039000
1, 2, 3, 3, 1, 0.028000
1, 2, 0, 5, 1, 0.045000
1, 2, 5, 2, 1, 0.037000
1, 2, 2, 5, 1, 0.038000
1, 2, 1, 3, 1, 0.051000
1, 2, 2, 5, 1, 0.055000
1, 2, 1, 1, 1, 0.047000
1, 2, 5, 2, 1, 0.040000
1, 2, 0, 0, 1, 0.042000
1, 2, 1, 4, 1, 0.038000
1, 2, 1, 5, 1, 0.053000
1, 2, 5, 4, 1, 0.055000
1, 2, 1, 3, 1, 0.046000
1, 2, 4, 1, 1, 0.044000
1, 2, 1, 1, 1, 0.049000
1, 2, 0, 2, 1, 0.049000
1, 2, 1, 5, 1, 0.041000
1, 2, 1, 0, 1, 0.042000
1, 2, 5, 3, 1, 0.040000
1, 2, 4, 0, 1, 0.029000
1, 2, 1, 3, 1, 0.033000
1, 2, 4, 4, 1, 0.045000
1, 2, 5, 2, 1, 0.045000
1, 2, 1, 3, 1, 0.036000
2, 2, 4, 4, 1, 0.045000
2, 2, 4, 3, 1, 0.031000
2, 2, 3, 4, 1, 0.054000
2, 2, 5, 5, 1, 0.044000
2, 2, 5, 0, 1, 0.050000
2, 2, 0, 4, 1, 0.044000
2, 2, 1, 4, 1, 0.047000
2, 2, 4, 0, 1, 0.034000
2, 2, 5, 2, 1, 0.030000
2, 2, 0, 2, 1, 0.033000
2, 2, 2, 5, 1, 0.044000
2, 2, 2, 1, 1, 0.034000
2, 2, 4, 0, 1, 0.032000
2, 2, 5, 2, 1, 0.042000
2, 2, 5, 2, 1, 0.053000
2, 2, 5, 2, 1, 0.050000
2, 2, 5, 3, 1, 0.055000
2, 2, 0, 3, 1, 0.044000
2, 2, 5, 2, 1, 0.039000
2, 2, 2, 3, 1, 0.037000
2, 2, 2, 4, 1, 0.040000
2, 2, 5, 2, 1, 0.030000
2, 2, 5, 3, 1, 0.028000
2, 2, 2, 1, 1, 0.033000
2, 2, 1, 2, 1, 0.043000
2, 2, 3, 3, 1, 0.036000
2, 2, 2, 1, 1, 0.047000
2, 2, 3, 4, 1, 0.054000
2, 2, 5, 4, 1, 0.053000
2, 2, 4, 1, 1, 0.030000
2, 2, 1, 3, 1, 0.049000
2, 2, 4, 3, 1, 0.045000
2, 2, 3, 2, 1, 0.030000
2, 2, 4, 1, 1, 0.028000
2, 2, 0, 0, 1, 0.054000
2, 2, 1, 3, 1, 0.033000
2, 2, 1, 4, 1, 0.033000
2, 2, 2, 4, 1, 0.041000
2, 2, 3, 2, 1, 0.053000
2, 2, 4, 1, 1, 0.037000
2, 2, 3, 2, 1, 0.044000
2, 2, 0, 1, 1, 0.039000
2, 2, 0, 3, 1, 0.048000
2, 2, 1, 5, 1, 0.052000
2, 2, 1, 3, 1, 0.046000
2, 2, 3, 2, 1, 0.033000
2, 2, 1, 3, 1, 0.053000
2, 2, 1, 1, 1, 0.029000
2, 2, 2, 3, 1, 0.031000
3, 2, 2, 2, 1, 0.044000
3, 2, 1, 4, 1, 0.054000
3, 2, 4, 1, 1, 0.035000
3, 2, 2, 5, 1, 0.038000
3, 2, 4, 3, 1, 0.045000
3, 2, 0, 5, 1, 0.034000
3, 2, 2, 4, 1, 0.032000
3, 2, 3, 3, 1, 0.036000
3, 2, 2, 0, 1, 0.040000
3, 2, 5, 3, 1, 0.036000
3, 2, 4, 4, 1, 0.039000
3, 2, 2, 3, 1, 0.045000
3, 2, 3, 5, 1, 0.029000
3, 2, 4, 3, 1, 0.041000
3, 2, 3, 4, 1, 0.055000
3, 2, 2, 1, 1, 0.055000
3, 2, 1, 3, 1, 0.041000
3, 2, 1, 2, 1, 0.051000
3, 2, 1, 3, 1, 0.031000
3, 2, 2, 4, 1, 0.037000
3, 2, 0, 3, 1, 0.052000
3, 2, 3, 3, 1, 0.030000
3, 2, 1, 1, 1, 0.035000
3, 2, 3, 5, 1, 0.042000
3, 2, 5, 0, 1, 0.037000
3, 2, 2, 5, 1, 0.029000
3, 2, 0, 4, 1, 0.044000
3, 2, 2, 4, 1, 0.037000
3, 2, 2, 3, 1, 0.035000
3, 2, 2, 4, 1, 0.040000
3, 2, 0, 2, 1, 0.040000
3, 2, 0, 0, 1, 0.043000
3, 2, 0, 4, 1, 0.028000
3, 2, 3, 3, 1, 0.037000
3, 2, 3, 4, 1, 0.033000
3, 2, 4, 2, 1, 0.038000
3, 2, 4, 2, 1, 0.039000
3, 2, 2, 5, 1, 0.032000
3, 2, 5, 0, 1, 0.036000
3, 2, 2, 0, 1, 0.053000
3, 2, 1, 5, 1, 0.028000
3, 2, 5, 4, 1, 0.049000
3, 2, 1, 2, 1, 0.054000
3, 2, 0, 1, 1, 0.036000
3, 2, 5, 0, 1, 0.039000
3, 2, 3, 1, 1, 0.051000
3, 2, 1, 4, 1, 0.030000
3, 2, 2, 5, 1, 0.033000
3, 2, 0, 2, 1, 0.055000
3, 2, 1, 2, 1, 0.035000
3, 2, 2, 2, 1, 0.051000
3, 2, 4, 2, 1, 0.042000
3, 2, 3, 4, 1, 0.029000
3, 2, 2, 1, 1, 0.038000
3, 2, 0, 5, 1, 0.050000
3, 2, 5, 1, 1, 0.033000
3, 2, 1, 1, 1, 0.054000
3, 2, 1, 0, 1, 0.030000
3, 2, 0, 2, 1, 0.053000
3, 2, 5, 3, 1, 0.047000
3, 2, 5, 2, 1, 0.039000
3, 2, 3, 4, 1, 0.030000
3, 2, 0, 5, 1, 0.046000
3, 2, 1, 1, 1, 0.052000
3, 2, 3, 5, 1, 0.047000
3, 2, 0, 1, 1, 0.044000
3, 2, 0, 0, 1, 0.037000
3, 2, 0, 1, 1, 0.052000
3, 2, 3, 1, 1, 0.029000
3, 2, 2, 5, 1, 0.055000
3, 2, 4, 3, 1, 0.055000
3, 2, 3, 1, 1, 0.030000
3, 2, 0, 4, 1, 0.030000
3, 2, 0, 4, 1, 0.037000
3, 2, 2, 1, 1, 0.053000
3, 2, 4, 2, 1, 0.031000
3, 2, 5, 5, 1, 0.040000
3, 2, 0, 0, 1, 0.033000
3, 2, 1, 2, 1, 0.030000
3, 2, 3, 0, 1, 0.045000
3, 2, 3, 3, 1, 0.043000
3, 2, 5, 2, 1, 0.033000
3, 2, 5, 2, 1, 0.046000
3, 2, 5, 1, 1, 0.048000
3, 2, 4, 5, 1, 0.053000
3, 2, 0, 3, 1, 0.040000
3, 2, 0, 2, 1, 0.046000
3, 2, 0, 0, 1, 0.046000
3, 2, 3, 5, 1, 0.029000
3, 2, 3, 1, 1, 0.055000
3, 2, 1, 1, 1, 0.039000
3, 2, 0, 0, 1, 0.044000
3, 2, 2, 0, 1, 0.050000
3, 2, 0, 4, 1, 0.047000
4, 2, 2, 2, 1, 0.039000
4, 2, 2, 2, 1, 0.033000
4, 2, 5, 0, 1, 0.053000
4, 2, 0, 2, 1, 0.050000
4, 2, 4, 3, 1, 0.048000
4, 2, 5, 4, 1, 0.039000
4, 2, 1, 3, 1, 0.046000
5, 2, 4, 2, 1, 0.032000
5, 2, 3, 5, 1, 0.045000
5, 2, 4, 3, 1, 0.028000
5, 2, 0, 2, 1, 0.048000
5, 2, 2, 3, 1, 0.045000
5, 2, 3, 1, 1, 0.032000
5, 2, 5, 4, 1, 0.044000
5, 2, 5, 0, 1, 0.053000
5, 2, 5, 0, 1, 0.055000
5, 2, 4, 5, 1, 0.043000
5, 2, 2, 0, 1, 0.050000
5, 2, 4, 1, 1, 0.032000
5, 2, 4, 5, 1, 0.053000
5, 2, 2, 2, 1, 0.036000
5, 2, 3, 2, 1, 0.029000
5, 2, 5, 0, 1, 0.039000
5, 2, 3, 2, 1, 0.036000
5, 2, 2, 2, 1, 0.046000
5, 2, 5, 4, 1, 0.052000
5, 2, 1, 1, 1, 0.046000
5, 2, 5, 3, 1, 0.028000
5, 2, 0, 5, 1, 0.034000
5, 2, 1, 2, 1, 0.032000
5, 2, 5, 5, 1, 0.039000
5, 2, 5, 0, 1, 0.046000
5, 2, 5, 4, 1, 0.042000
5, 2, 3, 3, 1, 0.047000
5, 2, 1, 3, 1, 0.039000
5, 2, 5, 4, 1, 0.050000
5, 2, 2, 1, 1, 0.039000
5, 2, 1, 3, 1, 0.035000
5, 2, 4, 3, 1, 0.052000
5, 2, 2, 2, 1, 0.049000
5, 2, 5, 0, 1, 0.048000
5, 2, 1, 5, 1, 0.036000
5, 2, 4, 0, 1, 0.028000
5, 2, 3, 3, 1, 0.029000
5, 2, 2, 4, 1, 0.040000
5, 2, 1, 4, 1, 0.050000
5, 2, 1, 2, 1, 0.051000
5, 2, 5, 3, 1, 0.040000
5, 2, 0, 0, 1, 0.054000
5, 2, 1, 2, 1, 0.052000
5, 2, 2, 2, 1, 0.052000
5, 2, 0, 3, 1, 0.038000
5, 2, 5, 1, 1, 0.041000
5, 2, 3, 0, 1, 0.029000
5, 2, 0, 2, 1, 0.050000
5, 2, 5, 0, 1, 0.032000
5, 2, 1, 4, 1, 0.029000
5, 2, 0, 0, 1, 0.036000
5, 2, 3, 2, 1, 0.035000
5, 2, 5, 3, 1, 0.041000
5, 2, 4, 5, 1, 0.044000
5, 2, 5, 5, 1, 0.035000
5, 2, 5, 4, 1, 0.047000
5, 2, 5, 5, 1, 0.031000
5, 2, 1, 0, 1, 0.035000
5, 2, 4, 4, 1, 0.031000
5, 2, 1, 5, 1, 0.043000
5, 2, 5, 3, 1, 0.029000
5, 2, 1, 4, 1, 0.056000
5, 2, 1, 2, 1, 0.048000
5, 2, 2, 2, 1, 0.030000
5, 2, 2, 4, 1, 0.030000
5, 2, 3, 5, 1, 0.041000
5, 2, 1, 3, 1, 0.052000
5, 2, 1, 0, 1, 0.035000
5, 2, 5, 4, 1, 0.053000
5, 2, 3, 1, 1, 0.052000
5, 2, 3, 5, 1, 0.029000
5, 2, 1, 2, 1, 0.054000
5, 2, 2, 2, 1, 0.054000
5, 2, 0, 2, 1, 0.038000
5, 2, 0, 2, 1, 0.041000
5, 2, 2, 1, 1, 0.042000
5, 2, 5, 3, 1, 0.042000
5, 2, 3, 4, 1, 0.037000
0, 3, 0, 0, 1, 0.039000
0, 3, 0, 4, 1, 0.050000
0, 3, 5, 2, 1, 0.051000
0, 3, 3, 3, 1, 0.055000
0, 3, 2, 2, 1, 0.047000
0, 3, 2, 3, 1, 0.049000
0, 3, 2, 3, 1, 0.040000
0, 3, 5, 4, 1, 0.035000
0, 3, 4, 2, 1, 0.037000
0, 3, 0, 1, 1, 0.052000
0, 3, 0, 5, 1, 0.031000
0, 3, 1, 4, 1, 0.044000
0, 3, 1, 3, 1, 0.030000
0, 3, 1, 3, 1, 0.052000
0, 3, 0, 0, 1, 0.030000
0, 3, 0, 5, 1, 0.035000
0, 3, 2, 3, 1, 0.038000
0, 3, 0, 1, 1, 0.054000
0, 3, 0, 1, 1, 0.028000
0, 3, 2, 2, 1, 0.046000
0, 3, 0, 5, 1, 0.040000
0, 3, 5, 3, 1, 0.048000
0, 3, 4, 2, 1, 0.045000
0, 3, 0, 1, 1, 0.048000
0, 3, 4, 4, 1, 0.042000
0, 3, 1, 2, 1, 0.037000
0, 3, 2, 5, 1, 0.052000
0, 3, 1, 1, 1, 0.050000
0, 3, 0, 1, 1, 0.037000
0, 3, 2, 5, 1, 0.050000
0, 3, 3, 2, 1, 0.039000
0, 3, 3, 5, 1, 0.029000
0, 3, 0, 0, 1, 0.043000
0, 3, 0, 4, 1, 0.050000
0, 3, 3, 1, 1, 0.043000
0, 3, 0, 2, 1, 0.048000
0, 3, 4, 3, 1, 0.051000
0, 3, 0, 1, 1, 0.035000
0, 3, 1, 4, 1, 0.030000
0, 3, 0, 1, 1, 0.050000
0, 3, 3, 2, 1, 0.051000
0, 3, 3, 3, 1, 0.055000
0, 3, 2, 3, 1, 0.048000
0, 3, 0, 2, 1, 0.039000
0, 3, 1, 3, 1, 0.044000
0, 3, 4, 5, 1, 0.047000
0, 3, 0, 1, 1, 0.038000
0, 3, 2, 3, 1, 0.050000
0, 3, 2, 3, 1, 0.029000
0, 3, 1, 1, 1, 0.035000
0, 3, 0, 2, 1, 0.051000
0, 3, 0, 2, 1, 0.049000
0, 3, 2, 2, 1, 0.040000
0, 3, 4, 5, 1, 0.044000
0, 3, 2, 0, 1, 0.037000
1, 3, 1, 2, 1, 0.037000
1, 3, 5, 4, 1, 0.040000
1, 3, 1, 4, 1, 0.051000
1, 3, 0, 3, 1, 0.029000
1, 3, 5, 3, 1, 0.047000
1, 3, 3, 3, 1, 0.044000
1, 3, 2, 4, 1, 0.030000
1, 3, 5, 1, 1, 0.029000
1, 3, 4, 0, 1, 0.029000
1, 3, 1, 4, 1, 0.031000
1, 3, 0, 3, 1, 0.041000
1, 3, 2, 0, 1, 0.051000
1, 3, 1, 5, 1, 0.051000
1, 3, 1, 2, 1, 0.032000
1, 3, 3, 3, 1, 0.042000
1, 3, 1, 4, 1, 0.055000
1, 3, 0, 4, 1, 0.034000
1, 3, 5, 0, 1, 0.036000
1, 3, 4, 4, 1, 0.042000
1, 3, 0, 3, 1, 0.029000
1, 3, 0, 4, 1, 0.029000
1, 3, 4, 2, 1, 0.035000
1, 3, 5, 3, 1, 0.039000
1, 3, 3, 2, 1, 0.038000
1, 3, 3, 4, 1, 0.032000
1, 3, 1, 0, 1, 0.050000
1, 3, 5, 3, 1, 0.047000
1, 3, 2, 5, 1, 0.050000
1, 3, 2, 3, 1, 0.029000
1, 3, 2, 3, 1, 0.037000
1, 3, 1, 1, 1, 0.053000
1, 3, 1, 4, 1, 0.047000
1, 3, 3, 3, 1, 0.047000
1, 3, 2, 0, 1, 0.039000
1, 3, 0, 1, 1, 0.050000
1, 3, 4, 4, 1, 0.029000
1, 3, 1, 0, 1, 0.032000
1, 3, 0, 5, 1, 0.045000
1, 3, 5, 2, 1, 0.039000
1, 3, 0, 3, 1, 0.037000
1, 3, 1, 2, 1, 0.053000
1, 3, 3, 2, 1, 0.040000
1, 3, 2, 3, 1, 0.052000
1, 3, 2, 1, 1, 0.046000
1, 3, 3, 0, 1, 0.054000
1, 3, 2, 5, 1, 0.033000
1, 3, 4, 2, 1, 0.034000
1, 3, 1, 0, 1, 0.051000
1, 3, 2, 3, 1, 0.035000
1, 3, 3, 1, 1, 0.052000
1, 3, 0, 3, 1, 0.036000
1, 3, 3, 4, 1, 0.038000
1, 3, 5, 5, 1, 0.046000
1, 3, 0, 3, 1, 0.052000
1, 3, 5, 3, 1, 0.030000
1, 3, 4, 0, 1, 0.048000
1, 3, 3, 1, 1, 0.042000
1, 3, 1, 5, 1, 0.044000
1, 3, 2, 3, 1, 0.052000
1, 3, 0, 4, 1, 0.028000
1, 3, 1, 1, 1, 0.038000
1, 3, 1, 0, 1, 0.031000
1, 3, 3, 2, 1, 0.055000
1, 3, 1, 2, 1, 0.036000
1, 3, 1, 5, 1, 0.046000
1, 3, 2, 4, 1, 0.047000
1, 3, 3, 3, 1, 0.045000
1, 3, 2, 3, 1, 0.041000
1, 3, 2, 1, 1, 0.044000
1, 3, 4, 0, 1, 0.041000
1, 3, 3, 3, 1, 0.050000
1, 3, 1, 4, 1, 0.043000
1, 3, 4, 4, 1, 0.034000
1, 3, 2, 3, 1, 0.052000
1, 3, 5, 3, 1, 0.041000
1, 3, 1, 0, 1, 0.043000
1, 3, 2, 1, 1, 0.031000
2, 3, 2, 0, 1, 0.055000
2, 3, 4, 2, 1, 0.036000
2, 3, 1, 5, 1, 0.030000
2, 3, 2, 5, 1, 0.035000
2, 3, 0, 3, 1, 0.037000
2, 3, 1, 3, 1, 0.039000
2, 3, 4, 2, 1, 0.053000
2, 3, 2, 0, 1, 0.031000
2, 3, 5, 2, 1, 0.040000
2, 3, 5, 3, 1, 0.045000
2, 3, 1, 4, 1, 0.044000
2, 3, 4, 0, 1, 0.049000
2, 3, 0, 1, 1, 0.040000
2, 3, 1, 1, 1, 0.043000
2, 3, 4, 3, 1, 0.053000
2, 3, 2, 4, 1, 0.046000
2, 3, 3, 2, 1, 0.036000
2, 3, 0, 4, 1, 0.039000
2, 3, 2, 4, 1, 0.037000
2, 3, 3, 3, 1, 0.040000
2, 3, 2, 5, 1, 0.052000
2, 3, 2, 0, 1, 0.040000
2, 3, 2, 0, 1, 0.034000
2, 3, 2, 5, 1, 0.038000
2, 3, 1, 5, 1, 0.028000
2, 3, 2, 2, 1, 0.035000
2, 3, 0, 3, 1, 0.038000
2, 3, 4, 4, 1, 0.045000
2, 3, 5, 4, 1, 0.043000
2, 3, 2, 0, 1, 0.045000
2, 3, 2, 5, 1, 0.046000
2, 3, 0, 3, 1, 0.044000
2, 3, 0, 3, 1, 0.032000
2, 3, 5, 2, 1, 0.046000
2, 3, 2, 2, 1, 0.051000
2, 3, 5, 1, 1, 0.054000
2, 3, 0, 3, 1, 0.053000
2, 3, 4, 2, 1, 0.047000
2, 3, 1, 2, 1, 0.028000
2, 3, 3, 3, 1, 0.047000
2, 3, 4, 2, 1, 0.036000
2, 3, 1, 5, 1, 0.042000
2, 3, 2, 4, 1, 0.038000
2, 3, 4, 3, 1, 0.054000
2, 3, 1, 3, 1, 0.053000
2, 3, 5, 0, 1, 0.036000
2, 3, 2, 4, 1, 0.046000
2, 3, 2, 5, 1, 0.031000
2, 3, 4, 1, 1, 0.052000
2, 3, 5, 1, 1, 0.051000
2, 3, 3, 3, 1, 0.043000
2, 3, 5, 5, 1, 0.033000
2, 3, 5, 0, 1, 0.029000
2, 3, 4, 1, 1, 0.045000
2, 3, 5, 1, 1, 0.039000
2, 3, 2, 0, 1, 0.052000
2, 3, 4, 4, 1, 0.031000
2, 3, 1, 5, 1, 0.051000
2, 3, 1, 4, 1, 0.034000
2, 3, 0, 4, 1, 0.054000
2, 3, 0, 5, 1, 0.048000
2, 3, 0, 5, 1, 0.045000
2, 3, 4, 4, 1, 0.043000
2, 3, 4, 3, 1, 0.038000
2, 3, 2, 1, 1, 0.029000
2, 3, 0, 1, 1, 0.028000
2, 3, 2, 1, 1, 0.045000
2, 3, 4, 2, 1, 0.055000
2, 3, 3, 2, 1, 0.030000
2, 3, 0, 5, 1, 0.053000
2, 3, 2, 1, 1, 0.039000
2, 3, 0, 5, 1, 0.034000
2, 3, 0, 3, 1, 0.050000
2, 3, 5, 5, 1, 0.031000
2, 3, 4, 4, 1, 0.051000
2, 3, 2, 0, 1, 0.047000
2, 3, 4, 4, 1, 0.029000
2, 3, 2, 5, 1, 0.047000
2, 3, 4, 4, 1, 0.036000
2, 3, 1, 3, 1, 0.028000
2, 3, 0, 0, 1, 0.029000
2, 3, 4, 4, 1, 0.030000
2, 3, 0, 4, 1, 0.052000
2, 3, 5, 3, 1, 0.045000
2, 3, 5, 4, 1, 0.039000
2, 3, 3, 2, 1, 0.053000
2, 3, 2, 1, 1, 0.039000
2, 3, 3, 0, 1, 0.030000
2, 3, 4, 3, 1, 0.042000
2, 3, 2, 0, 1, 0.042000
2, 3, 5, 2, 1, 0.049000
2, 3, 4, 4, 1, 0.032000
2, 3, 2, 4, 1, 0.050000
2, 3, 2, 4, 1, 0.054000
2, 3, 3, 4, 1, 0.028000
3, 3, 4, 3, 1, 0.052000
3, 3, 4, 3, 1, 0.044000
3, 3, 3, 2, 1, 0.042000
3, 3, 4, 5, 1, 0.037000
3, 3, 2, 3, 1, 0.046000
3, 3, 3, 0, 1, 0.043000
3, 3, 1, 5, 1, 0.042000
3, 3, 3, 5, 1, 0.055000
3, 3, 1, 0, 1, 0.045000
3, 3, 4, 4, 1, 0.054000
3, 3, 3, 4, 1, 0.033000
3, 3, 5, 3, 1, 0.038000
3, 3, 5, 1, 1, 0.037000
3, 3, 2, 5, 1, 0.049000
3, 3, 1, 4, 1, 0.053000
3, 3, 3, 2, 1, 0.041000
3, 3, 0, 4, 1, 0.045000
3, 3, 1, 4, 1, 0.031000
3, 3, 4, 3, 1, 0.050000
3, 3, 3, 1, 1, 0.052000
3, 3, 5, 0, 1, 0.037000
3, 3, 2, 3, 1, 0.049000
3, 3, 0, 3, 1, 0.043000
3, 3, 0, 3, 1, 0.032000
3, 3, 5, 0, 1, 0.042000
3, 3, 0, 1, 1, 0.045000
3, 3, 4, 3, 1, 0.038000
3, 3, 5, 1, 1, 0.039000
3, 3, 4, 3, 1, 0.054000
3, 3, 4, 1, 1, 0.053000
3, 3, 4, 2, 1, 0.056000
3, 3, 1, 3, 1, 0.028000
3, 3, 2, 4, 1, 0.031000
3, 3, 2, 0, 1, 0.037000
3, 3, 5, 4, 1, 0.048000
3, 3, 4, 3, 1, 0.043000
3, 3, 3, 0, 1, 0.052000
3, 3, 3, 0, 1, 0.033000
3, 3, 3, 0, 1, 0.033000
3, 3, 2, 2, 1, 0.050000
3, 3, 3, 0, 1, 0.053000
3, 3, 4, 0, 1, 0.036000
3, 3, 2, 0, 1, 0.054000
3, 3, 2, 3, 1, 0.050000
3, 3, 0, 2, 1, 0.029000
3, 3, 2, 3, 1, 0.049000
3, 3, 1, 0, 1, 0.054000
3, 3, 5, 2, 1, 0.055000
3, 3, 4, 5, 1, 0.045000
3, 3, 3, 5, 1, 0.035000
3, 3, 3, 1, 1, 0.039000
3, 3, 4, 4, 1, 0.043000
3, 3, 1, 1, 1, 0.034000
3, 3, 5, 3, 1, 0.052000
3, 3, 5, 0, 1, 0.041000
3, 3, 5, 3, 1, 0.036000
3, 3, 1, 0, 1, 0.042000
3, 3, 3, 4, 1, 0.042000
3, 3, 5, 0, 1, 0.036000
3, 3, 3, 1, 1, 0.028000
3, 3, 2, 4, 1, 0.045000
3, 3, 3, 1, 1, 0.049000
3, 3, 4, 4, 1, 0.035000
3, 3, 5, 1, 1, 0.034000
3, 3, 4, 3, 1, 0.043000
3, 3, 1, 0, 1, 0.034000
3, 3, 1, 3, 1, 0.040000
3, 3, 1, 5, 1, 0.054000
3, 3, 2, 0, 1, 0.049000
3, 3, 2, 4, 1, 0.055000
3, 3, 1, 3, 1, 0.048000
3, 3, 3, 1, 1, 0.041000
3, 3, 2, 3, 1, 0.035000
3, 3, 4, 5, 1, 0.050000
3, 3, 0, 5, 1, 0.031000
3, 3, 0, 1, 1, 0.028000
3, 3, 0, 3, 1, 0.050000
3, 3, 0, 2, 1, 0.049000
3, 3, 4, 1, 1, 0.033000
3, 3, 3, 4, 1, 0.037000
3, 3, 2, 4, 1, 0.039000
3, 3, 2, 1, 1, 0.041000
3, 3, 3, 1, 1, 0.031000
3, 3, 3, 5, 1, 0.046000
3, 3, 2, 3, 1, 0.050000
3, 3, 3, 0, 1, 0.050000
4, 3, 4, 1, 1, 0.038000
4, 3, 4, 1, 1, 0.040000
4, 3, 2, 3, 1, 0.032000
4, 3, 2, 2, 1, 0.052000
5, 3, 3, 3, 1, 0.030000
5, 3, 5, 0, 1, 0.050000
5, 3, 2, 0, 1, 0.039000
5, 3, 4, 1, 1, 0.032000
5, 3, 4, 3, 1, 0.049000
5, 3, 0, 3, 1, 0.040000
5, 3, 5, 5, 1, 0.045000
5, 3, 3, 4, 1, 0.036000
5, 3, 4, 4, 1, 0.035000
5, 3, 2, 2, 1, 0.035000
5, 3, 2, 5, 1, 0.043000
5, 3, 4, 2, 1, 0.040000
5, 3, 0, 0, 1, 0.033000
5, 3, 4, 3, 1, 0.037000
5, 3, 3, 0, 1, 0.047000
5, 3, 2, 1, 1, 0.036000
5, 3, 1, 3, 1, 0.033000
5, 3, 5, 2, 1, 0.035000
5, 3, 5, 5, 1, 0.040000
5, 3, 5, 5, 1, 0.049000
5, 3, 5, 4, 1, 0.045000
5, 3, 4, 4, 1, 0.041000
5, 3, 4, 0, 1, 0.034000
5, 3, 4, 3, 1, 0.037000
5, 3, 4, 3, 1, 0.042000
5, 3, 5, 5, 1, 0.055000
5, 3, 4, 4, 1, 0.032000
5, 3, 2, 3, 1, 0.044000
5, 3, 2, 2, 1, 0.035000
5, 3, 0, 3, 1, 0.033000
5, 3, 5, 4, 1, 0.049000
5, 3, 5, 0, 1, 0.038000
5, 3, 5, 4, 1, 0.036000
5, 3, 1, 4, 1, 0.044000
5, 3, 2, 4, 1, 0.047000
5, 3, 3, 3, 1, 0.043000
0, 4, 3, 1, 1, 0.043000
0, 4, 5, 2, 1, 0.039000
0, 4, 2, 2, 1, 0.054000
0, 4, 0, 5, 1, 0.034000
0, 4, 4, 5, 1, 0.044000
0, 4, 5, 4, 1, 0.038000
0, 4, 3, 4, 1, 0.043000
0, 4, 3, 3, 1, 0.045000
0, 4, 2, 2, 1, 0.043000
0, 4, 3, 4, 1, 0.056000
0, 4, 1, 0, 1, 0.053000
0, 4, 3, 4, 1, 0.042000
0, 4, 1, 0, 1, 0.033000
0, 4, 4, 5, 1, 0.040000
0, 4, 4, 2, 1, 0.050000
0, 4, 4, 4, 1, 0.043000
0, 4, 0, 5, 1, 0.037000
0, 4, 3, 5, 1, 0.050000
0, 4, 4, 0, 1, 0.043000
0, 4, 0, 1, 1, 0.035000
0, 4, 3, 2, 1, 0.053000
0, 4, 0, 1, 1, 0.038000
0, 4, 2, 1, 1, 0.035000
0, 4, 5, 3, 1, 0.054000
0, 4, 2, 4, 1, 0.031000
0, 4, 4, 5, 1, 0.034000
0, 4, 5, 4, 1, 0.052000
0, 4, 3, 0, 1, 0.049000
0, 4, 1, 4, 1, 0.033000
0, 4, 5, 5, 1, 0.052000
0, 4, 4, 4, 1, 0.036000
0, 4, 3, 4, 1, 0.047000
0, 4, 3, 3, 1, 0.054000
0, 4, 3, 3, 1, 0.046000
0, 4, 1, 0, 1, 0.045000
0, 4, 3, 4, 1, 0.053000
0, 4, 3, 0, 1, 0.049000
0, 4, 3, 1, 1, 0.040000
0, 4, 1, 3, 1, 0.032000
0, 4, 5, 4, 1, 0.032000
0, 4, 5, 1, 1, 0.051000
0, 4, 5, 1, 1, 0.044000
0, 4, 0, 5, 1, 0.048000
0, 4, 4, 0, 1, 0.045000
0, 4, 0, 2, 1, 0.055000
0, 4, 0, 3, 1, 0.039000
0, 4, 4, 4, 1, 0.041000
0, 4, 0, 3, 1, 0.029000
0, 4, 4, 5, 1, 0.034000
0, 4, 5, 3, 1, 0.036000
0, 4, 0, 0, 1, 0.029000
0, 4, 0, 5, 1, 0.040000
0, 4, 4, 4, 1, 0.031000
0, 4, 4, 3, 1, 0.037000
0, 4, 2, 3, 1, 0.043000
0, 4, 5, 2, 1, 0.037000
0, 4, 2, 2, 1, 0.052000
0, 4, 5, 2, 1, 0.039000
0, 4, 0, 3, 1, 0.029000
0, 4, 0, 5, 1, 0.051000
0, 4, 0, 3, 1, 0.051000
0, 4, 5, 1, 1, 0.030000
0, 4, 1, 1, 1, 0.036000
0, 4, 1, 2, 1, 0.039000
0, 4, 1, 0, 1, 0.051000
0, 4, 3, 4, 1, 0.054000
1, 4, 1, 1, 1, 0.052000
1, 4, 2, 4, 1, 0.029000
1, 4, 1, 1, 1, 0.050000
1, 4, 4, 4, 1, 0.041000
1, 4, 3, 3, 1, 0.053000
1, 4, 2, 4, 1, 0.040000
1, 4, 0, 2, 1, 0.029000
1, 4, 5, 1, 1, 0.038000
1, 4, 5, 4, 1, 0.047000
1, 4, 5, 2, 1, 0.049000
1, 4, 1, 3, 1, 0.033000
1, 4, 5, 4, 1, 0.052000
1, 4, 1, 1, 1, 0.044000
1, 4, 4, 2, 1, 0.037000
1, 4, 4, 4, 1, 0.040000
1, 4, 5, 2, 1, 0.030000
1, 4, 2, 0, 1, 0.049000
1, 4, 1, 0, 1, 0.030000
1, 4, 5, 3, 1, 0.054000
1, 4, 4, 5, 1, 0.031000
1, 4, 3, 4, 1, 0.047000
1, 4, 0, 0, 1, 0.043000
1, 4, 1, 5, 1, 0.053000
1, 4, 5, 2, 1, 0.040000
1, 4, 3, 4, 1, 0.030000
1, 4, 2, 4, 1, 0.047000
1, 4, 4, 0, 1, 0.042000
1, 4, 3, 1, 1, 0.034000
1, 4, 4, 4, 1, 0.046000
1, 4, 4, 1, 1, 0.036000
1, 4, 2, 1, 1, 0.050000
1, 4, 2, 4, 1, 0.032000
1, 4, 4, 3, 1, 0.037000
1, 4, 2, 3, 1, 0.038000
1, 4, 1, 5, 1, 0.051000
1, 4, 1, 1, 1, 0.034000
1, 4, 0, 3, 1, 0.050000
1, 4, 3, 5, 1, 0.033000
1, 4, 5, 2, 1, 0.034000
1, 4, 0, 0, 1, 0.046000
1, 4, 4, 5, 1, 0.049000
1, 4, 1, 1, 1, 0.030000
1, 4, 3, 1, 1, 0.043000
1, 4, 2, 5, 1, 0.053000
1, 4, 1, 1, 1, 0.047000
1, 4, 3, 3, 1, 0.032000
1, 4, 0, 5, 1, 0.043000
1, 4, 1, 5, 1, 0.041000
1, 4, 1, 3, 1, 0.031000
1, 4, 3, 4, 1, 0.031000
1, 4, 0, 4, 1, 0.035000
1, 4, 5, 5, 1, 0.055000
1, 4, 2, 0, 1, 0.045000
1, 4, 2, 0, 1, 0.049000
1, 4, 0, 2, 1, 0.039000
1, 4, 3, 0, 1, 0.048000
1, 4, 1, 2, 1, 0.048000
1, 4, 5, 3, 1, 0.030000
1, 4, 2, 3, 1, 0.044000
1, 4, 4, 1, 1, 0.032000
1, 4, 5, 4, 1, 0.032000
1, 4, 5, 2, 1, 0.040000
1, 4, 0, 1, 1, 0.049000
1, 4, 3, 2, 1, 0.048000
1, 4, 3, 4, 1, 0.048000
1, 4, 2, 1, 1, 0.041000
1, 4, 2, 5, 1, 0.037000
1, 4, 0, 2, 1, 0.050000
1, 4, 0, 4, 1, 0.039000
1, 4, 5, 3, 1, 0.055000
1, 4, 4, 1, 1, 0.045000
1, 4, 1, 3, 1, 0.041000
1, 4, 1, 2, 1, 0.050000
1, 4, 3, 1, 1, 0.040000
1, 4, 5, 2, 1, 0.055000
1, 4, 4, 1, 1, 0.040000
1, 4, 2, 3, 1, 0.047000
1, 4, 1, 3, 1, 0.044000
1, 4, 1, 0, 1, 0.031000
1, 4, 1, 5, 1, 0.045000
1, 4, 3, 4, 1, 0.050000
1, 4, 3, 5, 1, 0.028000
1, 4, 1, 3, 1, 0.048000
1, 4, 1, 3, 1, 0.050000
1, 4, 2, 2, 1, 0.036000
1, 4, 4, 3, 1, 0.046000
1, 4, 1, 2, 1, 0.041000
1, 4, 3, 1, 1, 0.053000
1, 4, 1, 2, 1, 0.049000
1, 4, 3, 4, 1, 0.034000
1, 4, 3, 1, 1, 0.046000
1, 4, 3, 1, 1, 0.053000
1, 4, 0, 5, 1, 0.031000
1, 4, 3, 4, 1, 0.048000
1, 4, 1, 3, 1, 0.053000
1, 4, 5, 5, 1, 0.039000
1, 4, 0, 4, 1, 0.042000
2, 4, 3, 2, 1, 0.035000
2, 4, 1, 0, 1, 0.034000
2, 4, 1, 5, 1, 0.051000
2, 4, 2, 0, 1, 0.043000
2, 4, 5, 3, 1, 0.046000
2, 4, 2, 0, 1, 0.036000
2, 4, 0, 2, 1, 0.041000
2, 4, 0, 4, 1, 0.045000
2, 4, 2, 0, 1, 0.031000
2, 4, 4, 1, 1, 0.031000
2, 4, 0, 1, 1, 0.054000
2, 4, 1, 4, 1, 0.053000
2, 4, 5, 4, 1, 0.033000
2, 4, 4, 2, 1, 0.033000
3, 4, 1, 4, 1, 0.036000
3, 4, 2, 5, 1, 0.047000
3, 4, 3, 1, 1, 0.055000
3, 4, 5, 3, 1, 0.040000
3, 4, 0, 1, 1, 0.031000
3, 4, 3, 3, 1, 0.036000
3, 4, 0, 0, 1, 0.055000
3, 4, 1, 3, 1, 0.046000
3, 4, 3, 3, 1, 0.030000
3, 4, 0, 4, 1, 0.048000
3, 4, 4, 4, 1, 0.053000
3, 4, 3, 1, 1, 0.046000
3, 4, 1, 4, 1, 0.048000
3, 4, 4, 0, 1, 0.036000
3, 4, 3, 2, 1, 0.029000
3, 4, 2, 4, 1, 0.035000
3, 4, 5, 5, 1, 0.047000
3, 4, 0, 0, 1, 0.052000
4, 4, 5, 0, 1, 0.034000
4, 4, 3, 0, 1, 0.040000
4, 4, 5, 1, 1, 0.053000
4, 4, 1, 1, 1, 0.033000
4, 4, 5, 4, 1, 0.048000
4, 4, 1, 4, 1, 0.029000
4, 4, 1, 3, 1, 0.037000
4, 4, 0, 4, 1, 0.040000
4, 4, 4, 0, 1, 0.031000
4, 4, 4, 5, 1, 0.052000
4, 4, 2, 2, 1, 0.041000
4, 4, 1, 0, 1, 0.044000
4, 4, 1, 2, 1, 0.045000
4, 4, 4, 2, 1, 0.045000
4, 4, 5, 5, 1, 0.036000
4, 4, 5, 0, 1, 0.053000
4, 4, 0, 4, 1, 0.051000
4, 4, 0, 1, 1, 0.033000
4, 4, 3, 3, 1, 0.050000
5, 4, 4, 1, 1, 0.028000
5, 4, 0, 4, 1, 0.028000
5, 4, 1, 1, 1, 0.031000
5, 4, 5, 5, 1, 0.045000
5, 4, 3, 5, 1, 0.047000
5, 4, 1, 4, 1, 0.046000
5, 4, 4, 4, 1, 0.055000
5, 4, 3, 5, 1, 0.031000
5, 4, 5, 2, 1, 0.053000
5, 4, 5, 0, 1, 0.054000
5, 4, 5, 3, 1, 0.029000
5, 4, 2, 5, 1, 0.036000
5, 4, 3, 3, 1, 0.052000
5, 4, 2, 0, 1, 0.038000
5, 4, 2, 5, 1, 0.054000
5, 4, 0, 4, 1, 0.048000
5, 4, 0, 2, 1, 0.052000
5, 4, 5, 3, 1, 0.048000
5, 4, 1, 5, 1, 0.042000
5, 4, 0, 4, 1, 0.052000
5, 4, 2, 2, 1, 0.048000
5, 4, 2, 1, 1, 0.034000
5, 4, 3, 5, 1, 0.033000
5, 4, 2, 5, 1, 0.049000
5, 4, 0, 1, 1, 0.040000
5, 4, 3, 5, 1, 0.036000
5, 4, 5, 3, 1, 0.034000
5, 4, 2, 2, 1, 0.047000
5, 4, 5, 0, 1, 0.035000
5, 4, 5, 5, 1, 0.039000
5, 4, 3, 5, 1, 0.053000
5, 4, 2, 4, 1, 0.044000
5, 4, 5, 2, 1, 0.052000
5, 4, 4, 0, 1, 0.032000
5, 4, 1, 2, 1, 0.033000
5, 4, 2, 2, 1, 0.035000
5, 4, 2, 4, 1, 0.037000
5, 4, 1, 4, 1, 0.045000
5, 4, 5, 5, 1, 0.031000
5, 4, 5, 1, 1, 0.044000
5, 4, 0, 1, 1, 0.042000
5, 4, 4, 4, 1, 0.054000
5, 4, 1, 5, 1, 0.035000
5, 4, 1, 0, 1, 0.029000
5, 4, 1, 2, 1, 0.038000
5, 4, 0, 4, 1, 0.029000
5, 4, 0, 4, 1, 0.044000
5, 4, 5, 5, 1, 0.050000
5, 4, 5, 3, 1, 0.052000
5, 4, 5, 5, 1, 0.050000
5, 4, 0, 3, 1, 0.039000
5, 4, 2, 4, 1, 0.055000
5, 4, 1, 4, 1, 0.034000
5, 4, 4, 0, 1, 0.045000
5, 4, 0, 4, 1, 0.040000
5, 4, 5, 0, 1, 0.036000
5, 4, 5, 5, 1, 0.030000
5, 4, 0, 5, 1, 0.036000
5, 4, 0, 3, 1, 0.033000
5, 4, 5, 5, 1, 0.045000
5, 4, 0, 1, 1, 0.048000
5, 4, 5, 2, 1, 0.031000
5, 4, 0, 2, 1, 0.052000
5, 4, 5, 1, 1, 0.050000
5, 4, 3, 5, 1, 0.053000
5, 4, 4, 2, 1, 0.053000
5, 4, 5, 2, 1, 0.029000
5, 4, 2, 4, 1, 0.055000
5, 4, 1, 1, 1, 0.048000
5, 4, 3, 4, 1, 0.048000
5, 4, 0, 4, 1, 0.050000
5, 4, 5, 5, 1, 0.030000
5, 4, 3, 2, 1, 0.053000
0, 5, 5, 0, 1, 0.052000
0, 5, 2, 5, 1, 0.043000
0, 5, 3, 2, 1, 0.041000
0, 5, 4, 5, 1, 0.035000
0, 5, 2, 5, 1, 0.049000
0, 5, 2, 2, 1, 0.047000
0, 5, 0, 0, 1, 0.039000
0, 5, 5, 1, 1, 0.034000
0, 5, 3, 2, 1, 0.037000
0, 5, 0, 3, 1, 0.046000
0, 5, 0, 0, 1, 0.036000
0, 5, 2, 3, 1, 0.032000
0, 5, 1, 5, 1, 0.047000
0, 5, 3, 0, 1, 0.052000
0, 5, 2, 3, 1, 0.045000
0, 5, 5, 2, 1, 0.036000
0, 5, 3, 5, 1, 0.031000
0, 5, 0, 2, 1, 0.042000
0, 5, 4, 2, 1, 0.030000
0, 5, 2, 3, 1, 0.034000
0, 5, 2, 3, 1, 0.035000
0, 5, 4, 2, 1, 0.031000
0, 5, 3, 3, 1, 0.035000
0, 5, 0, 3, 1, 0.046000
0, 5, 5, 2, 1, 0.054000
0, 5, 0, 4, 1, 0.044000
0, 5, 2, 2, 1, 0.054000
0, 5, 0, 2, 1, 0.047000
0, 5, 5, 4, 1, 0.044000
0, 5, 1, 5, 1, 0.039000
0, 5, 2, 1, 1, 0.045000
0, 5, 0, 1, 1, 0.040000
0, 5, 1, 1, 1, 0.051000
0, 5, 1, 4, 1, 0.053000
1, 5, 3, 2, 1, 0.037000
1, 5, 0, 5, 1, 0.032000
1, 5, 5, 2, 1, 0.048000
1, 5, 1, 1, 1, 0.043000
1, 5, 1, 0, 1, 0.054000
1, 5, 1, 4, 1, 0.040000
1, 5, 1, 0, 1, 0.038000
1, 5, 5, 5, 1, 0.030000
1, 5, 2, 5, 1, 0.055000
1, 5, 0, 1, 1, 0.039000
1, 5, 0, 4, 1, 0.033000
1, 5, 1, 2, 1, 0.039000
1, 5, 4, 0, 1, 0.030000
1, 5, 0, 5, 1, 0.033000
1, 5, 3, 1, 1, 0.054000
1, 5, 2, 3, 1, 0.034000
1, 5, 0, 3, 1, 0.046000
1, 5, 0, 1, 1, 0.034000
1, 5, 3, 1, 1, 0.052000
1, 5, 0, 5, 1, 0.043000
1, 5, 4, 5, 1, 0.043000
1, 5, 5, 1, 1, 0.050000
1, 5, 4, 5, 1, 0.032000
1, 5, 4, 1, 1, 0.049000
1, 5, 5, 1, 1, 0.044000
1, 5, 5, 5, 1, 0.038000
1, 5, 5, 4, 1, 0.035000
1, 5, 0, 0, 1, 0.054000
1, 5, 4, 1, 1, 0.041000
1, 5, 3, 0, 1, 0.046000
1, 5, 2, 4, 1, 0.052000
1, 5, 4, 5, 1, 0.037000
1, 5, 3, 2, 1, 0.043000
1, 5, 0, 2, 1, 0.043000
1, 5, 5, 5, 1, 0.032000
1, 5, 5, 5, 1, 0.050000
1, 5, 4, 2, 1, 0.051000
1, 5, 3, 1, 1, 0.051000
1, 5, 4, 3, 1, 0.050000
1, 5, 1, 1, 1, 0.053000
1, 5, 1, 3, 1, 0.034000
1, 5, 2, 2, 1, 0.047000
1, 5, 2, 0, 1, 0.029000
1, 5, 2, 4, 1, 0.036000
1, 5, 3, 4, 1, 0.033000
1, 5, 1, 4, 1, 0.041000
1, 5, 2, 3, 1, 0.040000
1, 5, 2, 0, 1, 0.034000
1, 5, 1, 0, 1, 0.035000
1, 5, 1, 0, 1, 0.043000
1, 5, 5, 0, 1, 0.032000
1, 5, 2, 3, 1, 0.043000
1, 5, 5, 4, 1, 0.049000
1, 5, 1, 1, 1, 0.043000
1, 5, 4, 2, 1, 0.045000
1, 5, 2, 4, 1, 0.037000
1, 5, 2, 3, 1, 0.054000
1, 5, 3, 1, 1, 0.046000
1, 5, 4, 4, 1, 0.055000
1, 5, 4, 3, 1, 0.053000
1, 5, 3, 1, 1, 0.054000
1, 5, 1, 4, 1, 0.040000
1, 5, 2, 5, 1, 0.030000
1, 5, 0, 5, 1, 0.033000
1, 5, 2, 3, 1, 0.045000
1, 5, 1, 4, 1, 0.037000
1, 5, 2, 2, 1, 0.032000
1, 5, 2, 4, 1, 0.035000
1, 5, 1, 3, 1, 0.039000
1, 5, 4, 5, 1, 0.054000
1, 5, 3, 0, 1, 0.040000
1, 5, 5, 2, 1, 0.052000
1, 5, 2, 5, 1, 0.052000
1, 5, 2, 1, 1, 0.033000
1, 5, 5, 0, 1, 0.044000
1, 5, 2, 0, 1, 0.054000
1, 5, 4, 5, 1, 0.046000
1, 5, 2, 3, 1, 0.050000
1, 5, 1, 4, 1, 0.047000
1, 5, 3, 2, 1, 0.043000
1, 5, 5, 0, 1, 0.032000
1, 5, 2, 0, 1, 0.028000
1, 5, 3, 5, 1, 0.050000
1, 5, 2, 2, 1, 0.054000
1, 5, 4, 5, 1, 0.055000
1, 5, 0, 1, 1, 0.033000
1, 5, 1, 2, 1, 0.030000
1, 5, 1, 0, 1, 0.028000
1, 5, 0, 3, 1, 0.045000
1, 5, 5, 5, 1, 0.045000
1, 5, 4, 5, 1, 0.034000
1, 5, 4, 0, 1, 0.050000
2, 5, 5, 5, 1, 0.053000
2, 5, 1, 5, 1, 0.046000
2, 5, 2, 0, 1, 0.044000
2, 5, 3, 5, 1, 0.045000
2, 5, 2, 2, 1, 0.040000
2, 5, 4, 5, 1, 0.050000
2, 5, 5, 1, 1, 0.042000
2, 5, 2, 4, 1, 0.043000
2, 5, 3, 5, 1, 0.046000
2, 5, 5, 5, 1, 0.039000
2, 5, 4, 5, 1, 0.040000
2, 5, 0, 5, 1, 0.048000
2, 5, 1, 1, 1, 0.052000
2, 5, 2, 4, 1, 0.049000
2, 5, 4, 3, 1, 0.041000
2, 5, 3, 5, 1, 0.033000
2, 5, 2, 0, 1, 0.040000
2, 5, 4, 0, 1, 0.050000
2, 5, 2, 4, 1, 0.040000
2, 5, 2, 1, 1, 0.042000
2, 5, 1, 5, 1, 0.039000
2, 5, 1, 1, 1, 0.055000
2, 5, 4, 2, 1, 0.032000
2, 5, 3, 5, 1, 0.032000
2, 5, 5, 5, 1, 0.035000
2, 5, 2, 0, 1, 0.050000
2, 5, 0, 5, 1, 0.036000
2, 5, 1, 2, 1, 0.040000
2, 5, 5, 5, 1, 0.042000
2, 5, 2, 0, 1, 0.051000
2, 5, 0, 5, 1, 0.046000
2, 5, 2, 3, 1, 0.038000
2, 5, 3, 5, 1, 0.044000
2, 5, 1, 4, 1, 0.048000
2, 5, 5, 1, 1, 0.046000
2, 5, 0, 4, 1, 0.043000
2, 5, 4, 5, 1, 0.044000
2, 5, 1, 3, 1, 0.036000
2, 5, 5, 1, 1, 0.042000
2, 5, 0, 0, 1, 0.050000
2, 5, 5, 3, 1, 0.047000
2, 5, 0, 2, 1, 0.038000
2, 5, 2, 2, 1, 0.051000
2, 5, 5, 2, 1, 0.038000
2, 5, 3, 2, 1, 0.044000
2, 5, 1, 5, 1, 0.055000
2, 5, 0, 3, 1, 0.054000
2, 5, 3, 4, 1, 0.052000
2, 5, 4, 3, 1, 0.048000
2, 5, 5, 1, 1, 0.030000
2, 5, 2, 3, 1, 0.028000
2, 5, 2, 3, 1, 0.051000
2, 5, 2, 3, 1, 0.038000
2, 5, 1, 1, 1, 0.044000
2, 5, 0, 5, 1, 0.031000
2, 5, 0, 0, 1, 0.033000
2, 5, 1, 5, 1, 0.040000
2, 5, 2, 1, 1, 0.047000
2, 5, 5, 0, 1, 0.055000
2, 5, 0, 5, 1, 0.047000
2, 5, 2, 0, 1, 0.043000
2, 5, 5, 0, 1, 0.052000
2, 5, 2, 3, 1, 0.039000
2, 5, 3, 3, 1, 0.035000
2, 5, 3, 5, 1, 0.034000
2, 5, 1, 3, 1, 0.043000
2, 5, 4, 5, 1, 0.039000
2, 5, 1, 1, 1, 0.055000
2, 5, 5, 4, 1, 0.052000
2, 5, 1, 5, 1, 0.053000
2, 5, 5, 5, 1, 0.043000
2, 5, 5, 4, 1, 0.047000
2, 5, 3, 0, 1, 0.045000
2, 5, 3, 3, 1, 0.051000
2, 5, 3, 3, 1, 0.050000
2, 5, 4, 4, 1, 0.042000
2, 5, 2, 4, 1, 0.034000
2, 5, 3, 5, 1, 0.050000
2, 5, 0, 5, 1, 0.055000
2, 5, 5, 1, 1, 0.049000
2, 5, 4, 5, 1, 0.046000
2, 5, 0, 5, 1, 0.030000
2, 5, 5, 0, 1, 0.038000
2, 5, 2, 4, 1, 0.029000
2, 5, 1, 5, 1, 0.050000
2, 5, 1, 1, 1, 0.050000
2, 5, 4, 1, 1, 0.043000
2, 5, 0, 1, 1, 0.034000
2, 5, 2, 0, 1, 0.028000
2, 5, 3, 3, 1, 0.046000
2, 5, 1, 5, 1, 0.038000
2, 5, 0, 1, 1, 0.051000
2, 5, 4, 4, 1, 0.042000
2, 5, 5, 5, 1, 0.048000
2, 5, 2, 4, 1, 0.044000
2, 5, 5, 5, 1, 0.045000
3, 5, 2, 1, 1, 0.045000
3, 5, 1, 4, 1, 0.052000
3, 5, 3, 0, 1, 0.050000
3, 5, 2, 3, 1, 0.045000
3, 5, 5, 1, 1, 0.032000
3, 5, 1, 5, 1, 0.051000
3, 5, 4, 3, 1, 0.053000
3, 5, 0, 0, 1, 0.034000
3, 5, 3, 4, 1, 0.034000
3, 5, 4, 3, 1, 0.046000
3, 5, 0, 2, 1, 0.035000
3, 5, 4, 5, 1, 0.049000
3, 5, 2, 5, 1, 0.029000
3, 5, 5, 1, 1, 0.031000
3, 5, 1, 0, 1, 0.052000
3, 5, 2, 0, 1, 0.036000
3, 5, 0, 4, 1, 0.052000
3, 5, 1, 1, 1, 0.056000
3, 5, 4, 1, 1, 0.030000
4, 5, 1, 1, 1, 0.029000
4, 5, 3, 5, 1, 0.041000
4, 5, 4, 2, 1, 0.033000
4, 5, 3, 3, 1, 0.047000
4, 5, 2, 5, 1, 0.054000
4, 5, 0, 5, 1, 0.047000
4, 5, 1, 3, 1, 0.051000
4, 5, 3, 5, 1, 0.033000
4, 5, 3, 2, 1, 0.047000
4, 5, 2, 4, 1, 0.052000
4, 5, 0, 3, 1, 0.034000
4, 5, 0, 5, 1, 0.034000
4, 5, 1, 0, 1, 0.046000
4, 5, 4, 4, 1, 0.048000
4, 5, 0, 1, 1, 0.028000
4, 5, 3, 2, 1, 0.036000
4, 5, 4, 4, 1, 0.044000
4, 5, 0, 5, 1, 0.037000
4, 5, 2, 5, 1, 0.041000
4, 5, 5, 3, 1, 0.047000
4, 5, 2, 0, 1, 0.045000
4, 5, 0, 1, 1, 0.030000
4, 5, 4, 3, 1, 0.053000
4, 5, 4, 1, 1, 0.033000
4, 5, 0, 0, 1, 0.043000
4, 5, 2, 4, 1, 0.046000
4, 5, 1, 4, 1, 0.052000
4, 5, 0, 4, 1, 0.052000
4, 5, 0, 4, 1, 0.035000
4, 5, 5, 5, 1, 0.029000
4, 5, 2, 5, 1, 0.051000
4, 5, 4, 1, 1, 0.043000
4, 5, 4, 3, 1, 0.040000
4, 5, 3, 3, 1, 0.041000
4, 5, 0, 3, 1, 0.049000
4, 5, 4, 4, 1, 0.036000
4, 5, 2, 0, 1, 0.036000
4, 5, 5, 3, 1, 0.054000
4, 5, 4, 4, 1, 0.047000
4, 5, 4, 4, 1, 0.049000
4, 5, 4, 1, 1, 0.046000
4, 5, 2, 1, 1, 0.039000
4, 5, 5, 0, 1, 0.048000
4, 5, 1, 4, 1, 0.042000
4, 5, 3, 5, 1, 0.033000
4, 5, 3, 5, 1, 0.029000
4, 5, 2, 5, 1, 0.046000
4, 5, 2, 5, 1, 0.049000
4, 5, 1, 3, 1, 0.052000
4, 5, 4, 0, 1, 0.047000
4, 5, 2, 1, 1, 0.034000
4, 5, 1, 0, 1, 0.030000
4, 5, 4, 2, 1, 0.038000
4, 5, 0, 3, 1, 0.040000
4, 5, 3, 5, 1, 0.031000
4, 5, 1, 5, 1, 0.044000
4, 5, 3, 1, 1, 0.050000
4, 5, 4, 4, 1, 0.033000
4, 5, 0, 0, 1, 0.040000
4, 5, 4, 4, 1, 0.030000
4, 5, 1, 4, 1, 0.050000
4, 5, 5, 5, 1, 0.054000
4, 5, 0, 4, 1, 0.046000
4, 5, 5, 4, 1, 0.049000
4, 5, 4, 1, 1, 0.035000
4, 5, 0, 3, 1, 0.033000
4, 5, 1, 5, 1, 0.053000
4, 5, 4, 4, 1, 0.031000
4, 5, 5, 4, 1, 0.031000
4, 5, 2, 3, 1, 0.051000
4, 5, 4, 3, 1, 0.032000
4, 5, 4, 0, 1, 0.037000
4, 5, 4, 4, 1, 0.047000
4, 5, 0, 0, 1, 0.044000
4, 5, 4, 3, 1, 0.034000
4, 5, 0, 5, 1, 0.032000
4, 5, 0, 5, 1, 0.030000
4, 5, 3, 2, 1, 0.044000
4, 5, 2, 0, 1, 0.028000
4, 5, 2, 3, 1, 0.034000
4, 5, 3, 1, 1, 0.048000
4, 5, 0, 4, 1, 0.041000
4, 5, 5, 1, 1, 0.034000
4, 5, 4, 1, 1, 0.034000
4, 5, 2, 3, 1, 0.048000
4, 5, 0, 4, 1, 0.038000
4, 5, 2, 5, 1, 0.053000
4, 5, 5, 4, 1, 0.035000
4, 5, 1, 4, 1, 0.040000
4, 5, 0, 0, 1, 0.040000
4, 5, 2, 0, 1, 0.040000
5, 5, 0, 5, 1, 0.040000
5, 5, 5, 4, 1, 0.054000
5, 5, 5, 1, 1, 0.041000
5, 5, 3, 2, 1, 0.033000
5, 5, 2, 5, 1, 0.044000
5, 5, 1, 3, 1, 0.038000
5, 5, 1, 5, 1, 0.055000
