sX, sY, dX, dY, B, R
0, 0, 0, 1, 1, 0.726000
0, 0, 1, 0, 1, 0.716000
0, 0, 0, 1, 1, 0.965000
0, 0, 0, 1, 1, 0.725000
0, 0, 0, 1, 1, 0.385000
0, 0, 1, 0, 1, 0.914000
0, 0, 0, 1, 1, 0.585000
0, 0, 0, 1, 1, 0.999000
0, 0, 1, 0, 1, 0.358000
0, 0, 0, 1, 1, 0.170000
1, 0, 1, 1, 1, 0.208000
1, 0, 1, 1, 1, 0.960000
1, 0, 0, 0, 1, 0.781000
1, 0, 1, 1, 1, 0.276000
1, 0, 1, 1, 1, 0.649000
1, 0, 0, 0, 1, 0.845000
1, 0, 0, 0, 1, 0.803000
1, 0, 0, 1, 1, 0.479000
1, 0, 1, 1, 1, 0.466000
1, 0, 0, 0, 1, 0.740000
0, 1, 1, 1, 1, 0.491000
0, 1, 1, 0, 1, 0.114000
0, 1, 1, 1, 1, 0.017000
0, 1, 0, 0, 1, 0.289000
0, 1, 0, 0, 1, 0.829000
0, 1, 0, 0, 1, 0.343000
0, 1, 1, 1, 1, 0.730000
0, 1, 0, 0, 1, 0.317000
0, 1, 0, 0, 1, 0.017000
0, 1, 1, 0, 1, 0.062000
1, 1, 0, 1, 1, 0.902000
1, 1, 1, 0, 1, 0.344000
1, 1, 1, 0, 1, 0.848000
1, 1, 1, 0, 1, 0.394000
1, 1, 1, 0, 1, 0.803000
1, 1, 0, 1, 1, 0.768000
1, 1, 0, 1, 1, 0.782000
1, 1, 0, 1, 1, 0.725000
1, 1, 0, 1, 1, 0.313000
1, 1, 0, 0, 1, 0.339000
