sX, sY, dX, dY, B, R
0, 0, 0, 3, 1, 0.067000
1, 0, 0, 4, 1, 0.048000
2, 0, 4, 3, 1, 0.067000
3, 0, 2, 1, 1, 0.044000
4, 0, 3, 0, 1, 0.065000
0, 1, 3, 3, 1, 0.048000
1, 1, 2, 2, 1, 0.053000
2, 1, 0, 2, 1, 0.046000
3, 1, 1, 3, 1, 0.080000
4, 1, 1, 2, 1, 0.078000
0, 2, 0, 1, 1, 0.056000
1, 2, 3, 0, 1, 0.078000
2, 2, 0, 1, 1, 0.051000
3, 2, 1, 3, 1, 0.048000
4, 2, 2, 4, 1, 0.074000
0, 3, 4, 4, 1, 0.070000
1, 3, 3, 4, 1, 0.071000
2, 3, 4, 3, 1, 0.079000
3, 3, 0, 3, 1, 0.042000
4, 3, 1, 2, 1, 0.060000
0, 4, 4, 4, 1, 0.052000
1, 4, 3, 4, 1, 0.047000
2, 4, 1, 0, 1, 0.047000
3, 4, 3, 1, 1, 0.073000
4, 4, 3, 2, 1, 0.047000
