sX, sY, dX, dY, B, R
0, 0, 2, 0, 1, 0.146000
1, 0, 1, 1, 1, 0.204000
2, 0, 2, 2, 1, 0.164000
0, 1, 2, 1, 1, 0.160000
1, 1, 0, 2, 1, 0.194000
2, 1, 2, 2, 1, 0.203000
0, 2, 2, 2, 1, 0.187000
1, 2, 0, 1, 1, 0.124000
2, 2, 0, 1, 1, 0.117000
