sX, sY, dX, dY, B, R
0, 0, 0, 4, 1, 0.350000
1, 0, 3, 3, 1, 0.670000
2, 0, 6, 1, 1, 0.081000
3, 0, 5, 3, 1, 0.327000
4, 0, 1, 1, 1, 0.401000
5, 0, 6, 3, 1, 0.668000
6, 0, 5, 3, 1, 0.622000
0, 1, 2, 0, 1, 0.345000
1, 1, 4, 0, 1, 0.979000
2, 1, 3, 2, 1, 0.146000
3, 1, 1, 1, 1, 0.386000
4, 1, 1, 5, 1, 0.806000
5, 1, 2, 1, 1, 0.204000
6, 1, 1, 6, 1, 0.892000
0, 2, 4, 2, 1, 0.840000
1, 2, 0, 6, 1, 0.186000
2, 2, 5, 6, 1, 0.542000
3, 2, 4, 0, 1, 0.339000
4, 2, 3, 6, 1, 0.638000
5, 2, 6, 2, 1, 0.237000
6, 2, 4, 1, 1, 0.917000
0, 3, 4, 0, 1, 0.383000
1, 3, 4, 6, 1, 0.332000
2, 3, 4, 0, 1, 0.520000
3, 3, 3, 6, 1, 0.189000
4, 3, 6, 3, 1, 0.887000
5, 3, 3, 2, 1, 0.633000
6, 3, 3, 0, 1, 0.832000
0, 4, 1, 2, 1, 0.688000
1, 4, 1, 6, 1, 0.394000
2, 4, 2, 6, 1, 0.434000
3, 4, 6, 4, 1, 0.473000
4, 4, 0, 4, 1, 0.202000
5, 4, 0, 6, 1, 0.045000
6, 4, 3, 0, 1, 0.167000
0, 5, 5, 6, 1, 0.951000
1, 5, 1, 1, 1, 0.161000
2, 5, 0, 5, 1, 0.645000
3, 5, 6, 3, 1, 0.424000
4, 5, 5, 6, 1, 0.597000
5, 5, 5, 3, 1, 0.047000
6, 5, 3, 1, 1, 0.981000
0, 6, 1, 0, 1, 0.121000
1, 6, 2, 2, 1, 0.590000
2, 6, 1, 2, 1, 0.729000
3, 6, 1, 3, 1, 0.035000
4, 6, 5, 2, 1, 0.979000
5, 6, 5, 0, 1, 0.647000
6, 6, 3, 6, 1, 0.983000
