sX, sY, dX, dY, B, R
0, 0, 3, 0, 1, 0.051000
1, 0, 4, 0, 1, 0.059000
2, 0, 3, 3, 1, 0.080000
3, 0, 0, 0, 1, 0.063000
4, 0, 0, 0, 1, 0.057000
0, 1, 4, 2, 1, 0.077000
1, 1, 0, 1, 1, 0.063000
2, 1, 0, 1, 1, 0.056000
3, 1, 0, 0, 1, 0.062000
4, 1, 0, 4, 1, 0.059000
0, 2, 1, 1, 1, 0.057000
1, 2, 4, 3, 1, 0.043000
2, 2, 2, 3, 1, 0.048000
3, 2, 2, 2, 1, 0.042000
4, 2, 2, 4, 1, 0.046000
0, 3, 2, 0, 1, 0.045000
1, 3, 1, 2, 1, 0.074000
2, 3, 2, 0, 1, 0.050000
3, 3, 0, 4, 1, 0.062000
4, 3, 4, 1, 1, 0.059000
0, 4, 2, 2, 1, 0.062000
1, 4, 2, 1, 1, 0.060000
2, 4, 2, 1, 1, 0.051000
3, 4, 3, 3, 1, 0.068000
4, 4, 3, 1, 1, 0.073000
