sX, sY, dX, dY, B, R
0, 0, 0, 2, 1, 0.742000
0, 0, 0, 4, 1, 0.580000
0, 0, 2, 1, 1, 0.278000
0, 0, 2, 3, 1, 0.710000
0, 0, 4, 1, 1, 0.457000
0, 0, 0, 3, 1, 0.011000
0, 0, 1, 0, 1, 0.323000
0, 0, 1, 2, 1, 0.118000
0, 0, 3, 1, 1, 0.707000
0, 0, 0, 3, 1, 0.510000
1, 0, 4, 0, 1, 0.459000
1, 0, 4, 0, 1, 0.386000
1, 0, 3, 1, 1, 0.596000
1, 0, 4, 0, 1, 0.861000
1, 0, 2, 2, 1, 0.027000
1, 0, 0, 0, 1, 0.598000
1, 0, 0, 4, 1, 0.336000
1, 0, 3, 2, 1, 0.809000
1, 0, 1, 1, 1, 0.385000
1, 0, 3, 0, 1, 0.577000
2, 0, 3, 0, 1, 0.154000
2, 0, 2, 2, 1, 0.618000
2, 0, 3, 1, 1, 0.354000
2, 0, 1, 0, 1, 0.525000
2, 0, 1, 2, 1, 0.162000
2, 0, 1, 0, 1, 0.661000
2, 0, 4, 4, 1, 0.597000
2, 0, 2, 3, 1, 0.997000
2, 0, 3, 3, 1, 0.396000
2, 0, 2, 4, 1, 0.621000
3, 0, 4, 0, 1, 0.649000
3, 0, 2, 0, 1, 0.937000
3, 0, 4, 1, 1, 0.619000
3, 0, 2, 0, 1, 0.019000
3, 0, 3, 2, 1, 0.576000
3, 0, 4, 1, 1, 0.389000
3, 0, 4, 2, 1, 0.884000
3, 0, 2, 1, 1, 0.398000
3, 0, 0, 0, 1, 0.188000
3, 0, 3, 2, 1, 0.067000
4, 0, 3, 0, 1, 0.808000
4, 0, 4, 2, 1, 0.736000
4, 0, 3, 0, 1, 0.491000
4, 0, 1, 3, 1, 0.346000
4, 0, 4, 4, 1, 0.934000
4, 0, 4, 4, 1, 0.612000
4, 0, 4, 4, 1, 0.060000
4, 0, 1, 4, 1, 0.801000
4, 0, 4, 2, 1, 0.001000
4, 0, 3, 4, 1, 0.525000
0, 1, 1, 3, 1, 0.610000
0, 1, 0, 0, 1, 0.695000
0, 1, 3, 0, 1, 0.674000
0, 1, 1, 2, 1, 0.500000
0, 1, 1, 1, 1, 0.101000
0, 1, 0, 4, 1, 0.320000
0, 1, 4, 3, 1, 0.938000
0, 1, 3, 0, 1, 0.916000
0, 1, 0, 4, 1, 0.050000
0, 1, 2, 3, 1, 0.344000
1, 1, 0, 3, 1, 0.655000
1, 1, 4, 1, 1, 0.879000
1, 1, 3, 0, 1, 0.471000
1, 1, 1, 3, 1, 0.286000
1, 1, 0, 3, 1, 0.000000
1, 1, 4, 2, 1, 0.387000
1, 1, 3, 3, 1, 0.898000
1, 1, 1, 4, 1, 0.806000
1, 1, 1, 4, 1, 0.529000
1, 1, 0, 1, 1, 0.384000
2, 1, 2, 0, 1, 0.031000
2, 1, 4, 2, 1, 0.965000
2, 1, 2, 3, 1, 0.400000
2, 1, 0, 2, 1, 0.909000
2, 1, 4, 1, 1, 0.390000
2, 1, 1, 0, 1, 0.703000
2, 1, 1, 4, 1, 0.119000
2, 1, 2, 4, 1, 0.031000
2, 1, 2, 4, 1, 0.039000
2, 1, 1, 0, 1, 0.844000
3, 1, 0, 0, 1, 0.159000
3, 1, 1, 1, 1, 0.795000
3, 1, 3, 3, 1, 0.451000
3, 1, 1, 1, 1, 0.884000
3, 1, 3, 0, 1, 0.907000
3, 1, 2, 1, 1, 0.168000
3, 1, 1, 3, 1, 0.087000
3, 1, 2, 0, 1, 0.166000
3, 1, 0, 2, 1, 0.285000
3, 1, 4, 2, 1, 0.583000
4, 1, 4, 2, 1, 0.489000
4, 1, 0, 4, 1, 0.323000
4, 1, 4, 0, 1, 0.833000
4, 1, 2, 0, 1, 0.382000
4, 1, 4, 0, 1, 0.128000
4, 1, 1, 1, 1, 0.055000
4, 1, 0, 1, 1, 0.557000
4, 1, 4, 0, 1, 0.400000
4, 1, 0, 1, 1, 0.715000
4, 1, 4, 2, 1, 0.413000
0, 2, 3, 2, 1, 0.442000
0, 2, 0, 1, 1, 0.747000
0, 2, 3, 3, 1, 0.843000
0, 2, 4, 1, 1, 0.772000
0, 2, 2, 2, 1, 0.609000
0, 2, 1, 2, 1, 0.530000
0, 2, 4, 1, 1, 0.967000
0, 2, 3, 3, 1, 0.561000
0, 2, 0, 3, 1, 0.007000
0, 2, 3, 1, 1, 0.685000
1, 2, 1, 1, 1, 0.447000
1, 2, 1, 3, 1, 0.727000
1, 2, 2, 4, 1, 0.130000
1, 2, 0, 2, 1, 0.474000
1, 2, 1, 0, 1, 0.592000
1, 2, 1, 3, 1, 0.583000
1, 2, 1, 4, 1, 0.580000
1, 2, 3, 1, 1, 0.207000
1, 2, 4, 0, 1, 0.922000
1, 2, 1, 4, 1, 0.143000
2, 2, 2, 3, 1, 0.202000
2, 2, 0, 2, 1, 0.963000
2, 2, 1, 1, 1, 0.893000
2, 2, 3, 2, 1, 0.956000
2, 2, 1, 2, 1, 0.348000
2, 2, 1, 0, 1, 0.479000
2, 2, 1, 3, 1, 0.523000
2, 2, 3, 1, 1, 0.954000
2, 2, 3, 2, 1, 0.373000
2, 2, 4, 1, 1, 0.844000
3, 2, 1, 4, 1, 0.769000
3, 2, 4, 1, 1, 0.858000
3, 2, 4, 4, 1, 0.335000
3, 2, 2, 0, 1, 0.732000
3, 2, 2, 3, 1, 0.649000
3, 2, 2, 4, 1, 0.351000
3, 2, 0, 0, 1, 0.531000
3, 2, 4, 0, 1, 0.881000
3, 2, 3, 4, 1, 0.450000
3, 2, 0, 0, 1, 0.542000
4, 2, 4, 4, 1, 0.368000
4, 2, 0, 3, 1, 0.755000
4, 2, 2, 4, 1, 0.714000
4, 2, 1, 2, 1, 0.372000
4, 2, 1, 0, 1, 0.644000
4, 2, 2, 2, 1, 0.905000
4, 2, 4, 1, 1, 0.352000
4, 2, 4, 3, 1, 0.107000
4, 2, 3, 1, 1, 0.030000
4, 2, 0, 1, 1, 0.090000
0, 3, 3, 2, 1, 0.680000
0, 3, 4, 2, 1, 0.187000
0, 3, 1, 4, 1, 0.746000
0, 3, 1, 1, 1, 0.358000
0, 3, 0, 2, 1, 0.123000
0, 3, 3, 1, 1, 0.572000
0, 3, 4, 2, 1, 0.938000
0, 3, 1, 1, 1, 0.895000
0, 3, 4, 3, 1, 0.770000
0, 3, 0, 4, 1, 0.590000
1, 3, 2, 3, 1, 0.122000
1, 3, 4, 3, 1, 0.930000
1, 3, 1, 1, 1, 0.049000
1, 3, 3, 3, 1, 0.494000
1, 3, 0, 1, 1, 0.601000
1, 3, 1, 0, 1, 0.016000
1, 3, 1, 0, 1, 0.076000
1, 3, 3, 2, 1, 0.489000
1, 3, 2, 3, 1, 0.270000
1, 3, 1, 4, 1, 0.665000
2, 3, 1, 3, 1, 0.794000
2, 3, 1, 0, 1, 0.310000
2, 3, 4, 0, 1, 0.583000
2, 3, 0, 3, 1, 0.840000
2, 3, 2, 1, 1, 0.277000
2, 3, 2, 1, 1, 0.177000
2, 3, 1, 4, 1, 0.520000
2, 3, 4, 4, 1, 0.702000
2, 3, 2, 0, 1, 0.794000
2, 3, 4, 3, 1, 0.408000
3, 3, 2, 3, 1, 0.818000
3, 3, 4, 2, 1, 0.959000
3, 3, 2, 3, 1, 0.234000
3, 3, 2, 4, 1, 0.090000
3, 3, 2, 3, 1, 0.631000
3, 3, 0, 4, 1, 0.393000
3, 3, 2, 3, 1, 0.049000
3, 3, 3, 2, 1, 0.421000
3, 3, 1, 4, 1, 0.972000
3, 3, 3, 1, 1, 0.151000
4, 3, 1, 4, 1, 0.559000
4, 3, 2, 3, 1, 0.370000
4, 3, 3, 0, 1, 0.058000
4, 3, 4, 4, 1, 0.051000
4, 3, 3, 3, 1, 0.961000
4, 3, 2, 1, 1, 0.670000
4, 3, 0, 2, 1, 0.428000
4, 3, 2, 3, 1, 0.222000
4, 3, 4, 1, 1, 0.571000
4, 3, 2, 2, 1, 0.875000
0, 4, 1, 4, 1, 0.874000
0, 4, 3, 3, 1, 0.997000
0, 4, 0, 2, 1, 0.451000
0, 4, 0, 0, 1, 0.931000
0, 4, 2, 2, 1, 0.334000
0, 4, 2, 4, 1, 0.652000
0, 4, 0, 0, 1, 0.125000
0, 4, 1, 0, 1, 0.752000
0, 4, 0, 0, 1, 0.892000
0, 4, 4, 4, 1, 0.353000
1, 4, 0, 3, 1, 0.908000
1, 4, 2, 0, 1, 0.225000
1, 4, 4, 4, 1, 0.949000
1, 4, 4, 0, 1, 0.620000
1, 4, 3, 1, 1, 0.561000
1, 4, 4, 2, 1, 0.165000
1, 4, 3, 0, 1, 0.308000
1, 4, 4, 1, 1, 0.098000
1, 4, 1, 1, 1, 0.965000
1, 4, 2, 4, 1, 0.014000
2, 4, 3, 4, 1, 0.877000
2, 4, 2, 0, 1, 0.819000
2, 4, 2, 3, 1, 0.891000
2, 4, 2, 3, 1, 0.747000
2, 4, 3, 1, 1, 0.655000
2, 4, 0, 3, 1, 0.785000
2, 4, 3, 4, 1, 0.154000
2, 4, 3, 3, 1, 0.211000
2, 4, 3, 2, 1, 0.193000
2, 4, 0, 4, 1, 0.301000
3, 4, 2, 3, 1, 0.882000
3, 4, 1, 3, 1, 0.848000
3, 4, 2, 2, 1, 0.677000
3, 4, 3, 3, 1, 0.292000
3, 4, 2, 4, 1, 0.081000
3, 4, 3, 0, 1, 0.930000
3, 4, 3, 1, 1, 0.412000
3, 4, 0, 0, 1, 0.772000
3, 4, 3, 3, 1, 0.322000
3, 4, 1, 2, 1, 0.904000
4, 4, 3, 1, 1, 0.430000
4, 4, 0, 2, 1, 0.089000
4, 4, 2, 4, 1, 0.383000
4, 4, 4, 1, 1, 0.092000
4, 4, 2, 0, 1, 0.464000
4, 4, 1, 0, 1, 0.041000
4, 4, 4, 0, 1, 0.412000
4, 4, 0, 4, 1, 0.979000
4, 4, 1, 2, 1, 0.535000
4, 4, 1, 2, 1, 0.475000
