sX, sY, dX, dY, B, R
0, 0, 0, 1, 1, 0.391000
0, 0, 1, 0, 1, 0.477000
0, 0, 1, 0, 1, 0.264000
0, 0, 1, 0, 1, 0.019000
0, 0, 0, 1, 1, 0.179000
0, 0, 0, 1, 1, 0.622000
0, 0, 0, 1, 1, 0.822000
0, 0, 0, 1, 1, 0.684000
0, 0, 0, 1, 1, 0.610000
0, 0, 0, 1, 1, 0.512000
1, 0, 1, 1, 1, 0.770000
1, 0, 1, 1, 1, 0.138000
1, 0, 0, 0, 1, 0.425000
1, 0, 1, 1, 1, 0.061000
1, 0, 0, 0, 1, 0.763000
1, 0, 0, 0, 1, 0.057000
1, 0, 0, 1, 1, 0.982000
1, 0, 0, 0, 1, 0.426000
1, 0, 0, 0, 1, 0.597000
1, 0, 0, 0, 1, 0.154000
0, 1, 0, 0, 1, 0.003000
0, 1, 0, 0, 1, 0.470000
0, 1, 0, 0, 1, 0.094000
0, 1, 0, 0, 1, 0.505000
0, 1, 1, 0, 1, 0.173000
0, 1, 1, 1, 1, 0.262000
0, 1, 0, 0, 1, 0.647000
0, 1, 1, 1, 1, 0.390000
0, 1, 0, 0, 1, 0.958000
0, 1, 1, 1, 1, 0.732000
1, 1, 0, 1, 1, 0.043000
1, 1, 0, 0, 1, 0.674000
1, 1, 0, 1, 1, 0.190000
1, 1, 1, 0, 1, 0.777000
1, 1, 0, 1, 1, 0.115000
1, 1, 1, 0, 1, 0.338000
1, 1, 0, 0, 1, 0.689000
1, 1, 0, 1, 1, 0.028000
1, 1, 1, 0, 1, 0.074000
1, 1, 0, 1, 1, 0.616000
