sX, sY, dX, dY, B, R
0, 0, 6, 0, 1, 0.123000
0, 0, 4, 5, 1, 0.995000
0, 0, 4, 0, 1, 0.469000
0, 0, 5, 0, 1, 0.100000
0, 0, 2, 1, 1, 0.187000
0, 0, 0, 5, 1, 0.468000
0, 0, 1, 0, 1, 0.295000
0, 0, 6, 0, 1, 0.294000
0, 0, 2, 6, 1, 0.251000
0, 0, 3, 0, 1, 0.871000
1, 0, 1, 1, 1, 0.596000
1, 0, 1, 4, 1, 0.942000
1, 0, 3, 3, 1, 0.648000
1, 0, 1, 5, 1, 0.129000
1, 0, 4, 5, 1, 0.241000
1, 0, 3, 0, 1, 0.325000
1, 0, 6, 2, 1, 0.055000
1, 0, 1, 1, 1, 0.284000
1, 0, 1, 2, 1, 0.572000
1, 0, 0, 6, 1, 0.444000
2, 0, 0, 1, 1, 0.716000
2, 0, 2, 3, 1, 0.719000
2, 0, 6, 1, 1, 0.866000
2, 0, 4, 5, 1, 0.019000
2, 0, 4, 1, 1, 0.645000
2, 0, 0, 0, 1, 0.363000
2, 0, 0, 5, 1, 0.293000
2, 0, 6, 3, 1, 0.190000
2, 0, 2, 1, 1, 0.655000
2, 0, 3, 5, 1, 0.452000
3, 0, 3, 1, 1, 0.814000
3, 0, 3, 1, 1, 0.465000
3, 0, 1, 6, 1, 0.894000
3, 0, 1, 0, 1, 0.243000
3, 0, 0, 3, 1, 0.777000
3, 0, 4, 0, 1, 0.374000
3, 0, 1, 4, 1, 0.066000
3, 0, 3, 6, 1, 0.090000
3, 0, 5, 6, 1, 0.541000
3, 0, 5, 6, 1, 0.256000
4, 0, 6, 6, 1, 0.245000
4, 0, 0, 6, 1, 0.403000
4, 0, 5, 2, 1, 0.212000
4, 0, 3, 2, 1, 0.025000
4, 0, 2, 2, 1, 0.176000
4, 0, 1, 0, 1, 0.634000
4, 0, 2, 3, 1, 0.480000
4, 0, 6, 0, 1, 0.212000
4, 0, 6, 0, 1, 0.185000
4, 0, 1, 2, 1, 0.740000
5, 0, 1, 4, 1, 0.465000
5, 0, 1, 5, 1, 0.377000
5, 0, 6, 1, 1, 0.251000
5, 0, 5, 4, 1, 0.213000
5, 0, 1, 3, 1, 0.343000
5, 0, 6, 0, 1, 0.400000
5, 0, 0, 1, 1, 0.164000
5, 0, 5, 6, 1, 0.852000
5, 0, 5, 6, 1, 0.302000
5, 0, 2, 3, 1, 0.659000
6, 0, 6, 1, 1, 0.396000
6, 0, 1, 6, 1, 0.099000
6, 0, 3, 5, 1, 0.026000
6, 0, 5, 3, 1, 0.032000
6, 0, 6, 1, 1, 0.500000
6, 0, 3, 1, 1, 0.026000
6, 0, 0, 1, 1, 0.806000
6, 0, 3, 1, 1, 0.010000
6, 0, 4, 5, 1, 0.263000
6, 0, 4, 0, 1, 0.168000
0, 1, 6, 4, 1, 0.918000
0, 1, 5, 0, 1, 0.514000
0, 1, 6, 2, 1, 0.888000
0, 1, 2, 5, 1, 0.337000
0, 1, 5, 1, 1, 0.012000
0, 1, 5, 1, 1, 0.185000
0, 1, 2, 1, 1, 0.439000
0, 1, 5, 6, 1, 0.094000
0, 1, 1, 1, 1, 0.592000
0, 1, 6, 6, 1, 0.476000
1, 1, 1, 5, 1, 0.452000
1, 1, 0, 1, 1, 0.843000
1, 1, 4, 0, 1, 0.476000
1, 1, 3, 1, 1, 0.593000
1, 1, 4, 6, 1, 0.622000
1, 1, 6, 6, 1, 0.500000
1, 1, 0, 6, 1, 0.715000
1, 1, 5, 1, 1, 0.895000
1, 1, 2, 5, 1, 0.107000
1, 1, 5, 3, 1, 0.359000
2, 1, 5, 3, 1, 0.533000
2, 1, 2, 2, 1, 0.808000
2, 1, 3, 6, 1, 0.758000
2, 1, 6, 3, 1, 0.372000
2, 1, 4, 1, 1, 0.152000
2, 1, 1, 6, 1, 0.397000
2, 1, 4, 2, 1, 0.697000
2, 1, 2, 6, 1, 0.338000
2, 1, 3, 0, 1, 0.324000
2, 1, 5, 3, 1, 0.185000
3, 1, 2, 1, 1, 0.219000
3, 1, 0, 3, 1, 0.325000
3, 1, 1, 1, 1, 0.639000
3, 1, 1, 1, 1, 0.488000
3, 1, 5, 3, 1, 0.345000
3, 1, 1, 1, 1, 0.569000
3, 1, 3, 0, 1, 0.014000
3, 1, 2, 1, 1, 0.535000
3, 1, 2, 4, 1, 0.611000
3, 1, 5, 1, 1, 0.748000
4, 1, 4, 2, 1, 0.917000
4, 1, 5, 4, 1, 0.992000
4, 1, 3, 4, 1, 0.914000
4, 1, 3, 6, 1, 0.712000
4, 1, 5, 3, 1, 0.198000
4, 1, 4, 6, 1, 0.346000
4, 1, 0, 0, 1, 0.111000
4, 1, 5, 4, 1, 0.848000
4, 1, 3, 1, 1, 0.053000
4, 1, 0, 1, 1, 0.295000
5, 1, 1, 4, 1, 0.445000
5, 1, 5, 5, 1, 0.758000
5, 1, 2, 5, 1, 0.042000
5, 1, 5, 3, 1, 0.316000
5, 1, 5, 6, 1, 0.570000
5, 1, 5, 6, 1, 0.845000
5, 1, 0, 6, 1, 0.486000
5, 1, 4, 4, 1, 0.852000
5, 1, 5, 3, 1, 0.009000
5, 1, 2, 4, 1, 0.391000
6, 1, 6, 2, 1, 0.034000
6, 1, 1, 0, 1, 0.637000
6, 1, 4, 2, 1, 0.499000
6, 1, 3, 1, 1, 0.646000
6, 1, 4, 5, 1, 0.069000
6, 1, 6, 2, 1, 0.320000
6, 1, 0, 5, 1, 0.979000
6, 1, 0, 1, 1, 0.596000
6, 1, 4, 4, 1, 0.971000
6, 1, 6, 0, 1, 0.496000
0, 2, 1, 2, 1, 0.514000
0, 2, 1, 6, 1, 0.503000
0, 2, 0, 4, 1, 0.355000
0, 2, 6, 2, 1, 0.613000
0, 2, 0, 0, 1, 0.518000
0, 2, 5, 1, 1, 0.997000
0, 2, 5, 0, 1, 0.464000
0, 2, 5, 1, 1, 0.517000
0, 2, 6, 2, 1, 0.457000
0, 2, 6, 4, 1, 0.268000
1, 2, 0, 6, 1, 0.241000
1, 2, 1, 3, 1, 0.688000
1, 2, 2, 1, 1, 0.196000
1, 2, 3, 4, 1, 0.919000
1, 2, 3, 3, 1, 0.597000
1, 2, 6, 4, 1, 0.329000
1, 2, 1, 6, 1, 0.363000
1, 2, 0, 4, 1, 0.573000
1, 2, 4, 6, 1, 0.700000
1, 2, 1, 4, 1, 0.197000
2, 2, 5, 2, 1, 0.893000
2, 2, 6, 3, 1, 0.054000
2, 2, 1, 1, 1, 0.288000
2, 2, 3, 2, 1, 0.138000
2, 2, 4, 2, 1, 0.734000
2, 2, 5, 1, 1, 0.508000
2, 2, 1, 1, 1, 0.298000
2, 2, 6, 4, 1, 0.858000
2, 2, 5, 2, 1, 0.601000
2, 2, 2, 1, 1, 0.032000
3, 2, 6, 1, 1, 0.086000
3, 2, 6, 0, 1, 0.649000
3, 2, 4, 4, 1, 0.193000
3, 2, 5, 2, 1, 0.740000
3, 2, 3, 1, 1, 0.260000
3, 2, 4, 2, 1, 0.171000
3, 2, 5, 2, 1, 0.878000
3, 2, 0, 2, 1, 0.705000
3, 2, 3, 3, 1, 0.475000
3, 2, 5, 3, 1, 0.479000
4, 2, 4, 3, 1, 0.862000
4, 2, 4, 6, 1, 0.741000
4, 2, 4, 3, 1, 0.339000
4, 2, 0, 2, 1, 0.624000
4, 2, 4, 0, 1, 0.992000
4, 2, 3, 4, 1, 0.287000
4, 2, 4, 1, 1, 0.086000
4, 2, 3, 6, 1, 0.327000
4, 2, 2, 4, 1, 0.409000
4, 2, 0, 0, 1, 0.473000
5, 2, 5, 3, 1, 0.079000
5, 2, 3, 3, 1, 0.772000
5, 2, 1, 4, 1, 0.796000
5, 2, 2, 2, 1, 0.463000
5, 2, 0, 2, 1, 0.894000
5, 2, 5, 0, 1, 0.948000
5, 2, 3, 3, 1, 0.316000
5, 2, 3, 2, 1, 0.437000
5, 2, 5, 0, 1, 0.607000
5, 2, 4, 2, 1, 0.086000
6, 2, 2, 3, 1, 0.018000
6, 2, 2, 5, 1, 0.380000
6, 2, 6, 5, 1, 0.292000
6, 2, 5, 6, 1, 0.772000
6, 2, 6, 5, 1, 0.459000
6, 2, 4, 3, 1, 0.872000
6, 2, 2, 5, 1, 0.514000
6, 2, 1, 3, 1, 0.122000
6, 2, 6, 6, 1, 0.890000
6, 2, 6, 0, 1, 0.280000
0, 3, 0, 6, 1, 0.996000
0, 3, 2, 0, 1, 0.317000
0, 3, 4, 0, 1, 0.383000
0, 3, 0, 5, 1, 0.420000
0, 3, 4, 6, 1, 0.658000
0, 3, 2, 3, 1, 0.120000
0, 3, 0, 1, 1, 0.323000
0, 3, 6, 3, 1, 0.791000
0, 3, 0, 5, 1, 0.774000
0, 3, 4, 5, 1, 0.407000
1, 3, 4, 2, 1, 0.046000
1, 3, 2, 3, 1, 0.702000
1, 3, 3, 0, 1, 0.454000
1, 3, 3, 0, 1, 0.953000
1, 3, 1, 2, 1, 0.345000
1, 3, 6, 1, 1, 0.386000
1, 3, 4, 0, 1, 0.321000
1, 3, 0, 5, 1, 0.985000
1, 3, 3, 3, 1, 0.650000
1, 3, 1, 6, 1, 0.924000
2, 3, 0, 2, 1, 0.772000
2, 3, 1, 3, 1, 0.927000
2, 3, 0, 1, 1, 0.111000
2, 3, 0, 1, 1, 0.121000
2, 3, 1, 6, 1, 0.023000
2, 3, 2, 0, 1, 0.011000
2, 3, 3, 3, 1, 0.798000
2, 3, 0, 1, 1, 0.402000
2, 3, 1, 3, 1, 0.854000
2, 3, 0, 3, 1, 0.899000
3, 3, 0, 5, 1, 0.028000
3, 3, 6, 4, 1, 0.121000
3, 3, 3, 5, 1, 0.669000
3, 3, 0, 4, 1, 0.082000
3, 3, 0, 1, 1, 0.901000
3, 3, 1, 4, 1, 0.179000
3, 3, 0, 3, 1, 0.086000
3, 3, 0, 2, 1, 0.817000
3, 3, 1, 3, 1, 0.277000
3, 3, 1, 1, 1, 0.772000
4, 3, 6, 4, 1, 0.229000
4, 3, 6, 1, 1, 0.894000
4, 3, 2, 6, 1, 0.796000
4, 3, 5, 5, 1, 0.478000
4, 3, 5, 0, 1, 0.726000
4, 3, 1, 1, 1, 0.154000
4, 3, 2, 5, 1, 0.957000
4, 3, 5, 0, 1, 0.761000
4, 3, 5, 1, 1, 0.762000
4, 3, 6, 2, 1, 0.010000
5, 3, 1, 1, 1, 0.209000
5, 3, 3, 2, 1, 0.977000
5, 3, 4, 3, 1, 0.408000
5, 3, 6, 4, 1, 0.403000
5, 3, 1, 3, 1, 0.052000
5, 3, 0, 0, 1, 0.443000
5, 3, 1, 0, 1, 0.373000
5, 3, 5, 6, 1, 0.718000
5, 3, 4, 2, 1, 0.835000
5, 3, 0, 6, 1, 0.499000
6, 3, 4, 5, 1, 0.873000
6, 3, 1, 3, 1, 0.538000
6, 3, 2, 5, 1, 0.726000
6, 3, 2, 6, 1, 0.158000
6, 3, 6, 6, 1, 0.338000
6, 3, 6, 4, 1, 0.333000
6, 3, 2, 2, 1, 0.381000
6, 3, 0, 1, 1, 0.130000
6, 3, 5, 0, 1, 0.038000
6, 3, 1, 3, 1, 0.161000
0, 4, 0, 3, 1, 0.161000
0, 4, 0, 6, 1, 0.634000
0, 4, 0, 6, 1, 0.339000
0, 4, 6, 1, 1, 0.564000
0, 4, 0, 2, 1, 0.234000
0, 4, 1, 2, 1, 0.070000
0, 4, 0, 6, 1, 0.010000
0, 4, 0, 3, 1, 0.931000
0, 4, 6, 6, 1, 0.979000
0, 4, 2, 1, 1, 0.440000
1, 4, 5, 0, 1, 0.564000
1, 4, 4, 5, 1, 0.042000
1, 4, 0, 0, 1, 0.537000
1, 4, 6, 0, 1, 0.946000
1, 4, 3, 5, 1, 0.531000
1, 4, 2, 1, 1, 0.045000
1, 4, 6, 0, 1, 0.175000
1, 4, 4, 3, 1, 0.595000
1, 4, 3, 2, 1, 0.478000
1, 4, 5, 0, 1, 0.553000
2, 4, 1, 3, 1, 0.096000
2, 4, 2, 1, 1, 0.569000
2, 4, 1, 0, 1, 0.621000
2, 4, 1, 0, 1, 0.811000
2, 4, 5, 3, 1, 0.658000
2, 4, 2, 6, 1, 0.019000
2, 4, 3, 5, 1, 0.632000
2, 4, 5, 2, 1, 0.212000
2, 4, 6, 6, 1, 0.785000
2, 4, 4, 3, 1, 0.792000
3, 4, 2, 4, 1, 0.911000
3, 4, 4, 3, 1, 0.224000
3, 4, 3, 5, 1, 0.923000
3, 4, 3, 6, 1, 0.883000
3, 4, 0, 3, 1, 1.000000
3, 4, 6, 3, 1, 0.401000
3, 4, 1, 0, 1, 0.086000
3, 4, 0, 4, 1, 0.096000
3, 4, 2, 4, 1, 0.283000
3, 4, 2, 4, 1, 0.419000
4, 4, 4, 2, 1, 0.194000
4, 4, 6, 2, 1, 0.015000
4, 4, 0, 1, 1, 0.977000
4, 4, 1, 2, 1, 0.877000
4, 4, 4, 6, 1, 0.206000
4, 4, 3, 1, 1, 0.685000
4, 4, 6, 5, 1, 0.650000
4, 4, 2, 4, 1, 0.766000
4, 4, 4, 3, 1, 0.470000
4, 4, 5, 1, 1, 0.731000
5, 4, 6, 0, 1, 0.433000
5, 4, 2, 0, 1, 0.042000
5, 4, 3, 4, 1, 0.369000
5, 4, 5, 5, 1, 0.255000
5, 4, 5, 5, 1, 0.264000
5, 4, 1, 4, 1, 0.946000
5, 4, 1, 4, 1, 0.754000
5, 4, 2, 2, 1, 0.935000
5, 4, 4, 2, 1, 0.505000
5, 4, 3, 6, 1, 0.695000
6, 4, 5, 1, 1, 0.834000
6, 4, 3, 0, 1, 0.869000
6, 4, 6, 1, 1, 0.863000
6, 4, 2, 2, 1, 0.411000
6, 4, 6, 5, 1, 1.000000
6, 4, 3, 3, 1, 0.448000
6, 4, 1, 0, 1, 0.309000
6, 4, 1, 6, 1, 0.168000
6, 4, 3, 4, 1, 0.084000
6, 4, 5, 5, 1, 0.185000
0, 5, 6, 6, 1, 0.352000
0, 5, 6, 5, 1, 0.570000
0, 5, 4, 5, 1, 0.940000
0, 5, 5, 3, 1, 0.198000
0, 5, 6, 5, 1, 0.868000
0, 5, 5, 0, 1, 0.465000
0, 5, 5, 6, 1, 0.022000
0, 5, 5, 0, 1, 0.370000
0, 5, 3, 5, 1, 0.650000
0, 5, 0, 0, 1, 0.747000
1, 5, 1, 0, 1, 0.837000
1, 5, 4, 0, 1, 0.190000
1, 5, 5, 5, 1, 0.645000
1, 5, 5, 4, 1, 0.113000
1, 5, 2, 1, 1, 0.608000
1, 5, 6, 2, 1, 0.883000
1, 5, 5, 0, 1, 0.587000
1, 5, 5, 2, 1, 0.268000
1, 5, 2, 5, 1, 0.870000
1, 5, 1, 4, 1, 0.062000
2, 5, 3, 2, 1, 0.599000
2, 5, 1, 3, 1, 0.773000
2, 5, 2, 1, 1, 0.276000
2, 5, 6, 4, 1, 0.644000
2, 5, 4, 1, 1, 0.660000
2, 5, 6, 5, 1, 0.408000
2, 5, 2, 3, 1, 0.810000
2, 5, 6, 1, 1, 0.808000
2, 5, 2, 1, 1, 0.874000
2, 5, 0, 5, 1, 0.790000
3, 5, 5, 5, 1, 0.167000
3, 5, 6, 2, 1, 0.130000
3, 5, 3, 4, 1, 0.687000
3, 5, 2, 1, 1, 0.918000
3, 5, 1, 5, 1, 0.897000
3, 5, 2, 5, 1, 0.980000
3, 5, 4, 1, 1, 0.253000
3, 5, 3, 4, 1, 0.836000
3, 5, 1, 5, 1, 0.545000
3, 5, 1, 3, 1, 0.392000
4, 5, 0, 2, 1, 0.854000
4, 5, 6, 2, 1, 0.085000
4, 5, 0, 4, 1, 0.653000
4, 5, 2, 6, 1, 0.034000
4, 5, 1, 0, 1, 0.520000
4, 5, 5, 0, 1, 0.972000
4, 5, 2, 1, 1, 0.949000
4, 5, 6, 0, 1, 0.240000
4, 5, 0, 6, 1, 0.126000
4, 5, 3, 3, 1, 0.213000
5, 5, 4, 6, 1, 0.658000
5, 5, 5, 3, 1, 0.396000
5, 5, 2, 4, 1, 0.228000
5, 5, 6, 4, 1, 0.960000
5, 5, 5, 4, 1, 0.443000
5, 5, 2, 4, 1, 0.036000
5, 5, 0, 5, 1, 0.296000
5, 5, 1, 0, 1, 0.015000
5, 5, 5, 6, 1, 0.086000
5, 5, 6, 4, 1, 0.435000
6, 5, 4, 0, 1, 0.396000
6, 5, 3, 1, 1, 0.939000
6, 5, 5, 3, 1, 0.662000
6, 5, 1, 3, 1, 0.627000
6, 5, 2, 3, 1, 0.198000
6, 5, 3, 1, 1, 0.531000
6, 5, 0, 1, 1, 0.687000
6, 5, 6, 4, 1, 0.323000
6, 5, 3, 6, 1, 0.367000
6, 5, 0, 4, 1, 0.515000
0, 6, 0, 4, 1, 0.776000
0, 6, 0, 5, 1, 0.517000
0, 6, 0, 2, 1, 0.011000
0, 6, 6, 6, 1, 0.315000
0, 6, 3, 4, 1, 0.153000
0, 6, 5, 5, 1, 0.929000
0, 6, 2, 6, 1, 0.985000
0, 6, 6, 4, 1, 0.058000
0, 6, 0, 5, 1, 0.218000
0, 6, 1, 2, 1, 0.808000
1, 6, 4, 2, 1, 0.300000
1, 6, 5, 5, 1, 0.109000
1, 6, 2, 6, 1, 0.565000
1, 6, 1, 0, 1, 0.989000
1, 6, 1, 0, 1, 0.504000
1, 6, 4, 6, 1, 0.483000
1, 6, 2, 2, 1, 0.580000
1, 6, 1, 2, 1, 0.319000
1, 6, 6, 2, 1, 0.077000
1, 6, 1, 3, 1, 0.683000
2, 6, 2, 3, 1, 0.570000
2, 6, 6, 6, 1, 0.258000
2, 6, 4, 4, 1, 0.375000
2, 6, 6, 4, 1, 0.414000
2, 6, 1, 6, 1, 0.639000
2, 6, 5, 1, 1, 0.523000
2, 6, 6, 0, 1, 0.938000
2, 6, 4, 6, 1, 0.860000
2, 6, 0, 5, 1, 0.159000
2, 6, 6, 0, 1, 0.924000
3, 6, 0, 5, 1, 0.188000
3, 6, 5, 6, 1, 0.392000
3, 6, 3, 1, 1, 0.134000
3, 6, 4, 3, 1, 0.134000
3, 6, 2, 1, 1, 0.367000
3, 6, 4, 6, 1, 0.376000
3, 6, 4, 0, 1, 0.489000
3, 6, 5, 6, 1, 0.215000
3, 6, 3, 3, 1, 0.453000
3, 6, 3, 4, 1, 0.078000
4, 6, 6, 4, 1, 0.711000
4, 6, 5, 0, 1, 0.486000
4, 6, 3, 6, 1, 0.304000
4, 6, 6, 0, 1, 0.310000
4, 6, 2, 3, 1, 0.236000
4, 6, 3, 6, 1, 0.447000
4, 6, 1, 0, 1, 0.120000
4, 6, 2, 2, 1, 0.019000
4, 6, 5, 6, 1, 0.686000
4, 6, 3, 1, 1, 0.327000
5, 6, 5, 1, 1, 0.515000
5, 6, 2, 5, 1, 0.458000
5, 6, 4, 2, 1, 0.097000
5, 6, 0, 2, 1, 0.781000
5, 6, 2, 5, 1, 0.619000
5, 6, 3, 3, 1, 0.726000
5, 6, 3, 0, 1, 0.860000
5, 6, 2, 5, 1, 0.557000
5, 6, 2, 4, 1, 0.268000
5, 6, 3, 1, 1, 0.611000
6, 6, 6, 3, 1, 0.973000
6, 6, 3, 6, 1, 0.971000
6, 6, 6, 5, 1, 0.054000
6, 6, 1, 6, 1, 0.659000
6, 6, 3, 1, 1, 0.235000
6, 6, 0, 3, 1, 0.958000
6, 6, 0, 6, 1, 0.335000
6, 6, 4, 6, 1, 0.107000
6, 6, 3, 6, 1, 0.895000
6, 6, 6, 1, 1, 0.466000
