sX, sY, dX, dY, B, R
0, 0, 1, 3, 1, 0.516000
0, 0, 2, 1, 1, 0.636000
0, 0, 3, 2, 1, 0.304000
0, 0, 4, 0, 1, 1.000000
0, 0, 6, 6, 1, 0.209000
0, 0, 6, 5, 1, 0.118000
0, 0, 0, 4, 1, 0.249000
0, 0, 0, 3, 1, 0.396000
0, 0, 6, 6, 1, 0.660000
0, 0, 4, 6, 1, 0.974000
1, 0, 4, 1, 1, 0.071000
1, 0, 6, 3, 1, 0.432000
1, 0, 0, 1, 1, 0.115000
1, 0, 1, 5, 1, 0.537000
1, 0, 6, 5, 1, 0.113000
1, 0, 6, 0, 1, 0.055000
1, 0, 1, 3, 1, 0.785000
1, 0, 4, 2, 1, 0.833000
1, 0, 4, 0, 1, 0.334000
1, 0, 4, 0, 1, 0.468000
2, 0, 2, 5, 1, 0.793000
2, 0, 6, 0, 1, 0.318000
2, 0, 3, 6, 1, 0.780000
2, 0, 6, 0, 1, 0.991000
2, 0, 3, 1, 1, 0.923000
2, 0, 4, 0, 1, 0.579000
2, 0, 4, 6, 1, 0.252000
2, 0, 1, 0, 1, 0.265000
2, 0, 4, 4, 1, 0.020000
2, 0, 3, 0, 1, 0.434000
3, 0, 3, 4, 1, 0.532000
3, 0, 4, 6, 1, 0.338000
3, 0, 4, 2, 1, 0.553000
3, 0, 6, 3, 1, 0.584000
3, 0, 1, 5, 1, 0.079000
3, 0, 5, 2, 1, 0.437000
3, 0, 5, 0, 1, 0.408000
3, 0, 0, 6, 1, 0.626000
3, 0, 0, 0, 1, 0.888000
3, 0, 2, 6, 1, 0.798000
4, 0, 3, 6, 1, 0.070000
4, 0, 2, 0, 1, 0.427000
4, 0, 2, 1, 1, 0.091000
4, 0, 3, 3, 1, 0.008000
4, 0, 1, 4, 1, 0.360000
4, 0, 4, 6, 1, 0.992000
4, 0, 3, 0, 1, 0.905000
4, 0, 4, 6, 1, 0.680000
4, 0, 3, 5, 1, 0.568000
4, 0, 1, 0, 1, 0.855000
5, 0, 4, 1, 1, 0.664000
5, 0, 2, 4, 1, 0.782000
5, 0, 1, 1, 1, 0.476000
5, 0, 0, 3, 1, 0.752000
5, 0, 5, 3, 1, 0.299000
5, 0, 1, 2, 1, 0.371000
5, 0, 1, 6, 1, 0.933000
5, 0, 4, 3, 1, 0.236000
5, 0, 3, 2, 1, 0.435000
5, 0, 2, 0, 1, 0.057000
6, 0, 0, 0, 1, 0.477000
6, 0, 4, 4, 1, 0.960000
6, 0, 2, 5, 1, 0.195000
6, 0, 4, 6, 1, 0.376000
6, 0, 1, 3, 1, 0.377000
6, 0, 5, 5, 1, 0.917000
6, 0, 1, 2, 1, 0.256000
6, 0, 6, 2, 1, 0.127000
6, 0, 0, 4, 1, 0.270000
6, 0, 1, 5, 1, 0.732000
0, 1, 4, 0, 1, 0.266000
0, 1, 5, 6, 1, 0.063000
0, 1, 5, 2, 1, 0.693000
0, 1, 6, 5, 1, 0.593000
0, 1, 4, 2, 1, 0.060000
0, 1, 4, 1, 1, 0.029000
0, 1, 3, 3, 1, 0.841000
0, 1, 0, 4, 1, 0.539000
0, 1, 5, 5, 1, 0.531000
0, 1, 0, 5, 1, 0.671000
1, 1, 6, 2, 1, 0.689000
1, 1, 0, 3, 1, 0.891000
1, 1, 2, 4, 1, 0.196000
1, 1, 1, 3, 1, 0.461000
1, 1, 3, 1, 1, 0.617000
1, 1, 0, 1, 1, 0.512000
1, 1, 1, 4, 1, 0.632000
1, 1, 6, 1, 1, 0.732000
1, 1, 5, 6, 1, 0.592000
1, 1, 1, 5, 1, 0.366000
2, 1, 2, 3, 1, 0.415000
2, 1, 0, 4, 1, 0.972000
2, 1, 5, 0, 1, 0.855000
2, 1, 3, 1, 1, 0.119000
2, 1, 5, 4, 1, 0.472000
2, 1, 1, 4, 1, 0.293000
2, 1, 4, 3, 1, 0.670000
2, 1, 5, 3, 1, 0.407000
2, 1, 2, 6, 1, 0.048000
2, 1, 6, 5, 1, 0.614000
3, 1, 3, 6, 1, 0.734000
3, 1, 3, 6, 1, 0.471000
3, 1, 3, 5, 1, 0.979000
3, 1, 2, 4, 1, 0.582000
3, 1, 3, 2, 1, 0.738000
3, 1, 0, 0, 1, 0.746000
3, 1, 1, 2, 1, 0.337000
3, 1, 2, 5, 1, 0.803000
3, 1, 5, 5, 1, 0.106000
3, 1, 0, 6, 1, 0.664000
4, 1, 1, 1, 1, 0.008000
4, 1, 2, 1, 1, 0.601000
4, 1, 0, 5, 1, 0.419000
4, 1, 3, 2, 1, 0.079000
4, 1, 6, 1, 1, 0.300000
4, 1, 2, 2, 1, 0.409000
4, 1, 5, 5, 1, 0.158000
4, 1, 4, 2, 1, 0.604000
4, 1, 4, 5, 1, 0.883000
4, 1, 6, 3, 1, 0.113000
5, 1, 3, 2, 1, 0.202000
5, 1, 6, 1, 1, 0.305000
5, 1, 5, 6, 1, 0.444000
5, 1, 0, 1, 1, 0.668000
5, 1, 4, 4, 1, 0.280000
5, 1, 6, 0, 1, 0.271000
5, 1, 3, 5, 1, 0.160000
5, 1, 1, 5, 1, 0.603000
5, 1, 0, 6, 1, 0.029000
5, 1, 2, 3, 1, 0.344000
6, 1, 0, 1, 1, 0.819000
6, 1, 6, 3, 1, 0.064000
6, 1, 5, 3, 1, 0.312000
6, 1, 0, 1, 1, 0.011000
6, 1, 1, 4, 1, 0.554000
6, 1, 1, 1, 1, 0.015000
6, 1, 2, 1, 1, 0.342000
6, 1, 6, 6, 1, 0.100000
6, 1, 4, 4, 1, 0.571000
6, 1, 1, 4, 1, 0.578000
0, 2, 3, 3, 1, 0.412000
0, 2, 6, 4, 1, 0.111000
0, 2, 3, 3, 1, 0.389000
0, 2, 6, 6, 1, 0.847000
0, 2, 3, 5, 1, 0.483000
0, 2, 4, 2, 1, 0.189000
0, 2, 1, 6, 1, 0.441000
0, 2, 3, 6, 1, 0.859000
0, 2, 2, 0, 1, 0.598000
0, 2, 1, 4, 1, 0.990000
1, 2, 2, 3, 1, 0.095000
1, 2, 5, 4, 1, 0.350000
1, 2, 0, 5, 1, 0.046000
1, 2, 3, 4, 1, 0.575000
1, 2, 2, 3, 1, 0.993000
1, 2, 1, 6, 1, 0.941000
1, 2, 3, 3, 1, 0.914000
1, 2, 0, 2, 1, 0.725000
1, 2, 2, 5, 1, 0.403000
1, 2, 0, 2, 1, 0.774000
2, 2, 0, 6, 1, 0.308000
2, 2, 0, 3, 1, 0.052000
2, 2, 0, 2, 1, 0.576000
2, 2, 2, 0, 1, 0.058000
2, 2, 2, 3, 1, 0.940000
2, 2, 4, 0, 1, 0.881000
2, 2, 0, 5, 1, 0.341000
2, 2, 2, 0, 1, 0.609000
2, 2, 5, 1, 1, 0.588000
2, 2, 0, 4, 1, 0.406000
3, 2, 3, 4, 1, 0.922000
3, 2, 0, 6, 1, 0.678000
3, 2, 3, 3, 1, 0.269000
3, 2, 1, 2, 1, 0.211000
3, 2, 6, 0, 1, 0.515000
3, 2, 2, 2, 1, 0.948000
3, 2, 2, 0, 1, 0.169000
3, 2, 2, 4, 1, 0.063000
3, 2, 6, 6, 1, 0.763000
3, 2, 6, 6, 1, 0.695000
4, 2, 1, 2, 1, 0.576000
4, 2, 4, 5, 1, 0.652000
4, 2, 1, 4, 1, 0.252000
4, 2, 4, 5, 1, 0.149000
4, 2, 5, 5, 1, 0.752000
4, 2, 1, 2, 1, 0.313000
4, 2, 1, 2, 1, 0.728000
4, 2, 2, 2, 1, 0.624000
4, 2, 1, 6, 1, 0.170000
4, 2, 6, 6, 1, 0.666000
5, 2, 1, 1, 1, 0.900000
5, 2, 4, 6, 1, 0.302000
5, 2, 2, 4, 1, 0.417000
5, 2, 2, 1, 1, 0.145000
5, 2, 4, 1, 1, 0.475000
5, 2, 0, 2, 1, 0.206000
5, 2, 5, 0, 1, 0.493000
5, 2, 3, 6, 1, 0.765000
5, 2, 4, 5, 1, 0.557000
5, 2, 6, 6, 1, 0.911000
6, 2, 5, 1, 1, 0.884000
6, 2, 6, 5, 1, 0.557000
6, 2, 2, 2, 1, 0.594000
6, 2, 6, 6, 1, 0.587000
6, 2, 4, 4, 1, 0.170000
6, 2, 5, 3, 1, 0.800000
6, 2, 5, 1, 1, 0.267000
6, 2, 3, 1, 1, 0.853000
6, 2, 3, 0, 1, 0.201000
6, 2, 4, 2, 1, 0.742000
0, 3, 2, 1, 1, 0.894000
0, 3, 1, 3, 1, 0.317000
0, 3, 6, 3, 1, 0.298000
0, 3, 5, 6, 1, 0.459000
0, 3, 3, 3, 1, 0.446000
0, 3, 6, 1, 1, 0.546000
0, 3, 4, 3, 1, 0.757000
0, 3, 6, 3, 1, 0.639000
0, 3, 3, 6, 1, 0.226000
0, 3, 6, 3, 1, 0.019000
1, 3, 5, 6, 1, 0.332000
1, 3, 3, 1, 1, 0.625000
1, 3, 1, 0, 1, 0.918000
1, 3, 0, 5, 1, 0.841000
1, 3, 0, 3, 1, 0.486000
1, 3, 1, 5, 1, 0.535000
1, 3, 0, 1, 1, 0.364000
1, 3, 6, 6, 1, 0.673000
1, 3, 6, 1, 1, 0.822000
1, 3, 5, 1, 1, 0.032000
2, 3, 3, 3, 1, 0.761000
2, 3, 3, 6, 1, 0.526000
2, 3, 2, 6, 1, 0.023000
2, 3, 2, 4, 1, 0.287000
2, 3, 4, 6, 1, 0.906000
2, 3, 6, 6, 1, 0.420000
2, 3, 0, 3, 1, 0.505000
2, 3, 0, 4, 1, 0.804000
2, 3, 4, 0, 1, 0.294000
2, 3, 2, 1, 1, 0.323000
3, 3, 5, 3, 1, 0.477000
3, 3, 3, 4, 1, 0.717000
3, 3, 0, 0, 1, 0.572000
3, 3, 0, 3, 1, 0.323000
3, 3, 1, 1, 1, 0.858000
3, 3, 6, 2, 1, 0.341000
3, 3, 6, 2, 1, 0.353000
3, 3, 0, 4, 1, 0.672000
3, 3, 1, 0, 1, 0.053000
3, 3, 4, 3, 1, 0.257000
4, 3, 4, 5, 1, 0.923000
4, 3, 4, 4, 1, 0.032000
4, 3, 5, 6, 1, 0.259000
4, 3, 4, 6, 1, 0.746000
4, 3, 5, 3, 1, 0.804000
4, 3, 1, 6, 1, 0.170000
4, 3, 6, 6, 1, 0.914000
4, 3, 4, 1, 1, 0.626000
4, 3, 2, 0, 1, 0.309000
4, 3, 4, 0, 1, 0.622000
5, 3, 3, 5, 1, 0.382000
5, 3, 5, 5, 1, 0.212000
5, 3, 2, 4, 1, 0.919000
5, 3, 0, 2, 1, 0.752000
5, 3, 2, 3, 1, 0.982000
5, 3, 6, 2, 1, 0.295000
5, 3, 5, 5, 1, 0.292000
5, 3, 0, 5, 1, 0.542000
5, 3, 0, 3, 1, 0.094000
5, 3, 2, 2, 1, 0.281000
6, 3, 1, 1, 1, 0.761000
6, 3, 4, 5, 1, 0.222000
6, 3, 6, 5, 1, 0.991000
6, 3, 4, 3, 1, 0.274000
6, 3, 3, 1, 1, 0.649000
6, 3, 3, 2, 1, 0.621000
6, 3, 2, 6, 1, 0.998000
6, 3, 5, 3, 1, 0.052000
6, 3, 3, 2, 1, 0.342000
6, 3, 6, 4, 1, 0.309000
0, 4, 1, 0, 1, 0.645000
0, 4, 4, 5, 1, 0.889000
0, 4, 5, 0, 1, 0.542000
0, 4, 0, 6, 1, 0.879000
0, 4, 5, 4, 1, 0.833000
0, 4, 3, 4, 1, 0.904000
0, 4, 6, 1, 1, 0.443000
0, 4, 0, 5, 1, 0.246000
0, 4, 0, 5, 1, 0.716000
0, 4, 4, 6, 1, 0.058000
1, 4, 2, 0, 1, 0.733000
1, 4, 6, 2, 1, 0.163000
1, 4, 6, 3, 1, 0.342000
1, 4, 1, 2, 1, 0.094000
1, 4, 0, 6, 1, 0.061000
1, 4, 5, 3, 1, 0.003000
1, 4, 2, 6, 1, 0.129000
1, 4, 6, 3, 1, 0.669000
1, 4, 0, 2, 1, 0.097000
1, 4, 0, 1, 1, 0.304000
2, 4, 1, 3, 1, 0.946000
2, 4, 4, 4, 1, 0.044000
2, 4, 3, 4, 1, 0.418000
2, 4, 3, 6, 1, 0.011000
2, 4, 3, 6, 1, 0.709000
2, 4, 6, 2, 1, 0.078000
2, 4, 1, 1, 1, 0.864000
2, 4, 1, 6, 1, 0.735000
2, 4, 6, 4, 1, 0.428000
2, 4, 5, 1, 1, 0.935000
3, 4, 6, 2, 1, 0.349000
3, 4, 2, 3, 1, 0.088000
3, 4, 4, 1, 1, 0.197000
3, 4, 0, 0, 1, 0.550000
3, 4, 3, 0, 1, 0.719000
3, 4, 4, 6, 1, 0.613000
3, 4, 4, 1, 1, 0.283000
3, 4, 3, 5, 1, 0.844000
3, 4, 3, 2, 1, 0.686000
3, 4, 6, 4, 1, 0.840000
4, 4, 0, 4, 1, 0.822000
4, 4, 0, 4, 1, 0.403000
4, 4, 5, 6, 1, 0.820000
4, 4, 4, 3, 1, 0.183000
4, 4, 3, 6, 1, 0.875000
4, 4, 5, 2, 1, 0.420000
4, 4, 3, 5, 1, 0.148000
4, 4, 3, 3, 1, 0.240000
4, 4, 6, 2, 1, 0.500000
4, 4, 4, 0, 1, 0.338000
5, 4, 5, 0, 1, 0.896000
5, 4, 2, 5, 1, 0.570000
5, 4, 5, 3, 1, 0.423000
5, 4, 5, 0, 1, 0.996000
5, 4, 0, 0, 1, 0.042000
5, 4, 0, 1, 1, 0.006000
5, 4, 6, 0, 1, 0.552000
5, 4, 1, 4, 1, 0.024000
5, 4, 5, 5, 1, 0.975000
5, 4, 2, 4, 1, 0.178000
6, 4, 5, 3, 1, 0.332000
6, 4, 3, 3, 1, 0.570000
6, 4, 1, 4, 1, 0.202000
6, 4, 3, 0, 1, 0.376000
6, 4, 6, 5, 1, 0.593000
6, 4, 2, 4, 1, 0.546000
6, 4, 2, 3, 1, 0.158000
6, 4, 6, 0, 1, 0.342000
6, 4, 0, 4, 1, 0.219000
6, 4, 2, 6, 1, 0.257000
0, 5, 6, 3, 1, 0.437000
0, 5, 4, 5, 1, 0.741000
0, 5, 3, 2, 1, 0.156000
0, 5, 2, 1, 1, 0.745000
0, 5, 5, 3, 1, 0.659000
0, 5, 0, 4, 1, 0.118000
0, 5, 0, 0, 1, 0.843000
0, 5, 3, 0, 1, 0.452000
0, 5, 1, 5, 1, 0.265000
0, 5, 2, 2, 1, 0.984000
1, 5, 5, 2, 1, 0.681000
1, 5, 3, 1, 1, 0.468000
1, 5, 1, 2, 1, 0.243000
1, 5, 4, 6, 1, 0.771000
1, 5, 3, 0, 1, 0.802000
1, 5, 1, 1, 1, 0.105000
1, 5, 0, 4, 1, 0.089000
1, 5, 1, 0, 1, 0.247000
1, 5, 3, 5, 1, 0.301000
1, 5, 1, 1, 1, 0.536000
2, 5, 0, 0, 1, 0.498000
2, 5, 6, 5, 1, 0.513000
2, 5, 2, 1, 1, 0.728000
2, 5, 3, 2, 1, 0.581000
2, 5, 3, 4, 1, 0.164000
2, 5, 1, 5, 1, 0.472000
2, 5, 2, 0, 1, 0.845000
2, 5, 3, 4, 1, 0.286000
2, 5, 3, 3, 1, 0.643000
2, 5, 3, 0, 1, 0.252000
3, 5, 6, 3, 1, 0.866000
3, 5, 3, 4, 1, 0.592000
3, 5, 1, 0, 1, 0.504000
3, 5, 3, 4, 1, 0.065000
3, 5, 3, 4, 1, 0.940000
3, 5, 5, 2, 1, 0.822000
3, 5, 2, 4, 1, 0.184000
3, 5, 1, 6, 1, 0.248000
3, 5, 3, 3, 1, 0.715000
3, 5, 1, 0, 1, 0.148000
4, 5, 4, 6, 1, 0.438000
4, 5, 2, 0, 1, 0.456000
4, 5, 0, 5, 1, 0.108000
4, 5, 1, 6, 1, 0.288000
4, 5, 3, 6, 1, 0.232000
4, 5, 3, 0, 1, 0.636000
4, 5, 0, 5, 1, 0.929000
4, 5, 2, 5, 1, 0.087000
4, 5, 5, 4, 1, 0.808000
4, 5, 2, 1, 1, 0.125000
5, 5, 5, 0, 1, 0.904000
5, 5, 5, 6, 1, 0.651000
5, 5, 0, 4, 1, 0.006000
5, 5, 0, 0, 1, 0.240000
5, 5, 0, 5, 1, 0.943000
5, 5, 1, 1, 1, 0.782000
5, 5, 5, 6, 1, 0.975000
5, 5, 5, 2, 1, 0.628000
5, 5, 2, 2, 1, 0.017000
5, 5, 2, 3, 1, 0.605000
6, 5, 1, 4, 1, 0.020000
6, 5, 0, 3, 1, 0.745000
6, 5, 1, 2, 1, 0.843000
6, 5, 6, 4, 1, 0.268000
6, 5, 5, 2, 1, 0.828000
6, 5, 4, 2, 1, 0.044000
6, 5, 5, 6, 1, 0.312000
6, 5, 2, 3, 1, 0.943000
6, 5, 4, 5, 1, 0.189000
6, 5, 1, 0, 1, 0.476000
0, 6, 0, 5, 1, 0.605000
0, 6, 1, 5, 1, 0.981000
0, 6, 4, 2, 1, 0.875000
0, 6, 6, 3, 1, 0.214000
0, 6, 0, 1, 1, 0.650000
0, 6, 2, 2, 1, 0.182000
0, 6, 0, 3, 1, 0.523000
0, 6, 2, 0, 1, 0.159000
0, 6, 3, 3, 1, 0.208000
0, 6, 5, 5, 1, 0.297000
1, 6, 2, 6, 1, 0.229000
1, 6, 5, 6, 1, 0.864000
1, 6, 1, 2, 1, 0.213000
1, 6, 3, 1, 1, 0.791000
1, 6, 2, 3, 1, 0.401000
1, 6, 3, 3, 1, 0.390000
1, 6, 0, 5, 1, 0.379000
1, 6, 4, 6, 1, 0.928000
1, 6, 2, 6, 1, 0.959000
1, 6, 1, 1, 1, 0.980000
2, 6, 5, 0, 1, 0.555000
2, 6, 6, 2, 1, 0.149000
2, 6, 1, 4, 1, 0.046000
2, 6, 3, 4, 1, 0.795000
2, 6, 3, 6, 1, 0.495000
2, 6, 2, 0, 1, 0.655000
2, 6, 3, 0, 1, 0.767000
2, 6, 5, 0, 1, 0.793000
2, 6, 3, 5, 1, 0.363000
2, 6, 6, 2, 1, 0.425000
3, 6, 3, 5, 1, 0.777000
3, 6, 6, 0, 1, 0.397000
3, 6, 6, 0, 1, 0.658000
3, 6, 2, 0, 1, 0.840000
3, 6, 3, 5, 1, 0.039000
3, 6, 2, 0, 1, 0.732000
3, 6, 6, 1, 1, 0.430000
3, 6, 6, 3, 1, 0.601000
3, 6, 1, 3, 1, 0.867000
3, 6, 3, 0, 1, 0.384000
4, 6, 1, 3, 1, 0.255000
4, 6, 2, 2, 1, 0.783000
4, 6, 6, 1, 1, 0.183000
4, 6, 2, 6, 1, 0.816000
4, 6, 4, 0, 1, 0.479000
4, 6, 1, 0, 1, 0.519000
4, 6, 5, 6, 1, 0.991000
4, 6, 2, 6, 1, 0.217000
4, 6, 0, 6, 1, 0.946000
4, 6, 5, 1, 1, 0.282000
5, 6, 4, 6, 1, 0.011000
5, 6, 5, 4, 1, 0.055000
5, 6, 3, 0, 1, 0.839000
5, 6, 2, 1, 1, 0.187000
5, 6, 0, 6, 1, 0.519000
5, 6, 4, 6, 1, 0.077000
5, 6, 6, 6, 1, 0.367000
5, 6, 4, 6, 1, 0.657000
5, 6, 5, 2, 1, 0.662000
5, 6, 0, 3, 1, 0.931000
6, 6, 1, 0, 1, 0.551000
6, 6, 5, 5, 1, 0.035000
6, 6, 6, 2, 1, 0.122000
6, 6, 0, 2, 1, 0.778000
6, 6, 1, 5, 1, 0.676000
6, 6, 6, 1, 1, 0.113000
6, 6, 0, 0, 1, 0.596000
6, 6, 4, 0, 1, 0.875000
6, 6, 5, 1, 1, 0.011000
6, 6, 4, 1, 1, 0.087000
