sX, sY, dX, dY, B, R
0, 0, 2, 0, 1, 0.155000
1, 0, 0, 0, 1, 0.193000
2, 0, 0, 0, 1, 0.180000
0, 1, 1, 0, 1, 0.126000
1, 1, 2, 0, 1, 0.118000
2, 1, 2, 2, 1, 0.138000
0, 2, 2, 0, 1, 0.205000
1, 2, 0, 2, 1, 0.197000
2, 2, 1, 2, 1, 0.183000
