sX, sY, dX, dY, B, R
0, 0, 5, 2, 1, 0.663000
1, 0, 2, 6, 1, 0.628000
2, 0, 1, 5, 1, 0.179000
3, 0, 2, 3, 1, 0.309000
4, 0, 0, 4, 1, 0.214000
5, 0, 2, 4, 1, 0.083000
6, 0, 6, 4, 1, 0.838000
0, 1, 5, 1, 1, 0.408000
1, 1, 1, 3, 1, 0.212000
2, 1, 5, 3, 1, 0.898000
3, 1, 3, 4, 1, 0.018000
4, 1, 4, 0, 1, 0.963000
5, 1, 2, 6, 1, 0.679000
6, 1, 1, 5, 1, 0.137000
0, 2, 3, 5, 1, 0.449000
1, 2, 5, 0, 1, 0.451000
2, 2, 0, 5, 1, 0.558000
3, 2, 4, 5, 1, 0.823000
4, 2, 3, 0, 1, 0.694000
5, 2, 5, 6, 1, 0.344000
6, 2, 0, 1, 1, 0.850000
0, 3, 6, 5, 1, 0.926000
1, 3, 6, 5, 1, 0.198000
2, 3, 0, 1, 1, 0.316000
3, 3, 6, 3, 1, 0.436000
4, 3, 1, 3, 1, 0.872000
5, 3, 3, 3, 1, 0.764000
6, 3, 0, 0, 1, 0.409000
0, 4, 5, 6, 1, 0.283000
1, 4, 6, 4, 1, 0.349000
2, 4, 5, 3, 1, 0.615000
3, 4, 6, 5, 1, 0.073000
4, 4, 0, 6, 1, 0.713000
5, 4, 0, 6, 1, 0.023000
6, 4, 5, 3, 1, 0.782000
0, 5, 1, 6, 1, 0.909000
1, 5, 6, 0, 1, 0.956000
2, 5, 5, 0, 1, 0.521000
3, 5, 5, 4, 1, 0.888000
4, 5, 4, 1, 1, 0.734000
5, 5, 5, 3, 1, 0.840000
6, 5, 4, 5, 1, 0.917000
0, 6, 6, 2, 1, 0.197000
1, 6, 0, 6, 1, 0.021000
2, 6, 2, 4, 1, 0.849000
3, 6, 5, 0, 1, 0.790000
4, 6, 3, 3, 1, 0.585000
5, 6, 6, 1, 1, 0.983000
6, 6, 0, 0, 1, 0.129000
