sX, sY, dX, dY, B, R
0, 0, 2, 0, 1, 0.104000
0, 0, 0, 3, 1, 0.113000
0, 0, 3, 0, 1, 0.095000
0, 0, 2, 3, 1, 0.077000
0, 0, 1, 1, 1, 0.080000
0, 0, 1, 0, 1, 0.070000
0, 0, 2, 0, 1, 0.082000
0, 0, 2, 1, 1, 0.094000
0, 0, 0, 2, 1, 0.077000
0, 0, 2, 2, 1, 0.088000
0, 0, 3, 1, 1, 0.110000
0, 0, 1, 0, 1, 0.083000
0, 0, 1, 3, 1, 0.113000
0, 0, 1, 2, 1, 0.123000
0, 0, 2, 0, 1, 0.099000
0, 0, 1, 0, 1, 0.119000
0, 0, 3, 1, 1, 0.116000
0, 0, 0, 1, 1, 0.095000
0, 0, 1, 2, 1, 0.087000
0, 0, 3, 0, 1, 0.124000
0, 0, 0, 3, 1, 0.120000
0, 0, 3, 3, 1, 0.102000
0, 0, 0, 2, 1, 0.121000
0, 0, 0, 3, 1, 0.103000
0, 0, 1, 3, 1, 0.101000
0, 0, 0, 3, 1, 0.064000
0, 0, 0, 3, 1, 0.078000
0, 0, 3, 0, 1, 0.116000
0, 0, 0, 3, 1, 0.073000
0, 0, 3, 0, 1, 0.085000
0, 0, 0, 1, 1, 0.101000
0, 0, 0, 2, 1, 0.113000
0, 0, 3, 3, 1, 0.078000
0, 0, 3, 3, 1, 0.114000
0, 0, 2, 0, 1, 0.098000
0, 0, 0, 2, 1, 0.085000
0, 0, 3, 3, 1, 0.085000
0, 0, 1, 2, 1, 0.089000
0, 0, 3, 3, 1, 0.072000
0, 0, 1, 2, 1, 0.090000
0, 0, 0, 2, 1, 0.091000
0, 0, 2, 0, 1, 0.067000
0, 0, 3, 2, 1, 0.084000
0, 0, 0, 1, 1, 0.108000
0, 0, 2, 3, 1, 0.119000
0, 0, 3, 2, 1, 0.072000
0, 0, 3, 1, 1, 0.124000
0, 0, 3, 0, 1, 0.113000
0, 0, 0, 2, 1, 0.103000
0, 0, 3, 2, 1, 0.077000
0, 0, 0, 3, 1, 0.113000
0, 0, 0, 3, 1, 0.111000
0, 0, 0, 2, 1, 0.067000
0, 0, 2, 2, 1, 0.068000
0, 0, 0, 3, 1, 0.106000
0, 0, 1, 2, 1, 0.116000
0, 0, 1, 0, 1, 0.078000
0, 0, 3, 1, 1, 0.111000
0, 0, 1, 3, 1, 0.122000
0, 0, 0, 1, 1, 0.086000
0, 0, 1, 0, 1, 0.111000
0, 0, 1, 3, 1, 0.091000
0, 0, 3, 2, 1, 0.125000
0, 0, 0, 2, 1, 0.063000
0, 0, 2, 0, 1, 0.064000
1, 0, 0, 0, 1, 0.120000
1, 0, 1, 1, 1, 0.082000
1, 0, 3, 0, 1, 0.103000
1, 0, 2, 1, 1, 0.115000
1, 0, 2, 1, 1, 0.119000
1, 0, 2, 3, 1, 0.113000
1, 0, 1, 1, 1, 0.105000
1, 0, 3, 0, 1, 0.115000
1, 0, 2, 1, 1, 0.093000
1, 0, 0, 0, 1, 0.093000
1, 0, 2, 0, 1, 0.096000
1, 0, 2, 1, 1, 0.076000
1, 0, 3, 3, 1, 0.077000
1, 0, 2, 0, 1, 0.077000
1, 0, 1, 2, 1, 0.074000
1, 0, 2, 0, 1, 0.113000
1, 0, 1, 2, 1, 0.118000
1, 0, 1, 2, 1, 0.112000
1, 0, 0, 1, 1, 0.066000
1, 0, 2, 0, 1, 0.119000
1, 0, 3, 1, 1, 0.107000
1, 0, 3, 1, 1, 0.115000
1, 0, 0, 3, 1, 0.114000
1, 0, 2, 0, 1, 0.075000
1, 0, 3, 2, 1, 0.103000
1, 0, 1, 1, 1, 0.083000
1, 0, 1, 2, 1, 0.123000
1, 0, 1, 3, 1, 0.115000
1, 0, 1, 1, 1, 0.118000
1, 0, 0, 0, 1, 0.079000
1, 0, 0, 1, 1, 0.111000
1, 0, 1, 2, 1, 0.086000
1, 0, 2, 1, 1, 0.100000
1, 0, 3, 3, 1, 0.082000
1, 0, 3, 0, 1, 0.070000
1, 0, 3, 1, 1, 0.098000
1, 0, 1, 1, 1, 0.094000
1, 0, 2, 2, 1, 0.089000
1, 0, 2, 3, 1, 0.072000
1, 0, 3, 1, 1, 0.082000
1, 0, 0, 1, 1, 0.093000
1, 0, 3, 1, 1, 0.103000
1, 0, 1, 2, 1, 0.066000
1, 0, 1, 2, 1, 0.073000
1, 0, 0, 0, 1, 0.073000
1, 0, 1, 3, 1, 0.099000
1, 0, 1, 3, 1, 0.105000
1, 0, 1, 3, 1, 0.081000
1, 0, 2, 2, 1, 0.121000
1, 0, 0, 0, 1, 0.102000
1, 0, 2, 3, 1, 0.083000
1, 0, 0, 1, 1, 0.076000
1, 0, 0, 2, 1, 0.093000
1, 0, 2, 3, 1, 0.116000
1, 0, 2, 0, 1, 0.125000
1, 0, 1, 3, 1, 0.081000
1, 0, 1, 3, 1, 0.073000
1, 0, 3, 1, 1, 0.095000
1, 0, 2, 1, 1, 0.099000
1, 0, 1, 2, 1, 0.122000
1, 0, 3, 0, 1, 0.081000
1, 0, 3, 2, 1, 0.066000
1, 0, 3, 0, 1, 0.066000
1, 0, 2, 1, 1, 0.095000
1, 0, 0, 1, 1, 0.085000
1, 0, 2, 0, 1, 0.112000
1, 0, 3, 0, 1, 0.112000
1, 0, 2, 3, 1, 0.081000
1, 0, 1, 3, 1, 0.102000
1, 0, 0, 3, 1, 0.123000
1, 0, 1, 1, 1, 0.119000
1, 0, 1, 1, 1, 0.096000
1, 0, 3, 2, 1, 0.093000
1, 0, 2, 0, 1, 0.094000
1, 0, 2, 3, 1, 0.073000
1, 0, 3, 0, 1, 0.081000
1, 0, 1, 1, 1, 0.094000
1, 0, 2, 1, 1, 0.114000
1, 0, 2, 0, 1, 0.070000
1, 0, 1, 1, 1, 0.090000
1, 0, 1, 2, 1, 0.070000
1, 0, 1, 1, 1, 0.099000
1, 0, 2, 1, 1, 0.072000
1, 0, 3, 2, 1, 0.094000
1, 0, 0, 3, 1, 0.097000
1, 0, 1, 1, 1, 0.093000
1, 0, 1, 3, 1, 0.102000
1, 0, 0, 2, 1, 0.084000
1, 0, 1, 2, 1, 0.115000
1, 0, 1, 2, 1, 0.118000
1, 0, 2, 1, 1, 0.076000
1, 0, 0, 0, 1, 0.072000
1, 0, 0, 0, 1, 0.081000
1, 0, 2, 0, 1, 0.106000
2, 0, 2, 2, 1, 0.113000
2, 0, 1, 0, 1, 0.077000
2, 0, 0, 3, 1, 0.097000
2, 0, 2, 3, 1, 0.102000
2, 0, 1, 3, 1, 0.106000
2, 0, 3, 1, 1, 0.119000
2, 0, 3, 3, 1, 0.083000
2, 0, 0, 3, 1, 0.117000
2, 0, 2, 2, 1, 0.106000
2, 0, 0, 1, 1, 0.075000
2, 0, 2, 3, 1, 0.123000
2, 0, 1, 2, 1, 0.065000
2, 0, 3, 3, 1, 0.116000
2, 0, 1, 0, 1, 0.108000
2, 0, 0, 3, 1, 0.063000
2, 0, 2, 3, 1, 0.064000
2, 0, 3, 0, 1, 0.073000
2, 0, 0, 0, 1, 0.075000
2, 0, 3, 1, 1, 0.090000
2, 0, 0, 3, 1, 0.105000
2, 0, 1, 1, 1, 0.092000
2, 0, 1, 0, 1, 0.071000
2, 0, 2, 1, 1, 0.109000
2, 0, 0, 0, 1, 0.096000
2, 0, 0, 3, 1, 0.107000
2, 0, 2, 2, 1, 0.114000
2, 0, 0, 0, 1, 0.066000
2, 0, 1, 1, 1, 0.090000
2, 0, 2, 2, 1, 0.099000
2, 0, 0, 0, 1, 0.070000
2, 0, 3, 3, 1, 0.081000
2, 0, 1, 3, 1, 0.085000
2, 0, 2, 2, 1, 0.081000
2, 0, 1, 1, 1, 0.077000
2, 0, 1, 1, 1, 0.092000
2, 0, 2, 3, 1, 0.063000
2, 0, 0, 0, 1, 0.074000
2, 0, 3, 1, 1, 0.087000
2, 0, 3, 2, 1, 0.082000
2, 0, 2, 1, 1, 0.068000
2, 0, 3, 2, 1, 0.087000
2, 0, 2, 2, 1, 0.063000
2, 0, 2, 1, 1, 0.113000
2, 0, 3, 0, 1, 0.086000
2, 0, 2, 1, 1, 0.123000
2, 0, 0, 0, 1, 0.079000
2, 0, 0, 0, 1, 0.124000
2, 0, 2, 1, 1, 0.121000
2, 0, 2, 2, 1, 0.100000
2, 0, 1, 1, 1, 0.083000
2, 0, 0, 3, 1, 0.100000
2, 0, 2, 2, 1, 0.101000
2, 0, 1, 2, 1, 0.116000
2, 0, 3, 3, 1, 0.102000
2, 0, 1, 3, 1, 0.115000
2, 0, 3, 2, 1, 0.067000
2, 0, 0, 0, 1, 0.124000
3, 0, 0, 1, 1, 0.069000
3, 0, 3, 3, 1, 0.121000
3, 0, 0, 2, 1, 0.119000
3, 0, 1, 0, 1, 0.078000
3, 0, 1, 0, 1, 0.097000
3, 0, 2, 3, 1, 0.084000
3, 0, 3, 1, 1, 0.082000
3, 0, 2, 1, 1, 0.103000
3, 0, 3, 1, 1, 0.113000
3, 0, 0, 3, 1, 0.112000
3, 0, 0, 0, 1, 0.104000
3, 0, 0, 2, 1, 0.094000
3, 0, 3, 2, 1, 0.070000
3, 0, 3, 3, 1, 0.114000
3, 0, 3, 3, 1, 0.108000
3, 0, 2, 1, 1, 0.103000
3, 0, 2, 0, 1, 0.101000
3, 0, 0, 3, 1, 0.085000
3, 0, 1, 3, 1, 0.091000
3, 0, 2, 2, 1, 0.122000
3, 0, 3, 1, 1, 0.099000
3, 0, 2, 2, 1, 0.072000
3, 0, 3, 2, 1, 0.121000
3, 0, 3, 2, 1, 0.119000
3, 0, 2, 0, 1, 0.086000
3, 0, 0, 3, 1, 0.101000
3, 0, 1, 0, 1, 0.095000
3, 0, 2, 1, 1, 0.103000
3, 0, 2, 2, 1, 0.097000
3, 0, 2, 2, 1, 0.120000
3, 0, 1, 0, 1, 0.121000
3, 0, 1, 1, 1, 0.092000
3, 0, 0, 2, 1, 0.099000
3, 0, 3, 2, 1, 0.074000
3, 0, 3, 2, 1, 0.077000
3, 0, 2, 3, 1, 0.090000
3, 0, 1, 1, 1, 0.079000
3, 0, 3, 3, 1, 0.111000
3, 0, 0, 3, 1, 0.077000
3, 0, 0, 0, 1, 0.120000
3, 0, 3, 3, 1, 0.105000
3, 0, 0, 0, 1, 0.076000
3, 0, 1, 1, 1, 0.065000
3, 0, 1, 1, 1, 0.084000
3, 0, 0, 0, 1, 0.091000
3, 0, 1, 1, 1, 0.079000
3, 0, 2, 2, 1, 0.103000
3, 0, 3, 1, 1, 0.107000
3, 0, 3, 2, 1, 0.103000
3, 0, 2, 3, 1, 0.100000
3, 0, 2, 1, 1, 0.107000
3, 0, 3, 3, 1, 0.116000
3, 0, 2, 3, 1, 0.119000
3, 0, 2, 0, 1, 0.069000
3, 0, 1, 3, 1, 0.079000
3, 0, 0, 0, 1, 0.065000
3, 0, 2, 2, 1, 0.077000
3, 0, 1, 0, 1, 0.120000
3, 0, 3, 3, 1, 0.121000
3, 0, 1, 1, 1, 0.107000
3, 0, 3, 1, 1, 0.079000
3, 0, 1, 1, 1, 0.063000
3, 0, 2, 3, 1, 0.122000
3, 0, 3, 2, 1, 0.111000
3, 0, 1, 1, 1, 0.121000
3, 0, 2, 2, 1, 0.083000
3, 0, 0, 0, 1, 0.101000
3, 0, 0, 3, 1, 0.106000
3, 0, 0, 2, 1, 0.092000
3, 0, 3, 2, 1, 0.085000
3, 0, 3, 3, 1, 0.079000
3, 0, 0, 2, 1, 0.066000
3, 0, 1, 0, 1, 0.083000
3, 0, 3, 2, 1, 0.125000
3, 0, 3, 1, 1, 0.087000
3, 0, 1, 0, 1, 0.065000
3, 0, 3, 1, 1, 0.104000
3, 0, 3, 3, 1, 0.073000
3, 0, 3, 1, 1, 0.115000
3, 0, 1, 3, 1, 0.101000
3, 0, 2, 0, 1, 0.082000
3, 0, 1, 2, 1, 0.079000
3, 0, 1, 2, 1, 0.105000
3, 0, 1, 3, 1, 0.076000
3, 0, 0, 1, 1, 0.122000
3, 0, 1, 3, 1, 0.114000
0, 1, 2, 3, 1, 0.067000
0, 1, 3, 0, 1, 0.091000
0, 1, 2, 0, 1, 0.118000
0, 1, 0, 2, 1, 0.074000
0, 1, 3, 3, 1, 0.110000
0, 1, 2, 2, 1, 0.102000
0, 1, 2, 1, 1, 0.067000
0, 1, 2, 2, 1, 0.119000
0, 1, 2, 0, 1, 0.070000
0, 1, 2, 1, 1, 0.121000
0, 1, 0, 0, 1, 0.091000
0, 1, 1, 3, 1, 0.068000
0, 1, 3, 1, 1, 0.115000
0, 1, 3, 1, 1, 0.100000
0, 1, 3, 1, 1, 0.119000
0, 1, 3, 3, 1, 0.079000
0, 1, 2, 2, 1, 0.097000
0, 1, 2, 1, 1, 0.078000
0, 1, 0, 2, 1, 0.067000
0, 1, 0, 3, 1, 0.089000
0, 1, 0, 3, 1, 0.074000
0, 1, 3, 3, 1, 0.112000
0, 1, 3, 1, 1, 0.069000
0, 1, 1, 1, 1, 0.102000
0, 1, 1, 0, 1, 0.098000
0, 1, 1, 1, 1, 0.084000
0, 1, 1, 3, 1, 0.099000
0, 1, 3, 1, 1, 0.108000
0, 1, 0, 2, 1, 0.067000
0, 1, 0, 0, 1, 0.069000
0, 1, 2, 2, 1, 0.091000
0, 1, 0, 3, 1, 0.122000
0, 1, 1, 0, 1, 0.118000
0, 1, 1, 1, 1, 0.104000
0, 1, 0, 0, 1, 0.074000
0, 1, 1, 1, 1, 0.109000
0, 1, 0, 2, 1, 0.109000
0, 1, 0, 2, 1, 0.123000
0, 1, 2, 1, 1, 0.071000
0, 1, 1, 1, 1, 0.081000
0, 1, 3, 3, 1, 0.085000
0, 1, 1, 1, 1, 0.075000
0, 1, 3, 0, 1, 0.110000
0, 1, 2, 1, 1, 0.102000
0, 1, 3, 1, 1, 0.119000
0, 1, 0, 3, 1, 0.104000
0, 1, 1, 0, 1, 0.066000
0, 1, 1, 1, 1, 0.096000
0, 1, 3, 2, 1, 0.065000
0, 1, 0, 3, 1, 0.119000
0, 1, 2, 3, 1, 0.119000
0, 1, 0, 2, 1, 0.116000
0, 1, 2, 1, 1, 0.122000
0, 1, 2, 1, 1, 0.108000
0, 1, 3, 2, 1, 0.109000
0, 1, 2, 1, 1, 0.106000
0, 1, 0, 3, 1, 0.110000
0, 1, 3, 1, 1, 0.097000
0, 1, 1, 0, 1, 0.071000
0, 1, 0, 2, 1, 0.065000
0, 1, 3, 1, 1, 0.067000
0, 1, 3, 1, 1, 0.064000
0, 1, 2, 1, 1, 0.096000
0, 1, 3, 2, 1, 0.121000
0, 1, 1, 2, 1, 0.122000
0, 1, 3, 3, 1, 0.073000
0, 1, 2, 3, 1, 0.106000
0, 1, 2, 2, 1, 0.096000
0, 1, 1, 1, 1, 0.069000
0, 1, 1, 2, 1, 0.104000
0, 1, 0, 0, 1, 0.091000
0, 1, 0, 2, 1, 0.115000
0, 1, 1, 0, 1, 0.065000
0, 1, 2, 1, 1, 0.082000
0, 1, 1, 1, 1, 0.077000
0, 1, 2, 2, 1, 0.109000
0, 1, 3, 3, 1, 0.096000
0, 1, 2, 3, 1, 0.074000
0, 1, 1, 3, 1, 0.070000
0, 1, 1, 1, 1, 0.080000
0, 1, 2, 2, 1, 0.092000
0, 1, 0, 2, 1, 0.093000
0, 1, 0, 2, 1, 0.102000
0, 1, 2, 1, 1, 0.094000
0, 1, 2, 1, 1, 0.093000
0, 1, 3, 3, 1, 0.065000
0, 1, 3, 2, 1, 0.119000
0, 1, 3, 1, 1, 0.069000
0, 1, 3, 3, 1, 0.113000
0, 1, 1, 3, 1, 0.063000
1, 1, 2, 2, 1, 0.109000
1, 1, 1, 3, 1, 0.096000
1, 1, 1, 3, 1, 0.097000
1, 1, 1, 3, 1, 0.090000
1, 1, 3, 3, 1, 0.072000
1, 1, 3, 1, 1, 0.068000
1, 1, 0, 1, 1, 0.069000
1, 1, 1, 2, 1, 0.124000
1, 1, 2, 3, 1, 0.083000
1, 1, 1, 3, 1, 0.081000
1, 1, 1, 2, 1, 0.094000
1, 1, 0, 0, 1, 0.067000
1, 1, 0, 0, 1, 0.064000
1, 1, 1, 3, 1, 0.066000
1, 1, 0, 0, 1, 0.117000
1, 1, 0, 3, 1, 0.117000
1, 1, 3, 1, 1, 0.116000
1, 1, 1, 0, 1, 0.083000
1, 1, 1, 0, 1, 0.113000
1, 1, 0, 1, 1, 0.077000
1, 1, 2, 2, 1, 0.095000
1, 1, 0, 2, 1, 0.077000
1, 1, 2, 2, 1, 0.070000
1, 1, 1, 3, 1, 0.115000
1, 1, 1, 3, 1, 0.088000
1, 1, 1, 2, 1, 0.066000
1, 1, 0, 1, 1, 0.116000
1, 1, 2, 1, 1, 0.074000
1, 1, 1, 3, 1, 0.120000
1, 1, 3, 2, 1, 0.089000
1, 1, 2, 1, 1, 0.069000
1, 1, 3, 3, 1, 0.077000
1, 1, 2, 3, 1, 0.099000
1, 1, 2, 0, 1, 0.072000
1, 1, 2, 1, 1, 0.103000
1, 1, 2, 3, 1, 0.115000
1, 1, 1, 3, 1, 0.090000
1, 1, 0, 0, 1, 0.068000
1, 1, 3, 2, 1, 0.084000
1, 1, 2, 1, 1, 0.087000
1, 1, 1, 2, 1, 0.112000
1, 1, 2, 1, 1, 0.086000
1, 1, 3, 1, 1, 0.109000
1, 1, 3, 0, 1, 0.094000
1, 1, 1, 2, 1, 0.110000
1, 1, 3, 0, 1, 0.074000
1, 1, 2, 2, 1, 0.081000
1, 1, 0, 1, 1, 0.070000
1, 1, 3, 1, 1, 0.111000
1, 1, 2, 1, 1, 0.104000
1, 1, 0, 1, 1, 0.097000
1, 1, 3, 1, 1, 0.068000
1, 1, 2, 1, 1, 0.069000
1, 1, 1, 2, 1, 0.067000
1, 1, 1, 2, 1, 0.064000
1, 1, 1, 3, 1, 0.121000
1, 1, 0, 1, 1, 0.069000
1, 1, 2, 1, 1, 0.109000
1, 1, 1, 0, 1, 0.070000
2, 1, 0, 0, 1, 0.101000
2, 1, 3, 2, 1, 0.096000
2, 1, 2, 0, 1, 0.098000
2, 1, 0, 1, 1, 0.120000
2, 1, 1, 2, 1, 0.072000
2, 1, 2, 0, 1, 0.085000
2, 1, 2, 3, 1, 0.097000
2, 1, 2, 3, 1, 0.081000
2, 1, 0, 1, 1, 0.071000
2, 1, 0, 1, 1, 0.085000
2, 1, 3, 3, 1, 0.109000
2, 1, 3, 0, 1, 0.108000
2, 1, 2, 0, 1, 0.114000
2, 1, 3, 3, 1, 0.096000
2, 1, 1, 1, 1, 0.072000
2, 1, 2, 2, 1, 0.068000
2, 1, 2, 2, 1, 0.075000
2, 1, 0, 2, 1, 0.078000
2, 1, 3, 1, 1, 0.099000
2, 1, 3, 3, 1, 0.085000
2, 1, 3, 0, 1, 0.112000
2, 1, 0, 3, 1, 0.108000
2, 1, 3, 3, 1, 0.123000
2, 1, 1, 1, 1, 0.124000
2, 1, 3, 1, 1, 0.082000
2, 1, 0, 1, 1, 0.101000
2, 1, 0, 1, 1, 0.075000
2, 1, 1, 0, 1, 0.091000
2, 1, 0, 1, 1, 0.109000
2, 1, 0, 0, 1, 0.097000
2, 1, 1, 3, 1, 0.070000
2, 1, 2, 0, 1, 0.078000
2, 1, 1, 1, 1, 0.108000
2, 1, 2, 0, 1, 0.092000
2, 1, 0, 2, 1, 0.119000
2, 1, 0, 1, 1, 0.099000
2, 1, 0, 0, 1, 0.100000
2, 1, 2, 2, 1, 0.113000
2, 1, 2, 3, 1, 0.111000
2, 1, 2, 0, 1, 0.110000
2, 1, 0, 0, 1, 0.099000
2, 1, 0, 1, 1, 0.120000
2, 1, 2, 3, 1, 0.095000
2, 1, 3, 1, 1, 0.068000
2, 1, 2, 2, 1, 0.104000
2, 1, 1, 1, 1, 0.103000
2, 1, 1, 1, 1, 0.075000
2, 1, 1, 1, 1, 0.106000
2, 1, 3, 3, 1, 0.087000
2, 1, 2, 0, 1, 0.103000
2, 1, 3, 3, 1, 0.109000
2, 1, 3, 1, 1, 0.071000
2, 1, 0, 0, 1, 0.119000
2, 1, 3, 2, 1, 0.102000
2, 1, 1, 3, 1, 0.114000
2, 1, 2, 3, 1, 0.120000
2, 1, 2, 0, 1, 0.091000
2, 1, 1, 1, 1, 0.102000
2, 1, 0, 1, 1, 0.078000
2, 1, 2, 0, 1, 0.108000
2, 1, 2, 0, 1, 0.074000
2, 1, 3, 0, 1, 0.092000
2, 1, 2, 2, 1, 0.080000
2, 1, 3, 2, 1, 0.090000
2, 1, 1, 2, 1, 0.066000
2, 1, 3, 2, 1, 0.076000
2, 1, 2, 2, 1, 0.076000
2, 1, 2, 0, 1, 0.078000
2, 1, 2, 0, 1, 0.073000
2, 1, 1, 2, 1, 0.100000
2, 1, 1, 2, 1, 0.081000
2, 1, 1, 1, 1, 0.111000
2, 1, 0, 0, 1, 0.091000
2, 1, 2, 3, 1, 0.071000
2, 1, 3, 1, 1, 0.066000
2, 1, 0, 2, 1, 0.063000
2, 1, 0, 1, 1, 0.092000
2, 1, 3, 2, 1, 0.063000
2, 1, 1, 0, 1, 0.080000
2, 1, 0, 1, 1, 0.066000
2, 1, 3, 1, 1, 0.107000
2, 1, 2, 2, 1, 0.078000
2, 1, 3, 3, 1, 0.111000
2, 1, 2, 0, 1, 0.085000
2, 1, 2, 2, 1, 0.122000
3, 1, 0, 1, 1, 0.086000
3, 1, 0, 1, 1, 0.079000
3, 1, 0, 1, 1, 0.079000
3, 1, 3, 0, 1, 0.097000
3, 1, 2, 1, 1, 0.109000
3, 1, 1, 1, 1, 0.070000
3, 1, 0, 1, 1, 0.088000
3, 1, 1, 1, 1, 0.096000
3, 1, 2, 3, 1, 0.080000
3, 1, 1, 1, 1, 0.101000
3, 1, 2, 0, 1, 0.070000
3, 1, 0, 2, 1, 0.065000
3, 1, 2, 3, 1, 0.091000
3, 1, 1, 0, 1, 0.113000
3, 1, 1, 1, 1, 0.089000
3, 1, 2, 0, 1, 0.102000
3, 1, 2, 1, 1, 0.066000
3, 1, 1, 0, 1, 0.072000
3, 1, 2, 3, 1, 0.073000
3, 1, 3, 0, 1, 0.117000
3, 1, 2, 1, 1, 0.071000
3, 1, 3, 0, 1, 0.066000
3, 1, 0, 3, 1, 0.078000
3, 1, 2, 3, 1, 0.088000
3, 1, 1, 3, 1, 0.125000
3, 1, 1, 3, 1, 0.081000
3, 1, 1, 2, 1, 0.122000
3, 1, 2, 2, 1, 0.103000
3, 1, 0, 0, 1, 0.120000
3, 1, 3, 3, 1, 0.065000
3, 1, 2, 2, 1, 0.090000
3, 1, 0, 1, 1, 0.075000
3, 1, 1, 3, 1, 0.068000
3, 1, 1, 3, 1, 0.076000
3, 1, 2, 0, 1, 0.124000
3, 1, 2, 1, 1, 0.101000
3, 1, 0, 2, 1, 0.103000
3, 1, 0, 2, 1, 0.090000
3, 1, 2, 1, 1, 0.075000
3, 1, 2, 2, 1, 0.121000
3, 1, 3, 3, 1, 0.098000
3, 1, 2, 1, 1, 0.109000
3, 1, 1, 0, 1, 0.082000
3, 1, 1, 1, 1, 0.076000
3, 1, 0, 0, 1, 0.074000
3, 1, 2, 2, 1, 0.065000
3, 1, 1, 1, 1, 0.094000
3, 1, 1, 2, 1, 0.114000
3, 1, 2, 3, 1, 0.121000
3, 1, 2, 0, 1, 0.094000
3, 1, 1, 1, 1, 0.122000
3, 1, 0, 1, 1, 0.122000
3, 1, 3, 0, 1, 0.093000
3, 1, 0, 1, 1, 0.091000
3, 1, 1, 1, 1, 0.085000
3, 1, 2, 1, 1, 0.075000
3, 1, 0, 3, 1, 0.095000
3, 1, 2, 1, 1, 0.078000
3, 1, 2, 0, 1, 0.100000
3, 1, 3, 2, 1, 0.063000
3, 1, 0, 1, 1, 0.087000
3, 1, 3, 3, 1, 0.101000
3, 1, 1, 1, 1, 0.074000
3, 1, 1, 1, 1, 0.093000
3, 1, 1, 3, 1, 0.098000
0, 2, 2, 2, 1, 0.092000
0, 2, 1, 2, 1, 0.109000
0, 2, 3, 2, 1, 0.076000
0, 2, 0, 0, 1, 0.076000
0, 2, 0, 3, 1, 0.066000
0, 2, 1, 3, 1, 0.101000
0, 2, 0, 3, 1, 0.089000
0, 2, 0, 0, 1, 0.102000
0, 2, 2, 2, 1, 0.087000
0, 2, 1, 1, 1, 0.084000
0, 2, 0, 1, 1, 0.120000
0, 2, 3, 0, 1, 0.082000
0, 2, 1, 2, 1, 0.069000
0, 2, 3, 2, 1, 0.114000
0, 2, 0, 1, 1, 0.102000
0, 2, 1, 0, 1, 0.115000
0, 2, 0, 0, 1, 0.085000
0, 2, 0, 0, 1, 0.092000
0, 2, 1, 0, 1, 0.066000
0, 2, 0, 1, 1, 0.066000
0, 2, 2, 0, 1, 0.091000
0, 2, 0, 3, 1, 0.102000
0, 2, 2, 0, 1, 0.104000
0, 2, 1, 3, 1, 0.096000
0, 2, 3, 1, 1, 0.097000
0, 2, 3, 2, 1, 0.117000
0, 2, 3, 2, 1, 0.107000
0, 2, 1, 3, 1, 0.107000
0, 2, 1, 1, 1, 0.071000
0, 2, 2, 3, 1, 0.076000
0, 2, 1, 3, 1, 0.094000
0, 2, 3, 2, 1, 0.067000
0, 2, 2, 2, 1, 0.091000
0, 2, 0, 3, 1, 0.113000
0, 2, 0, 3, 1, 0.088000
0, 2, 0, 1, 1, 0.111000
0, 2, 0, 0, 1, 0.087000
0, 2, 0, 1, 1, 0.110000
0, 2, 1, 2, 1, 0.072000
0, 2, 1, 3, 1, 0.080000
0, 2, 3, 3, 1, 0.108000
0, 2, 3, 2, 1, 0.088000
0, 2, 0, 0, 1, 0.110000
0, 2, 1, 2, 1, 0.116000
0, 2, 0, 1, 1, 0.094000
0, 2, 3, 2, 1, 0.124000
0, 2, 2, 1, 1, 0.086000
0, 2, 1, 1, 1, 0.122000
0, 2, 1, 1, 1, 0.120000
0, 2, 0, 3, 1, 0.117000
0, 2, 3, 3, 1, 0.112000
0, 2, 3, 1, 1, 0.064000
0, 2, 2, 3, 1, 0.090000
0, 2, 0, 3, 1, 0.110000
0, 2, 2, 0, 1, 0.082000
0, 2, 1, 3, 1, 0.100000
0, 2, 0, 1, 1, 0.098000
0, 2, 2, 0, 1, 0.068000
0, 2, 2, 1, 1, 0.074000
0, 2, 2, 0, 1, 0.065000
0, 2, 1, 2, 1, 0.072000
0, 2, 2, 2, 1, 0.122000
0, 2, 3, 2, 1, 0.120000
0, 2, 1, 1, 1, 0.115000
0, 2, 0, 0, 1, 0.076000
0, 2, 3, 0, 1, 0.090000
0, 2, 2, 1, 1, 0.104000
0, 2, 2, 2, 1, 0.108000
0, 2, 1, 1, 1, 0.116000
0, 2, 0, 0, 1, 0.118000
0, 2, 2, 2, 1, 0.123000
0, 2, 0, 0, 1, 0.123000
0, 2, 1, 0, 1, 0.065000
0, 2, 2, 2, 1, 0.065000
0, 2, 3, 2, 1, 0.099000
0, 2, 0, 0, 1, 0.108000
1, 2, 3, 1, 1, 0.103000
1, 2, 0, 1, 1, 0.101000
1, 2, 1, 3, 1, 0.097000
1, 2, 2, 0, 1, 0.071000
1, 2, 2, 2, 1, 0.109000
1, 2, 0, 2, 1, 0.089000
1, 2, 0, 3, 1, 0.123000
1, 2, 2, 2, 1, 0.070000
1, 2, 0, 0, 1, 0.072000
1, 2, 2, 2, 1, 0.089000
1, 2, 3, 2, 1, 0.115000
1, 2, 2, 1, 1, 0.098000
1, 2, 0, 2, 1, 0.091000
1, 2, 2, 2, 1, 0.107000
1, 2, 2, 2, 1, 0.095000
1, 2, 0, 2, 1, 0.090000
1, 2, 1, 3, 1, 0.094000
1, 2, 2, 1, 1, 0.116000
1, 2, 2, 2, 1, 0.105000
1, 2, 3, 2, 1, 0.066000
1, 2, 2, 2, 1, 0.064000
1, 2, 0, 3, 1, 0.070000
1, 2, 3, 3, 1, 0.103000
1, 2, 0, 3, 1, 0.076000
1, 2, 1, 1, 1, 0.080000
1, 2, 1, 3, 1, 0.091000
1, 2, 0, 3, 1, 0.112000
1, 2, 2, 3, 1, 0.089000
1, 2, 1, 0, 1, 0.064000
1, 2, 3, 2, 1, 0.074000
1, 2, 0, 2, 1, 0.117000
1, 2, 3, 1, 1, 0.102000
1, 2, 3, 2, 1, 0.100000
1, 2, 3, 3, 1, 0.063000
1, 2, 3, 2, 1, 0.086000
1, 2, 0, 0, 1, 0.119000
1, 2, 1, 3, 1, 0.078000
1, 2, 2, 2, 1, 0.087000
1, 2, 3, 3, 1, 0.091000
1, 2, 1, 1, 1, 0.090000
1, 2, 2, 2, 1, 0.084000
1, 2, 1, 1, 1, 0.119000
1, 2, 1, 1, 1, 0.066000
1, 2, 1, 1, 1, 0.123000
1, 2, 1, 3, 1, 0.123000
1, 2, 0, 3, 1, 0.113000
1, 2, 1, 3, 1, 0.074000
1, 2, 2, 2, 1, 0.092000
1, 2, 3, 1, 1, 0.108000
1, 2, 3, 2, 1, 0.076000
1, 2, 0, 0, 1, 0.116000
1, 2, 3, 2, 1, 0.097000
1, 2, 0, 2, 1, 0.084000
1, 2, 3, 2, 1, 0.067000
1, 2, 2, 0, 1, 0.122000
1, 2, 3, 0, 1, 0.072000
1, 2, 2, 2, 1, 0.095000
1, 2, 3, 3, 1, 0.114000
1, 2, 0, 2, 1, 0.092000
1, 2, 3, 1, 1, 0.103000
1, 2, 3, 1, 1, 0.071000
1, 2, 3, 3, 1, 0.075000
1, 2, 3, 2, 1, 0.112000
1, 2, 3, 1, 1, 0.063000
1, 2, 1, 3, 1, 0.076000
1, 2, 3, 2, 1, 0.124000
1, 2, 1, 3, 1, 0.124000
1, 2, 0, 1, 1, 0.073000
1, 2, 1, 1, 1, 0.097000
1, 2, 3, 0, 1, 0.101000
1, 2, 3, 1, 1, 0.091000
1, 2, 1, 0, 1, 0.067000
1, 2, 1, 3, 1, 0.090000
1, 2, 2, 2, 1, 0.103000
1, 2, 0, 2, 1, 0.079000
1, 2, 0, 2, 1, 0.084000
1, 2, 2, 2, 1, 0.085000
1, 2, 0, 3, 1, 0.120000
1, 2, 1, 3, 1, 0.072000
1, 2, 2, 3, 1, 0.066000
1, 2, 1, 1, 1, 0.072000
1, 2, 0, 2, 1, 0.112000
1, 2, 1, 1, 1, 0.118000
1, 2, 2, 1, 1, 0.120000
1, 2, 3, 2, 1, 0.117000
1, 2, 3, 1, 1, 0.092000
1, 2, 0, 1, 1, 0.084000
1, 2, 1, 1, 1, 0.092000
1, 2, 1, 0, 1, 0.064000
1, 2, 3, 3, 1, 0.103000
1, 2, 0, 0, 1, 0.065000
1, 2, 1, 0, 1, 0.082000
2, 2, 2, 1, 1, 0.074000
2, 2, 1, 3, 1, 0.091000
2, 2, 2, 3, 1, 0.085000
2, 2, 1, 0, 1, 0.100000
2, 2, 2, 1, 1, 0.083000
2, 2, 0, 2, 1, 0.120000
2, 2, 2, 0, 1, 0.069000
2, 2, 1, 2, 1, 0.120000
2, 2, 2, 0, 1, 0.072000
2, 2, 1, 2, 1, 0.104000
2, 2, 2, 1, 1, 0.083000
2, 2, 1, 3, 1, 0.119000
2, 2, 2, 3, 1, 0.093000
2, 2, 1, 0, 1, 0.080000
2, 2, 0, 0, 1, 0.085000
2, 2, 3, 0, 1, 0.084000
2, 2, 0, 3, 1, 0.122000
2, 2, 2, 0, 1, 0.112000
2, 2, 2, 1, 1, 0.099000
2, 2, 2, 1, 1, 0.117000
2, 2, 1, 0, 1, 0.120000
2, 2, 0, 2, 1, 0.111000
2, 2, 3, 2, 1, 0.118000
2, 2, 2, 3, 1, 0.101000
2, 2, 2, 3, 1, 0.118000
2, 2, 2, 3, 1, 0.071000
2, 2, 2, 3, 1, 0.083000
2, 2, 3, 2, 1, 0.109000
2, 2, 1, 0, 1, 0.118000
2, 2, 1, 1, 1, 0.118000
2, 2, 2, 3, 1, 0.072000
2, 2, 3, 3, 1, 0.092000
2, 2, 2, 3, 1, 0.124000
2, 2, 1, 1, 1, 0.089000
2, 2, 0, 3, 1, 0.120000
2, 2, 2, 0, 1, 0.110000
2, 2, 1, 2, 1, 0.076000
2, 2, 1, 3, 1, 0.103000
2, 2, 0, 1, 1, 0.090000
2, 2, 1, 2, 1, 0.076000
2, 2, 0, 0, 1, 0.090000
2, 2, 1, 2, 1, 0.063000
2, 2, 1, 3, 1, 0.098000
2, 2, 0, 0, 1, 0.104000
2, 2, 0, 0, 1, 0.078000
2, 2, 3, 2, 1, 0.090000
2, 2, 1, 3, 1, 0.125000
3, 2, 0, 2, 1, 0.120000
3, 2, 2, 1, 1, 0.066000
3, 2, 3, 0, 1, 0.090000
3, 2, 3, 0, 1, 0.078000
3, 2, 1, 1, 1, 0.098000
3, 2, 0, 2, 1, 0.066000
3, 2, 3, 1, 1, 0.083000
3, 2, 1, 3, 1, 0.123000
3, 2, 0, 2, 1, 0.064000
3, 2, 2, 0, 1, 0.069000
3, 2, 3, 3, 1, 0.108000
3, 2, 2, 2, 1, 0.118000
3, 2, 3, 3, 1, 0.080000
3, 2, 1, 1, 1, 0.065000
3, 2, 3, 0, 1, 0.072000
3, 2, 3, 0, 1, 0.109000
3, 2, 1, 0, 1, 0.116000
3, 2, 0, 1, 1, 0.081000
3, 2, 3, 3, 1, 0.101000
3, 2, 2, 1, 1, 0.088000
3, 2, 1, 0, 1, 0.089000
3, 2, 2, 1, 1, 0.078000
3, 2, 3, 0, 1, 0.065000
3, 2, 0, 1, 1, 0.070000
3, 2, 0, 3, 1, 0.105000
3, 2, 1, 2, 1, 0.081000
3, 2, 0, 2, 1, 0.081000
3, 2, 1, 2, 1, 0.073000
3, 2, 2, 2, 1, 0.084000
3, 2, 0, 0, 1, 0.063000
3, 2, 2, 1, 1, 0.077000
3, 2, 3, 3, 1, 0.082000
3, 2, 1, 1, 1, 0.087000
3, 2, 1, 2, 1, 0.090000
3, 2, 0, 3, 1, 0.097000
3, 2, 2, 2, 1, 0.088000
3, 2, 1, 1, 1, 0.084000
3, 2, 3, 1, 1, 0.066000
3, 2, 1, 0, 1, 0.094000
3, 2, 0, 0, 1, 0.078000
3, 2, 0, 3, 1, 0.069000
3, 2, 3, 0, 1, 0.113000
3, 2, 1, 2, 1, 0.097000
3, 2, 3, 0, 1, 0.108000
3, 2, 0, 1, 1, 0.122000
3, 2, 1, 3, 1, 0.124000
3, 2, 3, 3, 1, 0.100000
3, 2, 2, 3, 1, 0.086000
3, 2, 0, 1, 1, 0.075000
3, 2, 3, 1, 1, 0.075000
3, 2, 0, 0, 1, 0.101000
3, 2, 0, 3, 1, 0.073000
3, 2, 3, 0, 1, 0.067000
3, 2, 2, 2, 1, 0.078000
3, 2, 1, 2, 1, 0.080000
3, 2, 1, 1, 1, 0.115000
0, 3, 2, 2, 1, 0.112000
0, 3, 3, 0, 1, 0.115000
0, 3, 1, 3, 1, 0.071000
0, 3, 2, 3, 1, 0.078000
0, 3, 3, 0, 1, 0.085000
0, 3, 0, 1, 1, 0.116000
0, 3, 1, 0, 1, 0.115000
0, 3, 1, 0, 1, 0.068000
0, 3, 2, 3, 1, 0.120000
0, 3, 3, 1, 1, 0.087000
0, 3, 3, 1, 1, 0.097000
0, 3, 1, 1, 1, 0.108000
0, 3, 3, 0, 1, 0.094000
0, 3, 3, 2, 1, 0.116000
0, 3, 3, 3, 1, 0.085000
0, 3, 3, 2, 1, 0.120000
0, 3, 0, 1, 1, 0.103000
0, 3, 2, 3, 1, 0.098000
0, 3, 3, 3, 1, 0.090000
0, 3, 2, 0, 1, 0.114000
0, 3, 1, 3, 1, 0.124000
0, 3, 0, 0, 1, 0.088000
0, 3, 0, 0, 1, 0.078000
0, 3, 1, 3, 1, 0.118000
0, 3, 2, 2, 1, 0.079000
0, 3, 0, 2, 1, 0.101000
0, 3, 1, 0, 1, 0.086000
0, 3, 2, 0, 1, 0.095000
0, 3, 1, 3, 1, 0.124000
0, 3, 1, 3, 1, 0.067000
0, 3, 0, 2, 1, 0.099000
0, 3, 1, 0, 1, 0.103000
0, 3, 0, 2, 1, 0.117000
0, 3, 2, 2, 1, 0.101000
0, 3, 0, 2, 1, 0.081000
0, 3, 1, 1, 1, 0.125000
0, 3, 1, 0, 1, 0.082000
0, 3, 0, 1, 1, 0.093000
0, 3, 1, 2, 1, 0.063000
0, 3, 0, 0, 1, 0.093000
0, 3, 1, 3, 1, 0.077000
0, 3, 1, 0, 1, 0.117000
0, 3, 0, 2, 1, 0.123000
0, 3, 2, 3, 1, 0.102000
0, 3, 0, 0, 1, 0.108000
0, 3, 0, 2, 1, 0.089000
0, 3, 3, 3, 1, 0.104000
0, 3, 3, 3, 1, 0.108000
0, 3, 0, 1, 1, 0.075000
0, 3, 1, 3, 1, 0.108000
0, 3, 1, 0, 1, 0.063000
0, 3, 3, 2, 1, 0.085000
0, 3, 1, 0, 1, 0.123000
0, 3, 2, 3, 1, 0.109000
0, 3, 2, 2, 1, 0.078000
0, 3, 1, 3, 1, 0.078000
0, 3, 1, 0, 1, 0.088000
0, 3, 1, 1, 1, 0.113000
0, 3, 3, 2, 1, 0.067000
0, 3, 1, 1, 1, 0.063000
0, 3, 3, 1, 1, 0.078000
0, 3, 0, 1, 1, 0.100000
0, 3, 0, 2, 1, 0.084000
0, 3, 2, 1, 1, 0.085000
0, 3, 0, 1, 1, 0.065000
0, 3, 2, 0, 1, 0.111000
0, 3, 1, 0, 1, 0.083000
0, 3, 3, 2, 1, 0.123000
0, 3, 1, 3, 1, 0.124000
0, 3, 3, 1, 1, 0.087000
0, 3, 2, 3, 1, 0.081000
0, 3, 0, 2, 1, 0.084000
0, 3, 0, 0, 1, 0.108000
0, 3, 2, 3, 1, 0.117000
0, 3, 2, 0, 1, 0.120000
0, 3, 0, 1, 1, 0.091000
0, 3, 2, 2, 1, 0.068000
0, 3, 1, 0, 1, 0.091000
0, 3, 3, 3, 1, 0.077000
0, 3, 2, 2, 1, 0.085000
0, 3, 2, 3, 1, 0.095000
0, 3, 3, 1, 1, 0.095000
0, 3, 1, 0, 1, 0.065000
0, 3, 2, 3, 1, 0.113000
0, 3, 3, 3, 1, 0.072000
0, 3, 1, 3, 1, 0.113000
0, 3, 3, 0, 1, 0.111000
0, 3, 3, 2, 1, 0.124000
0, 3, 2, 3, 1, 0.118000
0, 3, 2, 1, 1, 0.099000
0, 3, 2, 0, 1, 0.112000
0, 3, 3, 2, 1, 0.100000
0, 3, 2, 3, 1, 0.088000
0, 3, 0, 2, 1, 0.113000
0, 3, 2, 3, 1, 0.082000
0, 3, 0, 2, 1, 0.077000
1, 3, 0, 3, 1, 0.116000
1, 3, 0, 2, 1, 0.063000
1, 3, 3, 1, 1, 0.116000
1, 3, 1, 2, 1, 0.065000
1, 3, 2, 0, 1, 0.103000
1, 3, 1, 2, 1, 0.088000
1, 3, 1, 0, 1, 0.098000
1, 3, 0, 2, 1, 0.073000
1, 3, 0, 0, 1, 0.078000
1, 3, 0, 1, 1, 0.118000
1, 3, 2, 3, 1, 0.065000
1, 3, 3, 1, 1, 0.097000
1, 3, 1, 2, 1, 0.063000
1, 3, 0, 3, 1, 0.089000
1, 3, 0, 2, 1, 0.076000
1, 3, 0, 0, 1, 0.088000
1, 3, 0, 3, 1, 0.073000
1, 3, 0, 3, 1, 0.074000
1, 3, 1, 2, 1, 0.065000
1, 3, 2, 1, 1, 0.106000
1, 3, 2, 2, 1, 0.114000
1, 3, 3, 0, 1, 0.082000
1, 3, 1, 0, 1, 0.103000
1, 3, 2, 3, 1, 0.063000
1, 3, 2, 1, 1, 0.085000
1, 3, 2, 1, 1, 0.072000
1, 3, 0, 3, 1, 0.094000
1, 3, 2, 3, 1, 0.106000
1, 3, 1, 1, 1, 0.097000
1, 3, 1, 2, 1, 0.066000
1, 3, 2, 0, 1, 0.067000
1, 3, 2, 2, 1, 0.097000
1, 3, 3, 3, 1, 0.076000
1, 3, 0, 3, 1, 0.102000
1, 3, 1, 2, 1, 0.116000
1, 3, 2, 3, 1, 0.089000
1, 3, 3, 3, 1, 0.069000
1, 3, 0, 1, 1, 0.116000
1, 3, 2, 3, 1, 0.120000
1, 3, 1, 0, 1, 0.074000
1, 3, 3, 3, 1, 0.122000
1, 3, 3, 2, 1, 0.099000
1, 3, 2, 3, 1, 0.064000
1, 3, 0, 2, 1, 0.077000
1, 3, 0, 0, 1, 0.070000
1, 3, 1, 1, 1, 0.117000
1, 3, 1, 1, 1, 0.119000
1, 3, 3, 2, 1, 0.109000
1, 3, 0, 2, 1, 0.076000
1, 3, 3, 0, 1, 0.125000
1, 3, 1, 0, 1, 0.077000
1, 3, 3, 2, 1, 0.100000
1, 3, 0, 3, 1, 0.109000
1, 3, 1, 0, 1, 0.108000
1, 3, 3, 1, 1, 0.113000
1, 3, 2, 3, 1, 0.065000
1, 3, 0, 2, 1, 0.109000
1, 3, 3, 3, 1, 0.112000
1, 3, 1, 2, 1, 0.111000
1, 3, 1, 0, 1, 0.118000
1, 3, 1, 1, 1, 0.110000
1, 3, 3, 3, 1, 0.090000
1, 3, 1, 0, 1, 0.124000
1, 3, 1, 1, 1, 0.069000
1, 3, 0, 1, 1, 0.070000
1, 3, 2, 3, 1, 0.084000
1, 3, 1, 2, 1, 0.098000
1, 3, 1, 0, 1, 0.081000
1, 3, 2, 2, 1, 0.063000
1, 3, 3, 0, 1, 0.099000
1, 3, 3, 0, 1, 0.098000
1, 3, 0, 1, 1, 0.123000
1, 3, 2, 3, 1, 0.090000
1, 3, 0, 3, 1, 0.089000
1, 3, 1, 2, 1, 0.082000
1, 3, 1, 1, 1, 0.107000
1, 3, 0, 3, 1, 0.065000
1, 3, 2, 3, 1, 0.116000
1, 3, 1, 2, 1, 0.111000
1, 3, 0, 3, 1, 0.106000
2, 3, 3, 2, 1, 0.067000
2, 3, 2, 2, 1, 0.112000
2, 3, 2, 0, 1, 0.098000
2, 3, 1, 1, 1, 0.118000
2, 3, 1, 3, 1, 0.104000
2, 3, 0, 1, 1, 0.082000
2, 3, 0, 2, 1, 0.074000
2, 3, 2, 2, 1, 0.079000
2, 3, 0, 2, 1, 0.092000
2, 3, 0, 0, 1, 0.100000
2, 3, 0, 3, 1, 0.106000
2, 3, 1, 0, 1, 0.069000
2, 3, 2, 0, 1, 0.067000
2, 3, 0, 2, 1, 0.089000
2, 3, 1, 1, 1, 0.121000
2, 3, 0, 3, 1, 0.090000
2, 3, 3, 3, 1, 0.110000
2, 3, 2, 1, 1, 0.082000
2, 3, 3, 1, 1, 0.081000
2, 3, 2, 2, 1, 0.110000
2, 3, 1, 3, 1, 0.110000
2, 3, 3, 2, 1, 0.102000
2, 3, 1, 2, 1, 0.064000
2, 3, 3, 0, 1, 0.088000
2, 3, 3, 1, 1, 0.076000
2, 3, 2, 1, 1, 0.097000
2, 3, 0, 1, 1, 0.067000
2, 3, 2, 1, 1, 0.098000
2, 3, 1, 0, 1, 0.118000
2, 3, 0, 3, 1, 0.071000
2, 3, 1, 3, 1, 0.113000
2, 3, 3, 0, 1, 0.108000
2, 3, 1, 0, 1, 0.104000
2, 3, 2, 2, 1, 0.063000
2, 3, 0, 1, 1, 0.069000
2, 3, 2, 2, 1, 0.068000
2, 3, 3, 3, 1, 0.114000
2, 3, 3, 3, 1, 0.083000
2, 3, 2, 1, 1, 0.084000
2, 3, 0, 3, 1, 0.091000
2, 3, 1, 1, 1, 0.098000
2, 3, 2, 1, 1, 0.122000
2, 3, 0, 3, 1, 0.077000
2, 3, 2, 0, 1, 0.104000
2, 3, 0, 2, 1, 0.106000
2, 3, 2, 0, 1, 0.075000
2, 3, 3, 0, 1, 0.092000
2, 3, 3, 1, 1, 0.082000
2, 3, 2, 0, 1, 0.095000
2, 3, 3, 0, 1, 0.088000
2, 3, 0, 0, 1, 0.066000
2, 3, 2, 2, 1, 0.070000
2, 3, 3, 3, 1, 0.069000
2, 3, 0, 2, 1, 0.123000
2, 3, 0, 3, 1, 0.084000
2, 3, 3, 1, 1, 0.110000
2, 3, 3, 3, 1, 0.070000
2, 3, 0, 0, 1, 0.068000
2, 3, 2, 1, 1, 0.069000
2, 3, 1, 1, 1, 0.124000
2, 3, 1, 2, 1, 0.117000
2, 3, 2, 0, 1, 0.119000
2, 3, 3, 0, 1, 0.090000
2, 3, 0, 1, 1, 0.073000
2, 3, 2, 2, 1, 0.115000
2, 3, 0, 1, 1, 0.101000
2, 3, 0, 3, 1, 0.119000
2, 3, 3, 2, 1, 0.105000
2, 3, 3, 0, 1, 0.076000
2, 3, 1, 3, 1, 0.104000
2, 3, 1, 3, 1, 0.101000
2, 3, 2, 2, 1, 0.080000
2, 3, 2, 0, 1, 0.124000
2, 3, 1, 3, 1, 0.075000
2, 3, 1, 0, 1, 0.080000
2, 3, 1, 0, 1, 0.097000
2, 3, 0, 0, 1, 0.067000
2, 3, 0, 1, 1, 0.063000
2, 3, 3, 3, 1, 0.092000
2, 3, 1, 3, 1, 0.098000
2, 3, 0, 3, 1, 0.070000
2, 3, 2, 1, 1, 0.083000
2, 3, 0, 3, 1, 0.090000
2, 3, 2, 1, 1, 0.110000
2, 3, 3, 0, 1, 0.085000
2, 3, 1, 1, 1, 0.065000
2, 3, 3, 2, 1, 0.096000
2, 3, 2, 1, 1, 0.080000
2, 3, 2, 2, 1, 0.074000
2, 3, 1, 3, 1, 0.077000
2, 3, 2, 2, 1, 0.086000
2, 3, 3, 0, 1, 0.123000
2, 3, 2, 2, 1, 0.110000
2, 3, 2, 0, 1, 0.090000
2, 3, 0, 0, 1, 0.067000
2, 3, 0, 1, 1, 0.109000
2, 3, 3, 2, 1, 0.083000
2, 3, 2, 0, 1, 0.072000
2, 3, 3, 3, 1, 0.077000
3, 3, 2, 3, 1, 0.101000
3, 3, 2, 2, 1, 0.111000
3, 3, 0, 3, 1, 0.079000
3, 3, 0, 0, 1, 0.104000
3, 3, 3, 0, 1, 0.098000
3, 3, 3, 1, 1, 0.098000
3, 3, 3, 1, 1, 0.091000
3, 3, 3, 2, 1, 0.118000
3, 3, 3, 0, 1, 0.113000
3, 3, 1, 3, 1, 0.115000
3, 3, 0, 3, 1, 0.077000
3, 3, 2, 1, 1, 0.063000
3, 3, 3, 1, 1, 0.065000
3, 3, 0, 1, 1, 0.119000
3, 3, 0, 0, 1, 0.080000
3, 3, 2, 3, 1, 0.068000
3, 3, 3, 1, 1, 0.107000
3, 3, 1, 3, 1, 0.086000
3, 3, 2, 3, 1, 0.100000
3, 3, 3, 0, 1, 0.083000
3, 3, 1, 3, 1, 0.113000
