sX, sY, dX, dY, B, R
0, 0, 1, 0, 1, 0.191000
0, 0, 1, 0, 1, 0.852000
0, 0, 0, 2, 1, 0.384000
0, 0, 0, 3, 1, 0.977000
0, 0, 3, 0, 1, 0.848000
0, 0, 3, 1, 1, 0.229000
0, 0, 3, 3, 1, 0.596000
0, 0, 1, 2, 1, 0.081000
0, 0, 1, 0, 1, 0.550000
0, 0, 1, 0, 1, 0.758000
1, 0, 2, 2, 1, 0.943000
1, 0, 0, 0, 1, 0.133000
1, 0, 2, 1, 1, 0.416000
1, 0, 3, 3, 1, 0.731000
1, 0, 3, 0, 1, 0.829000
1, 0, 3, 3, 1, 0.098000
1, 0, 0, 0, 1, 0.316000
1, 0, 2, 0, 1, 0.754000
1, 0, 3, 0, 1, 0.878000
1, 0, 2, 2, 1, 0.592000
2, 0, 3, 2, 1, 0.818000
2, 0, 3, 1, 1, 0.649000
2, 0, 3, 1, 1, 0.696000
2, 0, 2, 2, 1, 0.573000
2, 0, 1, 1, 1, 0.251000
2, 0, 0, 1, 1, 0.234000
2, 0, 1, 0, 1, 0.460000
2, 0, 0, 2, 1, 0.645000
2, 0, 1, 0, 1, 0.318000
2, 0, 2, 2, 1, 0.618000
3, 0, 3, 1, 1, 0.202000
3, 0, 0, 3, 1, 0.938000
3, 0, 2, 3, 1, 0.704000
3, 0, 2, 0, 1, 0.290000
3, 0, 1, 3, 1, 0.602000
3, 0, 0, 1, 1, 0.202000
3, 0, 3, 3, 1, 0.792000
3, 0, 1, 3, 1, 0.890000
3, 0, 1, 3, 1, 0.122000
3, 0, 0, 0, 1, 0.499000
0, 1, 0, 2, 1, 0.714000
0, 1, 2, 2, 1, 0.614000
0, 1, 0, 0, 1, 0.112000
0, 1, 0, 3, 1, 0.721000
0, 1, 3, 0, 1, 0.655000
0, 1, 0, 0, 1, 0.162000
0, 1, 0, 2, 1, 0.071000
0, 1, 1, 0, 1, 0.465000
0, 1, 3, 2, 1, 0.132000
0, 1, 3, 3, 1, 0.322000
1, 1, 1, 3, 1, 0.223000
1, 1, 0, 3, 1, 0.860000
1, 1, 0, 3, 1, 0.783000
1, 1, 3, 2, 1, 0.007000
1, 1, 0, 3, 1, 0.595000
1, 1, 2, 2, 1, 0.895000
1, 1, 1, 0, 1, 0.929000
1, 1, 1, 0, 1, 0.559000
1, 1, 0, 3, 1, 0.816000
1, 1, 2, 0, 1, 0.113000
2, 1, 2, 2, 1, 0.246000
2, 1, 3, 1, 1, 0.957000
2, 1, 2, 3, 1, 0.533000
2, 1, 2, 3, 1, 0.369000
2, 1, 2, 3, 1, 0.558000
2, 1, 1, 2, 1, 0.332000
2, 1, 1, 1, 1, 0.580000
2, 1, 3, 0, 1, 0.685000
2, 1, 1, 3, 1, 0.543000
2, 1, 3, 1, 1, 0.197000
3, 1, 3, 2, 1, 0.248000
3, 1, 0, 1, 1, 0.231000
3, 1, 3, 0, 1, 0.258000
3, 1, 0, 2, 1, 0.644000
3, 1, 3, 0, 1, 0.105000
3, 1, 1, 0, 1, 0.705000
3, 1, 2, 2, 1, 0.386000
3, 1, 1, 1, 1, 0.755000
3, 1, 3, 0, 1, 0.105000
3, 1, 2, 0, 1, 0.691000
0, 2, 1, 1, 1, 0.595000
0, 2, 2, 0, 1, 0.161000
0, 2, 1, 2, 1, 0.670000
0, 2, 0, 0, 1, 0.345000
0, 2, 3, 2, 1, 0.128000
0, 2, 1, 1, 1, 0.433000
0, 2, 2, 1, 1, 0.761000
0, 2, 0, 1, 1, 0.680000
0, 2, 2, 2, 1, 0.031000
0, 2, 0, 0, 1, 0.533000
1, 2, 0, 2, 1, 0.460000
1, 2, 1, 1, 1, 0.652000
1, 2, 1, 3, 1, 0.716000
1, 2, 3, 3, 1, 0.370000
1, 2, 0, 3, 1, 0.437000
1, 2, 3, 2, 1, 0.025000
1, 2, 2, 0, 1, 0.029000
1, 2, 1, 0, 1, 0.220000
1, 2, 3, 3, 1, 0.887000
1, 2, 3, 1, 1, 0.667000
2, 2, 1, 2, 1, 0.751000
2, 2, 0, 2, 1, 0.453000
2, 2, 2, 1, 1, 0.782000
2, 2, 0, 1, 1, 0.393000
2, 2, 2, 0, 1, 0.542000
2, 2, 0, 3, 1, 0.586000
2, 2, 1, 3, 1, 0.694000
2, 2, 2, 0, 1, 0.514000
2, 2, 0, 2, 1, 0.329000
2, 2, 3, 0, 1, 0.399000
3, 2, 3, 3, 1, 0.999000
3, 2, 2, 2, 1, 0.377000
3, 2, 1, 0, 1, 0.572000
3, 2, 0, 1, 1, 0.167000
3, 2, 0, 2, 1, 0.559000
3, 2, 1, 1, 1, 0.943000
3, 2, 2, 2, 1, 0.853000
3, 2, 3, 3, 1, 0.029000
3, 2, 1, 2, 1, 0.373000
3, 2, 2, 0, 1, 0.723000
0, 3, 1, 0, 1, 0.621000
0, 3, 1, 2, 1, 0.281000
0, 3, 3, 3, 1, 0.382000
0, 3, 2, 2, 1, 0.670000
0, 3, 3, 3, 1, 0.754000
0, 3, 3, 2, 1, 0.766000
0, 3, 3, 3, 1, 0.750000
0, 3, 0, 2, 1, 0.791000
0, 3, 0, 1, 1, 0.383000
0, 3, 2, 3, 1, 0.513000
1, 3, 1, 1, 1, 0.650000
1, 3, 0, 3, 1, 0.778000
1, 3, 0, 0, 1, 0.016000
1, 3, 1, 1, 1, 0.161000
1, 3, 1, 1, 1, 0.137000
1, 3, 1, 0, 1, 0.618000
1, 3, 3, 3, 1, 0.072000
1, 3, 2, 3, 1, 0.571000
1, 3, 3, 2, 1, 0.906000
1, 3, 1, 0, 1, 0.335000
2, 3, 1, 1, 1, 0.048000
2, 3, 2, 2, 1, 0.526000
2, 3, 2, 1, 1, 0.505000
2, 3, 1, 2, 1, 0.260000
2, 3, 1, 3, 1, 0.113000
2, 3, 3, 3, 1, 0.645000
2, 3, 0, 0, 1, 0.860000
2, 3, 2, 1, 1, 0.420000
2, 3, 2, 0, 1, 0.516000
2, 3, 2, 2, 1, 0.981000
3, 3, 2, 3, 1, 0.536000
3, 3, 2, 1, 1, 0.809000
3, 3, 0, 1, 1, 0.557000
3, 3, 3, 1, 1, 0.594000
3, 3, 2, 0, 1, 0.713000
3, 3, 1, 0, 1, 0.507000
3, 3, 0, 1, 1, 0.898000
3, 3, 2, 2, 1, 0.177000
3, 3, 1, 3, 1, 0.884000
3, 3, 0, 2, 1, 0.493000
