sX, sY, dX, dY, B, R
0, 0, 1, 2, 1, 0.177000
0, 0, 1, 0, 1, 0.222000
0, 0, 0, 1, 1, 0.157000
0, 0, 2, 0, 1, 0.160000
0, 0, 0, 2, 1, 0.142000
0, 0, 2, 0, 1, 0.151000
0, 0, 1, 1, 1, 0.127000
0, 0, 2, 0, 1, 0.123000
0, 0, 1, 0, 1, 0.145000
0, 0, 1, 0, 1, 0.117000
0, 0, 1, 2, 1, 0.168000
0, 0, 0, 1, 1, 0.159000
0, 0, 2, 0, 1, 0.126000
0, 0, 2, 2, 1, 0.167000
0, 0, 0, 1, 1, 0.129000
0, 0, 0, 2, 1, 0.127000
0, 0, 2, 1, 1, 0.140000
0, 0, 0, 1, 1, 0.162000
0, 0, 0, 2, 1, 0.165000
0, 0, 2, 0, 1, 0.165000
0, 0, 1, 0, 1, 0.126000
0, 0, 1, 0, 1, 0.187000
0, 0, 0, 1, 1, 0.142000
0, 0, 1, 2, 1, 0.208000
0, 0, 0, 2, 1, 0.175000
0, 0, 2, 0, 1, 0.142000
0, 0, 1, 0, 1, 0.186000
0, 0, 1, 2, 1, 0.113000
0, 0, 1, 1, 1, 0.217000
0, 0, 1, 0, 1, 0.131000
0, 0, 2, 0, 1, 0.152000
0, 0, 0, 2, 1, 0.149000
0, 0, 0, 1, 1, 0.152000
0, 0, 2, 0, 1, 0.114000
0, 0, 1, 0, 1, 0.197000
0, 0, 0, 2, 1, 0.150000
0, 0, 2, 2, 1, 0.171000
0, 0, 1, 1, 1, 0.145000
0, 0, 1, 0, 1, 0.189000
0, 0, 1, 1, 1, 0.126000
0, 0, 1, 0, 1, 0.181000
0, 0, 2, 1, 1, 0.115000
0, 0, 0, 2, 1, 0.164000
0, 0, 2, 0, 1, 0.125000
0, 0, 0, 2, 1, 0.170000
0, 0, 0, 2, 1, 0.179000
0, 0, 1, 2, 1, 0.197000
0, 0, 0, 1, 1, 0.170000
0, 0, 2, 1, 1, 0.166000
0, 0, 1, 2, 1, 0.222000
0, 0, 1, 2, 1, 0.167000
0, 0, 2, 1, 1, 0.148000
1, 0, 0, 0, 1, 0.166000
2, 0, 0, 2, 1, 0.216000
2, 0, 2, 1, 1, 0.180000
2, 0, 1, 2, 1, 0.208000
2, 0, 2, 1, 1, 0.128000
2, 0, 0, 0, 1, 0.187000
2, 0, 2, 2, 1, 0.161000
2, 0, 2, 1, 1, 0.122000
2, 0, 1, 2, 1, 0.192000
2, 0, 1, 0, 1, 0.185000
2, 0, 1, 0, 1, 0.213000
2, 0, 1, 1, 1, 0.209000
2, 0, 2, 2, 1, 0.170000
2, 0, 2, 2, 1, 0.209000
2, 0, 0, 1, 1, 0.149000
2, 0, 0, 0, 1, 0.198000
2, 0, 1, 2, 1, 0.170000
2, 0, 0, 0, 1, 0.212000
2, 0, 0, 0, 1, 0.146000
2, 0, 0, 1, 1, 0.140000
2, 0, 0, 0, 1, 0.124000
2, 0, 1, 0, 1, 0.190000
2, 0, 0, 0, 1, 0.182000
2, 0, 1, 1, 1, 0.127000
2, 0, 1, 0, 1, 0.179000
2, 0, 1, 1, 1, 0.213000
2, 0, 0, 0, 1, 0.144000
2, 0, 0, 0, 1, 0.191000
2, 0, 2, 2, 1, 0.133000
2, 0, 2, 2, 1, 0.162000
2, 0, 2, 1, 1, 0.142000
2, 0, 2, 2, 1, 0.205000
2, 0, 1, 2, 1, 0.149000
2, 0, 1, 0, 1, 0.145000
2, 0, 0, 0, 1, 0.113000
2, 0, 0, 2, 1, 0.210000
2, 0, 0, 2, 1, 0.163000
2, 0, 1, 0, 1, 0.168000
2, 0, 2, 2, 1, 0.166000
2, 0, 0, 2, 1, 0.149000
2, 0, 1, 1, 1, 0.180000
2, 0, 1, 2, 1, 0.124000
2, 0, 1, 2, 1, 0.203000
2, 0, 1, 0, 1, 0.178000
2, 0, 1, 0, 1, 0.124000
2, 0, 2, 2, 1, 0.218000
2, 0, 2, 2, 1, 0.152000
2, 0, 0, 1, 1, 0.145000
2, 0, 0, 1, 1, 0.153000
2, 0, 0, 0, 1, 0.213000
2, 0, 2, 2, 1, 0.198000
2, 0, 0, 2, 1, 0.126000
2, 0, 2, 1, 1, 0.154000
2, 0, 1, 0, 1, 0.220000
2, 0, 1, 2, 1, 0.204000
2, 0, 2, 2, 1, 0.176000
2, 0, 2, 2, 1, 0.176000
2, 0, 2, 1, 1, 0.139000
2, 0, 1, 2, 1, 0.139000
2, 0, 0, 0, 1, 0.132000
2, 0, 1, 1, 1, 0.117000
2, 0, 0, 1, 1, 0.114000
2, 0, 2, 1, 1, 0.169000
2, 0, 0, 0, 1, 0.190000
2, 0, 1, 0, 1, 0.211000
2, 0, 2, 1, 1, 0.178000
2, 0, 0, 0, 1, 0.158000
2, 0, 2, 2, 1, 0.208000
2, 0, 0, 0, 1, 0.149000
2, 0, 0, 2, 1, 0.218000
2, 0, 0, 2, 1, 0.202000
2, 0, 2, 2, 1, 0.156000
2, 0, 0, 0, 1, 0.147000
2, 0, 2, 1, 1, 0.173000
2, 0, 2, 2, 1, 0.169000
2, 0, 0, 2, 1, 0.137000
2, 0, 0, 0, 1, 0.219000
2, 0, 2, 2, 1, 0.174000
2, 0, 2, 2, 1, 0.141000
2, 0, 1, 0, 1, 0.220000
2, 0, 2, 2, 1, 0.141000
2, 0, 2, 2, 1, 0.217000
2, 0, 2, 2, 1, 0.180000
2, 0, 0, 2, 1, 0.215000
2, 0, 0, 0, 1, 0.139000
2, 0, 2, 2, 1, 0.166000
2, 0, 0, 2, 1, 0.210000
2, 0, 0, 1, 1, 0.204000
2, 0, 0, 2, 1, 0.137000
2, 0, 2, 2, 1, 0.213000
2, 0, 2, 1, 1, 0.142000
2, 0, 0, 2, 1, 0.220000
2, 0, 1, 0, 1, 0.133000
2, 0, 1, 1, 1, 0.175000
0, 1, 0, 2, 1, 0.147000
0, 1, 1, 1, 1, 0.222000
0, 1, 1, 0, 1, 0.144000
0, 1, 2, 1, 1, 0.159000
0, 1, 2, 1, 1, 0.212000
0, 1, 1, 0, 1, 0.209000
0, 1, 0, 2, 1, 0.194000
0, 1, 0, 0, 1, 0.204000
0, 1, 0, 0, 1, 0.220000
0, 1, 1, 0, 1, 0.194000
0, 1, 1, 1, 1, 0.125000
0, 1, 2, 1, 1, 0.216000
0, 1, 0, 0, 1, 0.213000
0, 1, 1, 2, 1, 0.185000
0, 1, 2, 0, 1, 0.134000
0, 1, 2, 0, 1, 0.200000
0, 1, 0, 2, 1, 0.200000
0, 1, 0, 0, 1, 0.208000
0, 1, 2, 2, 1, 0.130000
0, 1, 0, 0, 1, 0.156000
0, 1, 0, 2, 1, 0.197000
0, 1, 1, 2, 1, 0.170000
0, 1, 2, 1, 1, 0.200000
0, 1, 1, 1, 1, 0.160000
0, 1, 0, 2, 1, 0.193000
0, 1, 0, 2, 1, 0.213000
0, 1, 1, 1, 1, 0.176000
0, 1, 2, 2, 1, 0.180000
0, 1, 0, 0, 1, 0.144000
0, 1, 0, 0, 1, 0.132000
0, 1, 0, 0, 1, 0.150000
0, 1, 2, 2, 1, 0.176000
0, 1, 1, 2, 1, 0.196000
0, 1, 2, 2, 1, 0.205000
0, 1, 1, 1, 1, 0.171000
0, 1, 2, 1, 1, 0.164000
0, 1, 1, 2, 1, 0.173000
0, 1, 1, 2, 1, 0.210000
0, 1, 1, 1, 1, 0.163000
0, 1, 1, 2, 1, 0.131000
0, 1, 1, 0, 1, 0.205000
0, 1, 0, 2, 1, 0.166000
0, 1, 2, 2, 1, 0.125000
0, 1, 1, 1, 1, 0.118000
0, 1, 2, 1, 1, 0.113000
0, 1, 2, 1, 1, 0.166000
0, 1, 0, 2, 1, 0.218000
0, 1, 2, 0, 1, 0.221000
0, 1, 2, 1, 1, 0.200000
0, 1, 0, 2, 1, 0.163000
0, 1, 1, 1, 1, 0.124000
0, 1, 1, 1, 1, 0.189000
0, 1, 1, 0, 1, 0.157000
0, 1, 1, 1, 1, 0.128000
0, 1, 1, 1, 1, 0.116000
0, 1, 2, 1, 1, 0.187000
0, 1, 2, 2, 1, 0.173000
0, 1, 0, 2, 1, 0.115000
0, 1, 0, 2, 1, 0.112000
0, 1, 2, 2, 1, 0.136000
0, 1, 2, 1, 1, 0.174000
0, 1, 1, 2, 1, 0.186000
0, 1, 0, 2, 1, 0.133000
0, 1, 2, 1, 1, 0.168000
0, 1, 1, 2, 1, 0.207000
0, 1, 1, 1, 1, 0.198000
0, 1, 2, 1, 1, 0.143000
0, 1, 0, 0, 1, 0.220000
0, 1, 0, 0, 1, 0.168000
0, 1, 0, 0, 1, 0.186000
0, 1, 1, 0, 1, 0.164000
0, 1, 2, 2, 1, 0.131000
0, 1, 2, 0, 1, 0.132000
0, 1, 2, 2, 1, 0.140000
0, 1, 2, 0, 1, 0.127000
0, 1, 0, 0, 1, 0.117000
0, 1, 0, 0, 1, 0.175000
0, 1, 2, 1, 1, 0.179000
0, 1, 2, 1, 1, 0.114000
0, 1, 2, 2, 1, 0.198000
0, 1, 2, 0, 1, 0.191000
0, 1, 0, 2, 1, 0.203000
0, 1, 0, 0, 1, 0.163000
0, 1, 2, 1, 1, 0.173000
0, 1, 2, 0, 1, 0.151000
0, 1, 1, 1, 1, 0.191000
0, 1, 1, 1, 1, 0.155000
0, 1, 1, 1, 1, 0.124000
0, 1, 2, 1, 1, 0.146000
0, 1, 0, 0, 1, 0.199000
0, 1, 0, 0, 1, 0.133000
0, 1, 2, 2, 1, 0.176000
0, 1, 1, 0, 1, 0.141000
0, 1, 2, 1, 1, 0.160000
1, 1, 2, 0, 1, 0.166000
1, 1, 0, 1, 1, 0.218000
1, 1, 2, 1, 1, 0.132000
1, 1, 0, 1, 1, 0.131000
1, 1, 1, 2, 1, 0.182000
1, 1, 2, 2, 1, 0.191000
1, 1, 1, 2, 1, 0.149000
1, 1, 1, 2, 1, 0.175000
1, 1, 0, 1, 1, 0.118000
1, 1, 1, 2, 1, 0.142000
1, 1, 0, 2, 1, 0.206000
1, 1, 2, 2, 1, 0.208000
1, 1, 1, 0, 1, 0.115000
1, 1, 1, 2, 1, 0.151000
1, 1, 1, 0, 1, 0.147000
1, 1, 0, 0, 1, 0.156000
1, 1, 2, 1, 1, 0.147000
1, 1, 1, 0, 1, 0.207000
1, 1, 0, 0, 1, 0.170000
1, 1, 1, 2, 1, 0.121000
1, 1, 1, 2, 1, 0.124000
1, 1, 1, 0, 1, 0.153000
1, 1, 2, 1, 1, 0.194000
1, 1, 0, 1, 1, 0.115000
1, 1, 0, 1, 1, 0.137000
1, 1, 0, 1, 1, 0.189000
1, 1, 1, 2, 1, 0.212000
1, 1, 0, 0, 1, 0.163000
1, 1, 0, 1, 1, 0.200000
1, 1, 2, 1, 1, 0.173000
1, 1, 2, 2, 1, 0.141000
1, 1, 1, 2, 1, 0.203000
1, 1, 0, 1, 1, 0.185000
1, 1, 0, 1, 1, 0.167000
1, 1, 2, 1, 1, 0.157000
1, 1, 0, 1, 1, 0.155000
1, 1, 1, 2, 1, 0.182000
1, 1, 2, 2, 1, 0.175000
1, 1, 1, 2, 1, 0.147000
1, 1, 0, 0, 1, 0.201000
1, 1, 1, 0, 1, 0.219000
1, 1, 0, 1, 1, 0.145000
1, 1, 0, 2, 1, 0.131000
1, 1, 2, 0, 1, 0.206000
1, 1, 0, 1, 1, 0.202000
1, 1, 0, 2, 1, 0.170000
1, 1, 1, 0, 1, 0.176000
1, 1, 1, 0, 1, 0.213000
1, 1, 0, 0, 1, 0.114000
1, 1, 0, 2, 1, 0.199000
1, 1, 1, 2, 1, 0.134000
1, 1, 1, 0, 1, 0.181000
1, 1, 2, 0, 1, 0.186000
1, 1, 2, 1, 1, 0.146000
1, 1, 1, 0, 1, 0.121000
2, 1, 1, 0, 1, 0.192000
2, 1, 0, 1, 1, 0.153000
2, 1, 0, 2, 1, 0.149000
2, 1, 1, 0, 1, 0.208000
2, 1, 1, 1, 1, 0.190000
2, 1, 1, 1, 1, 0.198000
2, 1, 0, 1, 1, 0.201000
2, 1, 2, 2, 1, 0.187000
2, 1, 0, 2, 1, 0.208000
2, 1, 0, 0, 1, 0.138000
2, 1, 2, 0, 1, 0.201000
2, 1, 2, 2, 1, 0.126000
2, 1, 1, 1, 1, 0.118000
2, 1, 2, 2, 1, 0.194000
2, 1, 1, 1, 1, 0.207000
2, 1, 2, 0, 1, 0.212000
2, 1, 0, 1, 1, 0.155000
2, 1, 0, 1, 1, 0.115000
2, 1, 0, 1, 1, 0.128000
2, 1, 2, 0, 1, 0.175000
2, 1, 1, 1, 1, 0.212000
2, 1, 2, 0, 1, 0.221000
2, 1, 1, 0, 1, 0.190000
2, 1, 0, 2, 1, 0.201000
2, 1, 0, 1, 1, 0.139000
2, 1, 0, 1, 1, 0.172000
2, 1, 0, 0, 1, 0.137000
2, 1, 0, 0, 1, 0.133000
2, 1, 0, 0, 1, 0.159000
2, 1, 2, 0, 1, 0.183000
2, 1, 2, 0, 1, 0.111000
2, 1, 0, 0, 1, 0.221000
2, 1, 1, 1, 1, 0.135000
2, 1, 1, 2, 1, 0.188000
2, 1, 2, 2, 1, 0.186000
2, 1, 1, 1, 1, 0.214000
2, 1, 1, 1, 1, 0.172000
2, 1, 2, 0, 1, 0.177000
2, 1, 2, 0, 1, 0.126000
2, 1, 2, 0, 1, 0.200000
2, 1, 1, 1, 1, 0.164000
2, 1, 2, 2, 1, 0.172000
2, 1, 1, 0, 1, 0.133000
2, 1, 2, 0, 1, 0.201000
2, 1, 2, 0, 1, 0.158000
2, 1, 0, 0, 1, 0.134000
2, 1, 0, 0, 1, 0.191000
2, 1, 0, 1, 1, 0.136000
2, 1, 1, 0, 1, 0.114000
2, 1, 2, 2, 1, 0.148000
2, 1, 2, 0, 1, 0.211000
2, 1, 2, 2, 1, 0.145000
2, 1, 0, 2, 1, 0.124000
2, 1, 0, 2, 1, 0.140000
2, 1, 2, 2, 1, 0.205000
2, 1, 0, 2, 1, 0.120000
2, 1, 0, 0, 1, 0.188000
2, 1, 0, 2, 1, 0.175000
2, 1, 2, 0, 1, 0.127000
2, 1, 1, 2, 1, 0.122000
2, 1, 2, 0, 1, 0.204000
2, 1, 0, 0, 1, 0.221000
2, 1, 1, 2, 1, 0.178000
2, 1, 1, 2, 1, 0.217000
2, 1, 2, 0, 1, 0.197000
2, 1, 0, 1, 1, 0.128000
2, 1, 2, 2, 1, 0.199000
2, 1, 2, 0, 1, 0.165000
2, 1, 1, 2, 1, 0.168000
2, 1, 0, 1, 1, 0.199000
2, 1, 1, 2, 1, 0.170000
2, 1, 0, 1, 1, 0.147000
2, 1, 0, 2, 1, 0.155000
2, 1, 1, 1, 1, 0.138000
0, 2, 2, 0, 1, 0.121000
0, 2, 0, 1, 1, 0.197000
0, 2, 0, 0, 1, 0.182000
0, 2, 0, 0, 1, 0.131000
0, 2, 0, 1, 1, 0.198000
0, 2, 2, 0, 1, 0.115000
0, 2, 2, 0, 1, 0.211000
0, 2, 0, 0, 1, 0.168000
0, 2, 0, 1, 1, 0.115000
0, 2, 2, 1, 1, 0.208000
0, 2, 0, 1, 1, 0.136000
0, 2, 1, 0, 1, 0.166000
0, 2, 0, 0, 1, 0.192000
0, 2, 1, 1, 1, 0.184000
0, 2, 2, 2, 1, 0.154000
0, 2, 2, 1, 1, 0.193000
0, 2, 2, 1, 1, 0.167000
0, 2, 1, 0, 1, 0.139000
0, 2, 2, 2, 1, 0.121000
0, 2, 2, 1, 1, 0.188000
0, 2, 0, 1, 1, 0.120000
0, 2, 0, 1, 1, 0.145000
0, 2, 2, 1, 1, 0.207000
0, 2, 0, 1, 1, 0.174000
0, 2, 2, 2, 1, 0.160000
0, 2, 0, 0, 1, 0.151000
0, 2, 1, 2, 1, 0.200000
0, 2, 0, 0, 1, 0.159000
0, 2, 0, 0, 1, 0.183000
0, 2, 2, 0, 1, 0.119000
0, 2, 0, 0, 1, 0.188000
0, 2, 2, 1, 1, 0.128000
0, 2, 0, 0, 1, 0.172000
0, 2, 0, 1, 1, 0.115000
0, 2, 1, 2, 1, 0.154000
0, 2, 2, 0, 1, 0.165000
0, 2, 1, 2, 1, 0.206000
0, 2, 0, 1, 1, 0.199000
0, 2, 2, 2, 1, 0.121000
0, 2, 2, 1, 1, 0.209000
1, 2, 1, 0, 1, 0.140000
1, 2, 0, 2, 1, 0.163000
1, 2, 1, 1, 1, 0.218000
1, 2, 0, 0, 1, 0.124000
1, 2, 0, 2, 1, 0.189000
1, 2, 2, 2, 1, 0.161000
1, 2, 0, 1, 1, 0.195000
1, 2, 1, 1, 1, 0.206000
1, 2, 1, 1, 1, 0.201000
1, 2, 2, 2, 1, 0.129000
1, 2, 1, 1, 1, 0.151000
1, 2, 2, 2, 1, 0.208000
1, 2, 0, 2, 1, 0.132000
1, 2, 1, 0, 1, 0.181000
1, 2, 1, 1, 1, 0.222000
1, 2, 2, 0, 1, 0.162000
1, 2, 1, 0, 1, 0.185000
1, 2, 2, 2, 1, 0.116000
1, 2, 1, 0, 1, 0.164000
1, 2, 2, 0, 1, 0.154000
1, 2, 1, 0, 1, 0.153000
1, 2, 1, 0, 1, 0.217000
1, 2, 1, 1, 1, 0.202000
1, 2, 2, 1, 1, 0.212000
1, 2, 0, 2, 1, 0.120000
1, 2, 0, 2, 1, 0.214000
1, 2, 2, 0, 1, 0.122000
1, 2, 1, 1, 1, 0.164000
1, 2, 1, 0, 1, 0.193000
1, 2, 1, 0, 1, 0.161000
1, 2, 0, 2, 1, 0.172000
1, 2, 2, 2, 1, 0.118000
1, 2, 1, 1, 1, 0.120000
1, 2, 0, 2, 1, 0.162000
1, 2, 1, 1, 1, 0.173000
1, 2, 2, 2, 1, 0.153000
1, 2, 2, 2, 1, 0.190000
1, 2, 2, 2, 1, 0.209000
1, 2, 0, 2, 1, 0.216000
1, 2, 1, 0, 1, 0.150000
1, 2, 2, 1, 1, 0.195000
1, 2, 1, 1, 1, 0.111000
1, 2, 2, 2, 1, 0.184000
1, 2, 0, 0, 1, 0.219000
1, 2, 2, 0, 1, 0.171000
1, 2, 1, 0, 1, 0.176000
1, 2, 1, 0, 1, 0.113000
1, 2, 2, 0, 1, 0.131000
1, 2, 0, 2, 1, 0.204000
1, 2, 0, 2, 1, 0.141000
1, 2, 2, 1, 1, 0.113000
1, 2, 0, 0, 1, 0.206000
1, 2, 2, 1, 1, 0.170000
1, 2, 1, 1, 1, 0.146000
1, 2, 1, 1, 1, 0.116000
1, 2, 1, 0, 1, 0.177000
1, 2, 1, 1, 1, 0.184000
1, 2, 1, 1, 1, 0.162000
1, 2, 1, 1, 1, 0.176000
1, 2, 0, 2, 1, 0.170000
1, 2, 0, 0, 1, 0.141000
1, 2, 1, 1, 1, 0.206000
1, 2, 0, 2, 1, 0.133000
1, 2, 1, 0, 1, 0.218000
1, 2, 1, 0, 1, 0.154000
1, 2, 0, 2, 1, 0.149000
1, 2, 2, 0, 1, 0.136000
1, 2, 0, 2, 1, 0.151000
1, 2, 0, 0, 1, 0.157000
1, 2, 0, 0, 1, 0.190000
1, 2, 0, 0, 1, 0.144000
1, 2, 2, 2, 1, 0.147000
1, 2, 1, 0, 1, 0.181000
1, 2, 2, 1, 1, 0.206000
1, 2, 2, 1, 1, 0.218000
1, 2, 0, 2, 1, 0.144000
1, 2, 2, 1, 1, 0.145000
1, 2, 2, 0, 1, 0.186000
1, 2, 2, 0, 1, 0.171000
1, 2, 0, 1, 1, 0.158000
1, 2, 2, 1, 1, 0.198000
1, 2, 0, 0, 1, 0.207000
1, 2, 0, 1, 1, 0.197000
1, 2, 1, 1, 1, 0.166000
1, 2, 2, 2, 1, 0.158000
1, 2, 0, 2, 1, 0.137000
1, 2, 2, 0, 1, 0.193000
1, 2, 1, 0, 1, 0.129000
1, 2, 2, 2, 1, 0.138000
1, 2, 0, 0, 1, 0.143000
2, 2, 1, 2, 1, 0.212000
2, 2, 2, 0, 1, 0.204000
2, 2, 2, 1, 1, 0.188000
2, 2, 2, 0, 1, 0.219000
2, 2, 0, 2, 1, 0.149000
2, 2, 2, 1, 1, 0.129000
2, 2, 0, 2, 1, 0.144000
2, 2, 0, 0, 1, 0.163000
2, 2, 0, 0, 1, 0.180000
2, 2, 1, 0, 1, 0.113000
2, 2, 0, 0, 1, 0.122000
2, 2, 1, 2, 1, 0.113000
2, 2, 2, 0, 1, 0.209000
2, 2, 1, 2, 1, 0.150000
2, 2, 2, 0, 1, 0.200000
2, 2, 2, 0, 1, 0.148000
2, 2, 0, 1, 1, 0.158000
2, 2, 2, 1, 1, 0.117000
2, 2, 0, 2, 1, 0.203000
2, 2, 2, 1, 1, 0.122000
2, 2, 0, 0, 1, 0.115000
2, 2, 1, 1, 1, 0.183000
2, 2, 1, 0, 1, 0.219000
2, 2, 2, 0, 1, 0.113000
2, 2, 0, 1, 1, 0.201000
2, 2, 1, 0, 1, 0.128000
2, 2, 1, 0, 1, 0.126000
2, 2, 1, 2, 1, 0.204000
2, 2, 0, 2, 1, 0.148000
2, 2, 0, 1, 1, 0.170000
2, 2, 0, 2, 1, 0.136000
2, 2, 2, 1, 1, 0.116000
2, 2, 0, 1, 1, 0.161000
2, 2, 2, 1, 1, 0.124000
2, 2, 2, 0, 1, 0.112000
2, 2, 0, 2, 1, 0.214000
2, 2, 1, 0, 1, 0.122000
2, 2, 2, 1, 1, 0.183000
2, 2, 0, 0, 1, 0.178000
2, 2, 0, 2, 1, 0.195000
2, 2, 1, 0, 1, 0.117000
2, 2, 1, 0, 1, 0.172000
2, 2, 1, 2, 1, 0.150000
2, 2, 1, 2, 1, 0.160000
2, 2, 2, 0, 1, 0.171000
2, 2, 2, 0, 1, 0.117000
2, 2, 1, 1, 1, 0.177000
2, 2, 1, 1, 1, 0.205000
2, 2, 0, 2, 1, 0.179000
2, 2, 2, 1, 1, 0.155000
2, 2, 0, 1, 1, 0.218000
2, 2, 2, 0, 1, 0.124000
2, 2, 0, 2, 1, 0.215000
2, 2, 2, 1, 1, 0.140000
2, 2, 2, 1, 1, 0.190000
2, 2, 1, 2, 1, 0.200000
2, 2, 1, 0, 1, 0.176000
2, 2, 2, 0, 1, 0.172000
2, 2, 2, 0, 1, 0.128000
2, 2, 2, 0, 1, 0.130000
2, 2, 0, 0, 1, 0.158000
2, 2, 1, 0, 1, 0.179000
2, 2, 1, 1, 1, 0.125000
2, 2, 1, 0, 1, 0.136000
2, 2, 0, 2, 1, 0.157000
2, 2, 2, 0, 1, 0.207000
2, 2, 2, 0, 1, 0.135000
2, 2, 1, 2, 1, 0.161000
2, 2, 2, 1, 1, 0.175000
2, 2, 2, 1, 1, 0.153000
2, 2, 1, 1, 1, 0.161000
2, 2, 1, 2, 1, 0.204000
2, 2, 1, 2, 1, 0.154000
2, 2, 0, 1, 1, 0.205000
2, 2, 1, 1, 1, 0.139000
2, 2, 2, 0, 1, 0.193000
2, 2, 1, 1, 1, 0.219000
2, 2, 2, 1, 1, 0.135000
2, 2, 0, 1, 1, 0.183000
2, 2, 2, 0, 1, 0.202000
2, 2, 0, 1, 1, 0.209000
2, 2, 1, 1, 1, 0.148000
2, 2, 0, 2, 1, 0.220000
2, 2, 0, 2, 1, 0.212000
2, 2, 1, 1, 1, 0.211000
2, 2, 0, 2, 1, 0.213000
2, 2, 0, 2, 1, 0.161000
